%!PS-Adobe-2.0 EPSF-2.0
%%BoundingBox:  0 0 567 384
%%Title: fit_plot_obs_x_SRVBF_0_bdt_vbf_inc_SRVBF_0_bdt_vbf_inc_correctBinning.eps: 
%%Creator: ROOT Version 6.16/00
%%CreationDate: Fri Aug  6 02:33:52 2021
%%DocumentNeededResources: ProcSet (FontSetInit)
%%EndComments
%%BeginProlog
80 dict begin
/s {stroke} def /l {lineto} def /m {moveto} def /t {translate} def
/r {rotate} def /rl {roll}  def /R {repeat} def
/d {rlineto} def /rm {rmoveto} def /gr {grestore} def /f {eofill} def
/c {setrgbcolor} def /black {0 setgray} def /sd {setdash} def
/cl {closepath} def /sf {scalefont setfont} def /lw {setlinewidth} def
/box {m dup 0 exch d exch 0 d 0 exch neg d cl} def
/NC{systemdict begin initclip end}def/C{NC box clip newpath}def
/bl {box s} def /bf {gsave box gsave f grestore 1 lw [] 0 sd s grestore} def /Y { 0 exch d} def /X { 0 d} def 
/K {{pop pop 0 moveto} exch kshow} bind def
/ita {/ang 15 def gsave [1 0 ang dup sin exch cos div 1 0 0] concat} def 
/mp {newpath /y exch def /x exch def} def
/side {[w .77 mul w .23 mul] .385 w mul sd w 0 l currentpoint t -144 r} def
/mr {mp x y w2 0 360 arc} def /m24 {mr s} def /m20 {mr f} def
/mb {mp x y w2 add m w2 neg 0 d 0 w neg d w 0 d 0 w d cl} def
/mt {mp x y w2 add m w2 neg w neg d w 0 d cl} def
/w4 {w 4 div} def
/w6 {w 6 div} def
/w8 {w 8 div} def
/m21 {mb f} def /m25 {mb s} def /m22 {mt f} def /m26{mt s} def
/m23 {mp x y w2 sub m w2 w d w neg 0 d cl f} def
/m27 {mp x y w2 add m w3 neg w2 neg d w3 w2 neg d w3 w2 d cl s} def
/m28 {mp x w2 sub y w2 sub w3 add m w3 0 d  0 w3 neg d w3 0 d 0 w3 d w3 0 d  0 w3 d w3 neg 0 d 0 w3 d w3 neg 0 d 0 w3 neg d w3 neg 0 d cl s } def
/m29 {mp gsave x w2 sub y w2 add w3 sub m currentpoint t 4 {side} repeat cl fill gr} def
/m30 {mp gsave x w2 sub y w2 add w3 sub m currentpoint t 4 {side} repeat cl s gr} def
/m31 {mp x y w2 sub m 0 w d x w2 sub y m w 0 d x w2 sub y w2 add m w w neg d x w2 sub y w2 sub m w w d s} def
/m32 {mp x y w2 sub m w2 w d w neg 0 d cl s} def
/m33 {mp x y w2 add m w3 neg w2 neg d w3 w2 neg d w3 w2 d cl f} def
/m34 {mp x w2 sub y w2 sub w3 add m w3 0 d  0 w3 neg d w3 0 d 0 w3 d w3 0 d  0 w3 d w3 neg 0 d 0 w3 d w3 neg 0 d 0 w3 neg d w3 neg 0 d cl f } def
/m35 {mp x y w2 add m w2 neg w2 neg d w2 w2 neg d w2 w2 d w2 neg w2 d x y w2 sub m 0 w d x w2 sub y m w 0 d s} def
/m36 {mb x w2 sub y w2 add m w w neg d x w2 sub y w2 sub m w w d s} def
/m37 {mp x y m w4 neg w2 d w4 neg w2 neg d w2 0 d  w4 neg w2 neg d w2 0 d w4 neg w2 d w2 0 d w4 neg w2 d w4 neg w2 neg d cl s} def
/m38 {mp x w4 sub y w2 add m w4 neg w4 neg d 0 w2 neg d w4 w4 neg d w2 0 d w4 w4 d 0 w2 d w4 neg w4 d w2 neg 0 d x y w2 sub m 0 w d x w2 sub y m w 0 d cl s} def
/m39 {mp x y m w4 neg w2 d w4 neg w2 neg d w2 0 d  w4 neg w2 neg d w2 0 d w4 neg w2 d w2 0 d w4 neg w2 d w4 neg w2 neg d cl f} def
/m40 {mp x y m w4 w2 d w4 w4 neg d w2 neg w4 neg d w2 w4 neg d w4 neg w4 neg d w4 neg w2 d w4 neg w2 neg d w4 neg w4 d w2 w4 d w2 neg w4 d w4 w4 d w4 w2 neg d cl s} def
/m41 {mp x y m w4 w2 d w4 w4 neg d w2 neg w4 neg d w2 w4 neg d w4 neg w4 neg d w4 neg w2 d w4 neg w2 neg d w4 neg w4 d w2 w4 d w2 neg w4 d w4 w4 d w4 w2 neg d cl f} def
/m42 {mp x y w2 add m w8 neg w2 -3 4 div mul d w2 -3 4 div mul w8 neg d w2 3 4 div mul w8 neg d w8 w2 -3 4 div mul d w8 w2 3 4 div mul d w2 3 4 div mul w8 d w2 -3 4 div mul w8 d w8 neg w2 3 4 div mul d cl s} def
/m43 {mp x y w2 add m w8 neg w2 -3 4 div mul d w2 -3 4 div mul w8 neg d w2 3 4 div mul w8 neg d w8 w2 -3 4 div mul d w8 w2 3 4 div mul d w2 3 4 div mul w8 d w2 -3 4 div mul w8 d w8 neg w2 3 4 div mul d cl f} def
/m44 {mp x y m w6 neg w2 d w2 2 3 div mul 0 d w6 neg w2 neg d w2 w6 d 0 w2 -2 3 div mul d w2 neg w6 d w6 w2 neg d w2 -2 3 div mul 0 d w6 w2 d w2 neg w6 neg d 0 w2 2 3 div mul d w2 w6 neg d cl s} def
/m45 {mp x y m w6 neg w2 d w2 2 3 div mul 0 d w6 neg w2 neg d w2 w6 d 0 w2 -2 3 div mul d w2 neg w6 d w6 w2 neg d w2 -2 3 div mul 0 d w6 w2 d w2 neg w6 neg d 0 w2 2 3 div mul d w2 w6 neg d cl f} def
/m46 {mp x y w4 add m w4 neg w4 d w4 neg w4 neg d  w4 w4 neg d w4 neg w4 neg d w4 w4 neg d w4 w4 d w4 w4 neg d w4 w4 d w4 neg w4 d w4 w4 d w4 neg w4 d w4 neg w4 neg d cl s} def
/m47 {mp x y w4 add m w4 neg w4 d w4 neg w4 neg d w4 w4 neg d w4 neg w4 neg d  w4 w4 neg d w4 w4 d w4 w4 neg d w4 w4 d w4 neg w4 d w4 w4 d w4 neg w4 d w4 neg w4 neg d cl f} def
/m48 {mp x y w4 add m w4 neg w4 d w4 neg w4 neg d w4 w4 neg d  w4 neg w4 neg d w4 w4 neg d w4 w4 d w4 w4 neg d w4 w4 d w4 neg w4 d w4 w4 d w4 neg w4 d w4 neg w4 neg d  w4 w4 neg d w4 neg w4 neg d w4 neg w4 d w4 w4 d cl f} def
/m49 {mp x w2 sub w3 add y w2 sub w3 add m  0 w3 neg d w3 0 d 0 w3 d w3 0 d 0 w3 d w3 neg 0 d 0 w3 d w3 neg 0 d 0 w3 neg d w3 neg 0 d 0 w3 neg d w3 0 d 0 w3 d w3 0 d 0 w3 neg d w3 neg 0 d cl f } def
/m2 {mp x y w2 sub m 0 w d x w2 sub y m w 0 d s} def
/m5 {mp x w2 sub y w2 sub m w w d x w2 sub y w2 add m w w neg d s} def
%%IncludeResource: ProcSet (FontSetInit)
%%IncludeResource: font Times-Roman
%%IncludeResource: font Times-Italic
%%IncludeResource: font Times-Bold
%%IncludeResource: font Times-BoldItalic
%%IncludeResource: font Helvetica
%%IncludeResource: font Helvetica-Oblique
%%IncludeResource: font Helvetica-Bold
%%IncludeResource: font Helvetica-BoldOblique
%%IncludeResource: font Courier
%%IncludeResource: font Courier-Oblique
%%IncludeResource: font Courier-Bold
%%IncludeResource: font Courier-BoldOblique
%%IncludeResource: font Symbol
%%IncludeResource: font ZapfDingbats
/reEncode {exch findfont dup length dict begin {1 index /FID eq  {pop pop} {def} ifelse } forall /Encoding exch def currentdict end dup /FontName get exch definefont pop } def [/Times-Bold /Times-Italic /Times-BoldItalic /Helvetica /Helvetica-Oblique
 /Helvetica-Bold /Helvetica-BoldOblique /Courier /Courier-Oblique /Courier-Bold /Courier-BoldOblique /Times-Roman /AvantGarde-Book /AvantGarde-BookOblique /AvantGarde-Demi /AvantGarde-DemiOblique /Bookman-Demi /Bookman-DemiItalic /Bookman-Light
 /Bookman-LightItalic /Helvetica-Narrow /Helvetica-Narrow-Bold /Helvetica-Narrow-BoldOblique /Helvetica-Narrow-Oblique /NewCenturySchlbk-Roman /NewCenturySchlbk-Bold /NewCenturySchlbk-BoldItalic /NewCenturySchlbk-Italic /Palatino-Bold
 /Palatino-BoldItalic /Palatino-Italic /Palatino-Roman ] {ISOLatin1Encoding reEncode } forall
%%EndProlog
%%BeginSetup
%%EndSetup
newpath  gsave  .25 .25 scale  gsave  0 0 t black[  ] 0 sd 3 lw 1 1 1 c 2268 1538 0 0 bf black 1 1 1 c 1814 1230 227 154 bf black 1814 1230 227 154 bl 1 1 1 c black 1 1 1 c 227 504 m 725 X 266 Y 581 X 237 Y 290 X 275 Y 218 X s black 227 154 m 1814 X
 s 227 191 m -37 Y s 263 172 m -18 Y s 299 172 m -18 Y s 336 172 m -18 Y s 372 172 m -18 Y s 408 191 m -37 Y s 444 172 m -18 Y s 481 172 m -18 Y s 517 172 m -18 Y s 553 172 m -18 Y s 590 191 m -37 Y s 626 172 m -18 Y s 662 172 m -18 Y s 698 172 m -18
 Y s 735 172 m -18 Y s 771 191 m -37 Y s 807 172 m -18 Y s 844 172 m -18 Y s 880 172 m -18 Y s 916 172 m -18 Y s 952 191 m -37 Y s 989 172 m -18 Y s 1025 172 m -18 Y s 1061 172 m -18 Y s 1098 172 m -18 Y s 1134 191 m -37 Y s 1170 172 m -18 Y s 1206
 172 m -18 Y s 1243 172 m -18 Y s 1279 172 m -18 Y s 1315 191 m -37 Y s 1352 172 m -18 Y s 1388 172 m -18 Y s 1424 172 m -18 Y s 1460 172 m -18 Y s 1497 191 m -37 Y s 1533 172 m -18 Y s 1569 172 m -18 Y s 1606 172 m -18 Y s 1642 172 m -18 Y s 1678
 191 m -37 Y s 1714 172 m -18 Y s 1751 172 m -18 Y s 1787 172 m -18 Y s 1823 172 m -18 Y s 1860 191 m -37 Y s 1896 172 m -18 Y s 1932 172 m -18 Y s 1968 172 m -18 Y s 2005 172 m -18 Y s 2041 191 m -37 Y s
 gsave  2268 1538 0 0 C 188.976 104.263 t 0 r /Helvetica findfont 48.8732 sf 0 0 m (0.5) show NC gr 
 gsave  2268 1538 0 0 C 358.403 104.263 t 0 r /Helvetica findfont 48.8732 sf 0 0 m (0.55) show NC gr 
 gsave  2268 1538 0 0 C 550.638 104.263 t 0 r /Helvetica findfont 48.8732 sf 0 0 m (0.6) show NC gr 
 gsave  2268 1538 0 0 C 720.065 104.263 t 0 r /Helvetica findfont 48.8732 sf 0 0 m (0.65) show NC gr 
 gsave  2268 1538 0 0 C 915.558 104.263 t 0 r /Helvetica findfont 48.8732 sf 0 0 m (0.7) show NC gr 
 gsave  2268 1538 0 0 C 1084.99 104.263 t 0 r /Helvetica findfont 48.8732 sf 0 0 m (0.75) show NC gr 
 gsave  2268 1538 0 0 C 1277.22 104.263 t 0 r /Helvetica findfont 48.8732 sf 0 0 m (0.8) show NC gr 
 gsave  2268 1538 0 0 C 1446.65 104.263 t 0 r /Helvetica findfont 48.8732 sf 0 0 m (0.85) show NC gr 
 gsave  2268 1538 0 0 C 1642.14 104.263 t 0 r /Helvetica findfont 48.8732 sf 0 0 m (0.9) show NC gr 
 gsave  2268 1538 0 0 C 1808.31 104.263 t 0 r /Helvetica findfont 48.8732 sf 0 0 m (0.95) show NC gr 
 gsave  2268 1538 0 0 C 2029.87 104.263 t 0 r /Helvetica findfont 48.8732 sf 0 0 m (1) show NC gr 
 gsave  2268 1538 0 0 C 1388 52.1314 t 0 r /Helvetica findfont 48.8732 sf 0 0 m (obs_x_SRVBF_0_bdt_vbf_inc) show NC gr  227 154 m 1230 Y s 281 156 m -54 X s 254 191 m -27 X s 254 226 m -27 X s 254 261 m -27 X s 254 297 m -27 X s 281 332 m -54 X s 254
 367 m -27 X s 254 402 m -27 X s 254 438 m -27 X s 254 473 m -27 X s 281 508 m -54 X s 254 544 m -27 X s 254 579 m -27 X s 254 614 m -27 X s 254 649 m -27 X s 281 685 m -54 X s 254 720 m -27 X s 254 755 m -27 X s 254 790 m -27 X s 254 826 m -27 X s
 281 861 m -54 X s 254 896 m -27 X s 254 932 m -27 X s 254 967 m -27 X s 254 1002 m -27 X s 281 1037 m -54 X s 254 1073 m -27 X s 254 1108 m -27 X s 254 1143 m -27 X s 254 1178 m -27 X s 281 1214 m -54 X s 281 156 m -54 X s 281 1214 m -54 X s 254
 1249 m -27 X s 254 1284 m -27 X s 254 1320 m -27 X s 254 1355 m -27 X s
 gsave  2268 1538 0 0 C 188.976 136.845 t 0 r /Helvetica findfont 48.8732 sf 0 0 m (0) show NC gr 
 gsave  2268 1538 0 0 C 133.587 312.788 t 0 r /Helvetica findfont 48.8732 sf 0 0 m (500) show NC gr 
 gsave  2268 1538 0 0 C 107.521 488.732 t 0 r /Helvetica findfont 48.8732 sf 0 0 m (1000) show NC gr 
 gsave  2268 1538 0 0 C 107.521 667.934 t 0 r /Helvetica findfont 48.8732 sf 0 0 m (1500) show NC gr 
 gsave  2268 1538 0 0 C 107.521 843.877 t 0 r /Helvetica findfont 48.8732 sf 0 0 m (2000) show NC gr 
 gsave  2268 1538 0 0 C 107.521 1019.82 t 0 r /Helvetica findfont 48.8732 sf 0 0 m (2500) show NC gr 
 gsave  2268 1538 0 0 C 107.521 1195.76 t 0 r /Helvetica findfont 48.8732 sf 0 0 m (3000) show NC gr 
 gsave  2268 1538 0 0 C 55.3896 1032.85 t 90 r /Helvetica findfont 48.8732 sf 0 0 m (Events / bdt_vbf) show NC gr  1 1 1 c black
 gsave  2268 1538 0 0 C 768.938 1462.94 t 0 r /Helvetica findfont 71.6807 sf 0 0 m (SRVBF_0_bdt_vbf_inc) show NC gr  1 0 0 c black 1 0 0 c 227 156 m 158 Y 725 X 121 Y 581 X 107 Y 290 X 125 Y 218 X -511 Y f black 1 0 0 c black 227 314 m 725 X 121 Y
 581 X 107 Y 290 X 125 Y 218 X s 0.6 0 0.6 c black 0.6 0 0.6 c 227 156 m 143 Y 725 X 92 Y 581 X 35 Y 290 X -64 Y 218 X -206 Y f black 0.6 0 0.6 c black 227 299 m 725 X 92 Y 581 X 35 Y 290 X -64 Y 218 X s 0.6 0.6 0 c black 0.6 0.6 0 c 227 156 m 89 Y
 725 X 60 Y 581 X 32 Y 290 X -19 Y 218 X -162 Y f black 0.6 0.6 0 c black 227 245 m 725 X 60 Y 581 X 32 Y 290 X -19 Y 218 X s 0 1 0 c black 0 1 0 c 227 156 m 49 Y 725 X 40 Y 581 X 12 Y 290 X -13 Y 218 X -88 Y f black 0 1 0 c black 227 205 m 725 X 40
 Y 581 X 12 Y 290 X -13 Y 218 X s 0 0 0.6 c black 0 0 0.6 c 227 156 m 19 Y 725 X 25 Y 581 X 7 Y 290 X 6 Y 218 X -57 Y f black 0 0 0.6 c black 227 175 m 725 X 25 Y 581 X 7 Y 290 X 6 Y 218 X s 0.2 0.2 0 c black 0.2 0.2 0 c 227 156 m 9 Y 725 X 14 Y 581
 X -7 Y 290 X 6 Y 218 X -22 Y f black 0.2 0.2 0 c black 227 165 m 725 X 14 Y 581 X -7 Y 290 X 6 Y 218 X s 0 0.6 0 c black 0 0.6 0 c 227 156 m 3 Y 725 X 5 Y 871 X -2 Y 218 X -6 Y f black 0 0.6 0 c black 227 159 m 725 X 5 Y 871 X -2 Y 218 X s 590 314 m
 158 Y s 583 472 m 13 X s 590 314 m -158 Y s 583 156 m 13 X s 1243 435 m 280 Y s 1236 715 m 13 X s 1243 435 m -279 Y s 1236 156 m 13 X s 1678 542 m 387 Y s 1672 929 m 13 X s 1678 542 m -386 Y s 1672 156 m 13 X s 1932 667 m 512 Y s 1926 1179 m 13 X s
 1932 667 m -511 Y s 1926 156 m 13 X s 1 1 1 c black /w 26 def /w2 {w 2 div} def /w3 {w 3 div} def 590 314 1243 435 1678 542 1932 667 4 { m20} R 1 1 1 c 1089 231 272 1153 bf black 272 1153 m 1089 X s 1361 1153 m 231 Y s 1361 1384 m -1089 X s 272 1384
 m -231 Y s
 gsave  2268 1538 0 0 C 338.854 1316.32 t 0 r /Helvetica findfont 29.3239 sf 0 0 m (vbf) show NC gr  1 0 0 c 282 1286 m 48 X 81 Y -48 X f black 282 1367 m 48 X s 282 1286 m 48 X s 330 1286 m 81 Y s 282 1286 m 81 Y s
 gsave  2268 1538 0 0 C 540.863 1319.58 t 0 r /Helvetica findfont 29.3239 sf 0 0 m (top) show NC gr  0.6 0 0.6 c 485 1286 m 48 X 81 Y -48 X f black 485 1367 m 48 X s 485 1286 m 48 X s 533 1286 m 81 Y s 485 1286 m 81 Y s
 gsave  2268 1538 0 0 C 821.07 1316.32 t 0 r /Helvetica findfont 29.3239 sf 0 0 m (diboson) show NC gr  0.6 0.6 0 c 763 1286 m 48 X 81 Y -48 X f black 763 1367 m 48 X s 763 1286 m 48 X s 811 1286 m 81 Y s 763 1286 m 81 Y s
 gsave  2268 1538 0 0 C 1189.25 1319.58 t 0 r /Helvetica findfont 29.3239 sf 0 0 m (Zjets) show NC gr  0 1 0 c 1134 1286 m 48 X 81 Y -48 X f black 1134 1367 m 48 X s 1134 1286 m 48 X s 1182 1286 m 81 Y s 1134 1286 m 81 Y s
 gsave  2268 1538 0 0 C 338.854 1202.28 t 0 r /Helvetica findfont 29.3239 sf 0 0 m (ggF) show NC gr  0 0 0.6 c 282 1171 m 48 X 80 Y -48 X f black 282 1251 m 48 X s 282 1171 m 48 X s 330 1171 m 80 Y s 282 1171 m 80 Y s
 gsave  2268 1538 0 0 C 540.863 1199.02 t 0 r /Helvetica findfont 29.3239 sf 0 0 m (Fakes) show NC gr  0.2 0.2 0 c 485 1171 m 48 X 80 Y -48 X f black 485 1251 m 48 X s 485 1171 m 48 X s 533 1171 m 80 Y s 485 1171 m 80 Y s
 gsave  2268 1538 0 0 C 821.07 1202.28 t 0 r /Helvetica findfont 29.3239 sf 0 0 m (Vgamma) show NC gr  0 0.6 0 c 763 1171 m 48 X 80 Y -48 X f black 763 1251 m 48 X s 763 1171 m 48 X s 811 1171 m 80 Y s 763 1171 m 80 Y s
 gsave  2268 1538 0 0 C 1189.25 1199.02 t 0 r /Helvetica findfont 29.3239 sf 0 0 m (data) show NC gr  1158 1224 m 22 Y s 1158 1198 m -22 Y s 1154 1246 m 9 X s 1154 1176 m 9 X s 1158 1211 m20 1 1 1 c black
 gsave  2268 1538 0 0 C 768.938 1462.94 t 0 r /Helvetica findfont 71.6807 sf 0 0 m (SRVBF_0_bdt_vbf_inc) show NC gr 
 gr  gr showpage
end
%%EOF
