%!PS-Adobe-2.0 EPSF-2.0
%%BoundingBox:  0 0 567 384
%%Title: cCorr_matrix_inc.eps: 
%%Creator: ROOT Version 6.16/00
%%CreationDate: Fri Aug  6 01:32:55 2021
%%DocumentNeededResources: ProcSet (FontSetInit)
%%EndComments
%%BeginProlog
80 dict begin
/s {stroke} def /l {lineto} def /m {moveto} def /t {translate} def
/r {rotate} def /rl {roll}  def /R {repeat} def
/d {rlineto} def /rm {rmoveto} def /gr {grestore} def /f {eofill} def
/c {setrgbcolor} def /black {0 setgray} def /sd {setdash} def
/cl {closepath} def /sf {scalefont setfont} def /lw {setlinewidth} def
/box {m dup 0 exch d exch 0 d 0 exch neg d cl} def
/NC{systemdict begin initclip end}def/C{NC box clip newpath}def
/bl {box s} def /bf {gsave box gsave f grestore 1 lw [] 0 sd s grestore} def /Y { 0 exch d} def /X { 0 d} def 
/K {{pop pop 0 moveto} exch kshow} bind def
/ita {/ang 15 def gsave [1 0 ang dup sin exch cos div 1 0 0] concat} def 
/mp {newpath /y exch def /x exch def} def
/side {[w .77 mul w .23 mul] .385 w mul sd w 0 l currentpoint t -144 r} def
/mr {mp x y w2 0 360 arc} def /m24 {mr s} def /m20 {mr f} def
/mb {mp x y w2 add m w2 neg 0 d 0 w neg d w 0 d 0 w d cl} def
/mt {mp x y w2 add m w2 neg w neg d w 0 d cl} def
/w4 {w 4 div} def
/w6 {w 6 div} def
/w8 {w 8 div} def
/m21 {mb f} def /m25 {mb s} def /m22 {mt f} def /m26{mt s} def
/m23 {mp x y w2 sub m w2 w d w neg 0 d cl f} def
/m27 {mp x y w2 add m w3 neg w2 neg d w3 w2 neg d w3 w2 d cl s} def
/m28 {mp x w2 sub y w2 sub w3 add m w3 0 d  0 w3 neg d w3 0 d 0 w3 d w3 0 d  0 w3 d w3 neg 0 d 0 w3 d w3 neg 0 d 0 w3 neg d w3 neg 0 d cl s } def
/m29 {mp gsave x w2 sub y w2 add w3 sub m currentpoint t 4 {side} repeat cl fill gr} def
/m30 {mp gsave x w2 sub y w2 add w3 sub m currentpoint t 4 {side} repeat cl s gr} def
/m31 {mp x y w2 sub m 0 w d x w2 sub y m w 0 d x w2 sub y w2 add m w w neg d x w2 sub y w2 sub m w w d s} def
/m32 {mp x y w2 sub m w2 w d w neg 0 d cl s} def
/m33 {mp x y w2 add m w3 neg w2 neg d w3 w2 neg d w3 w2 d cl f} def
/m34 {mp x w2 sub y w2 sub w3 add m w3 0 d  0 w3 neg d w3 0 d 0 w3 d w3 0 d  0 w3 d w3 neg 0 d 0 w3 d w3 neg 0 d 0 w3 neg d w3 neg 0 d cl f } def
/m35 {mp x y w2 add m w2 neg w2 neg d w2 w2 neg d w2 w2 d w2 neg w2 d x y w2 sub m 0 w d x w2 sub y m w 0 d s} def
/m36 {mb x w2 sub y w2 add m w w neg d x w2 sub y w2 sub m w w d s} def
/m37 {mp x y m w4 neg w2 d w4 neg w2 neg d w2 0 d  w4 neg w2 neg d w2 0 d w4 neg w2 d w2 0 d w4 neg w2 d w4 neg w2 neg d cl s} def
/m38 {mp x w4 sub y w2 add m w4 neg w4 neg d 0 w2 neg d w4 w4 neg d w2 0 d w4 w4 d 0 w2 d w4 neg w4 d w2 neg 0 d x y w2 sub m 0 w d x w2 sub y m w 0 d cl s} def
/m39 {mp x y m w4 neg w2 d w4 neg w2 neg d w2 0 d  w4 neg w2 neg d w2 0 d w4 neg w2 d w2 0 d w4 neg w2 d w4 neg w2 neg d cl f} def
/m40 {mp x y m w4 w2 d w4 w4 neg d w2 neg w4 neg d w2 w4 neg d w4 neg w4 neg d w4 neg w2 d w4 neg w2 neg d w4 neg w4 d w2 w4 d w2 neg w4 d w4 w4 d w4 w2 neg d cl s} def
/m41 {mp x y m w4 w2 d w4 w4 neg d w2 neg w4 neg d w2 w4 neg d w4 neg w4 neg d w4 neg w2 d w4 neg w2 neg d w4 neg w4 d w2 w4 d w2 neg w4 d w4 w4 d w4 w2 neg d cl f} def
/m42 {mp x y w2 add m w8 neg w2 -3 4 div mul d w2 -3 4 div mul w8 neg d w2 3 4 div mul w8 neg d w8 w2 -3 4 div mul d w8 w2 3 4 div mul d w2 3 4 div mul w8 d w2 -3 4 div mul w8 d w8 neg w2 3 4 div mul d cl s} def
/m43 {mp x y w2 add m w8 neg w2 -3 4 div mul d w2 -3 4 div mul w8 neg d w2 3 4 div mul w8 neg d w8 w2 -3 4 div mul d w8 w2 3 4 div mul d w2 3 4 div mul w8 d w2 -3 4 div mul w8 d w8 neg w2 3 4 div mul d cl f} def
/m44 {mp x y m w6 neg w2 d w2 2 3 div mul 0 d w6 neg w2 neg d w2 w6 d 0 w2 -2 3 div mul d w2 neg w6 d w6 w2 neg d w2 -2 3 div mul 0 d w6 w2 d w2 neg w6 neg d 0 w2 2 3 div mul d w2 w6 neg d cl s} def
/m45 {mp x y m w6 neg w2 d w2 2 3 div mul 0 d w6 neg w2 neg d w2 w6 d 0 w2 -2 3 div mul d w2 neg w6 d w6 w2 neg d w2 -2 3 div mul 0 d w6 w2 d w2 neg w6 neg d 0 w2 2 3 div mul d w2 w6 neg d cl f} def
/m46 {mp x y w4 add m w4 neg w4 d w4 neg w4 neg d  w4 w4 neg d w4 neg w4 neg d w4 w4 neg d w4 w4 d w4 w4 neg d w4 w4 d w4 neg w4 d w4 w4 d w4 neg w4 d w4 neg w4 neg d cl s} def
/m47 {mp x y w4 add m w4 neg w4 d w4 neg w4 neg d w4 w4 neg d w4 neg w4 neg d  w4 w4 neg d w4 w4 d w4 w4 neg d w4 w4 d w4 neg w4 d w4 w4 d w4 neg w4 d w4 neg w4 neg d cl f} def
/m48 {mp x y w4 add m w4 neg w4 d w4 neg w4 neg d w4 w4 neg d  w4 neg w4 neg d w4 w4 neg d w4 w4 d w4 w4 neg d w4 w4 d w4 neg w4 d w4 w4 d w4 neg w4 d w4 neg w4 neg d  w4 w4 neg d w4 neg w4 neg d w4 neg w4 d w4 w4 d cl f} def
/m49 {mp x w2 sub w3 add y w2 sub w3 add m  0 w3 neg d w3 0 d 0 w3 d w3 0 d 0 w3 d w3 neg 0 d 0 w3 d w3 neg 0 d 0 w3 neg d w3 neg 0 d 0 w3 neg d w3 0 d 0 w3 d w3 0 d 0 w3 neg d w3 neg 0 d cl f } def
/m2 {mp x y w2 sub m 0 w d x w2 sub y m w 0 d s} def
/m5 {mp x w2 sub y w2 sub m w w d x w2 sub y w2 add m w w neg d s} def
%%IncludeResource: ProcSet (FontSetInit)
%%IncludeResource: font Times-Roman
%%IncludeResource: font Times-Italic
%%IncludeResource: font Times-Bold
%%IncludeResource: font Times-BoldItalic
%%IncludeResource: font Helvetica
%%IncludeResource: font Helvetica-Oblique
%%IncludeResource: font Helvetica-Bold
%%IncludeResource: font Helvetica-BoldOblique
%%IncludeResource: font Courier
%%IncludeResource: font Courier-Oblique
%%IncludeResource: font Courier-Bold
%%IncludeResource: font Courier-BoldOblique
%%IncludeResource: font Symbol
%%IncludeResource: font ZapfDingbats
/reEncode {exch findfont dup length dict begin {1 index /FID eq  {pop pop} {def} ifelse } forall /Encoding exch def currentdict end dup /FontName get exch definefont pop } def [/Times-Bold /Times-Italic /Times-BoldItalic /Helvetica /Helvetica-Oblique
 /Helvetica-Bold /Helvetica-BoldOblique /Courier /Courier-Oblique /Courier-Bold /Courier-BoldOblique /Times-Roman /AvantGarde-Book /AvantGarde-BookOblique /AvantGarde-Demi /AvantGarde-DemiOblique /Bookman-Demi /Bookman-DemiItalic /Bookman-Light
 /Bookman-LightItalic /Helvetica-Narrow /Helvetica-Narrow-Bold /Helvetica-Narrow-BoldOblique /Helvetica-Narrow-Oblique /NewCenturySchlbk-Roman /NewCenturySchlbk-Bold /NewCenturySchlbk-BoldItalic /NewCenturySchlbk-Italic /Palatino-Bold
 /Palatino-BoldItalic /Palatino-Italic /Palatino-Roman ] {ISOLatin1Encoding reEncode } forall
%%EndProlog
%%BeginSetup
%%EndSetup
newpath  gsave  .25 .25 scale  gsave  0 0 t black[  ] 0 sd 3 lw 1 1 1 c 2268 1538 0 0 bf black 1 1 1 c 1701 1230 340 154 bf black 1701 1230 340 154 bl 1 1 1 c 0.977 0.977044 0.0583656 c 340 246 340 154 bf 0.116419 0.686966 0.702991 c 340 246 680 154
 bf 0.0526375 0.656131 0.763481 c 341 246 1020 154 bf 0.322347 0.730556 0.570878 c 340 246 1361 154 bf 0.453559 0.742331 0.504766 c 340 246 1701 154 bf 0.116419 0.686966 0.702991 c 340 246 340 400 bf 0.977 0.977044 0.0583656 c 340 246 680 400 bf
 0.1802 0.7178 0.6425 c 341 246 1020 400 bf 0.116419 0.686966 0.702991 c 340 246 1361 400 bf 0.1802 0.7178 0.6425 c 340 246 1701 400 bf 0.0526375 0.656131 0.763481 c 340 246 340 646 bf 0.1802 0.7178 0.6425 c 340 246 680 646 bf 0.977 0.977044
 0.0583656 c 341 246 1020 646 bf 0.116419 0.686966 0.702991 c 340 246 1361 646 bf 0.0526375 0.656131 0.763481 c 340 246 1701 646 bf 0.322347 0.730556 0.570878 c 340 246 340 892 bf 0.116419 0.686966 0.702991 c 340 246 680 892 bf 341 246 1020 892 bf
 0.977 0.977044 0.0583656 c 340 246 1361 892 bf 0.322347 0.730556 0.570878 c 340 246 1701 892 bf 0.453559 0.742331 0.504766 c 340 246 340 1138 bf 0.1802 0.7178 0.6425 c 340 246 680 1138 bf 0.0526375 0.656131 0.763481 c 341 246 1020 1138 bf 0.322347
 0.730556 0.570878 c 340 246 1361 1138 bf 0.977 0.977044 0.0583656 c 340 246 1701 1138 bf 0.150523 0.241303 0.660565 c 102 61 2052 154 bf 0.0880387 0.322448 0.802768 c 102 62 2052 215 bf 0.0633125 0.391444 0.861859 c 102 61 2052 277 bf 0.0703625
 0.445519 0.850647 c 102 62 2052 338 bf 0.078 0.5041 0.8385 c 102 61 2052 400 bf 0.0557375 0.560081 0.819366 c 102 62 2052 461 bf 0.033475 0.616063 0.800231 c 102 61 2052 523 bf 0.0526375 0.656131 0.763481 c 102 62 2052 584 bf 0.116419 0.686966
 0.702991 c 102 61 2052 646 bf 0.1802 0.7178 0.6425 c 102 62 2052 707 bf 0.322347 0.730556 0.570878 c 102 61 2052 769 bf 0.453559 0.742331 0.504766 c 102 62 2052 830 bf 0.584194 0.746125 0.444394 c 102 61 2052 892 bf 0.701397 0.739462 0.397147 c 102
 62 2052 953 bf 0.8186 0.7328 0.3499 c 102 62 2052 1015 bf 0.884975 0.752825 0.292488 c 102 61 2052 1077 bf 0.956881 0.774519 0.230291 c 102 62 2052 1138 bf 0.992 0.823138 0.170006 c 102 61 2052 1200 bf 0.9842 0.903169 0.111953 c 102 62 2052 1261 bf
 0.977 0.977044 0.0583656 c 102 61 2052 1323 bf black 2154 154 m 1230 Y s 2100 154 m 54 X s 2100 277 m 54 X s 2100 400 m 54 X s 2100 523 m 54 X s 2100 646 m 54 X s 2100 769 m 54 X s 2100 892 m 54 X s 2100 1015 m 54 X s 2100 1138 m 54 X s 2100 1261 m
 54 X s 2100 1384 m 54 X s 2100 154 m 54 X s
 gsave  2268 1538 0 0 C 2189.52 136.845 t 0 r /Helvetica findfont 48.8732 sf 0 0 m (1) show NC gr 
 gsave  2268 1538 0 0 C 2163.45 136.845 t 0 r /Symbol findfont 48.8732 sf 0 0 m (-) show NC gr 
 gsave  2268 1538 0 0 C 2189.52 257.399 t 0 r /Helvetica findfont 48.8732 sf 0 0 m (0.8) show NC gr 
 gsave  2268 1538 0 0 C 2163.45 257.399 t 0 r /Symbol findfont 48.8732 sf 0 0 m (-) show NC gr 
 gsave  2268 1538 0 0 C 2189.52 381.211 t 0 r /Helvetica findfont 48.8732 sf 0 0 m (0.6) show NC gr 
 gsave  2268 1538 0 0 C 2163.45 381.211 t 0 r /Symbol findfont 48.8732 sf 0 0 m (-) show NC gr 
 gsave  2268 1538 0 0 C 2189.52 505.023 t 0 r /Helvetica findfont 48.8732 sf 0 0 m (0.4) show NC gr 
 gsave  2268 1538 0 0 C 2163.45 505.023 t 0 r /Symbol findfont 48.8732 sf 0 0 m (-) show NC gr 
 gsave  2268 1538 0 0 C 2189.52 628.835 t 0 r /Helvetica findfont 48.8732 sf 0 0 m (0.2) show NC gr 
 gsave  2268 1538 0 0 C 2163.45 628.835 t 0 r /Symbol findfont 48.8732 sf 0 0 m (-) show NC gr 
 gsave  2268 1538 0 0 C 2163.45 749.389 t 0 r /Helvetica findfont 48.8732 sf 0 0 m (0) show NC gr 
 gsave  2268 1538 0 0 C 2163.45 873.201 t 0 r /Helvetica findfont 48.8732 sf 0 0 m (0.2) show NC gr 
 gsave  2268 1538 0 0 C 2163.45 997.013 t 0 r /Helvetica findfont 48.8732 sf 0 0 m (0.4) show NC gr 
 gsave  2268 1538 0 0 C 2163.45 1120.83 t 0 r /Helvetica findfont 48.8732 sf 0 0 m (0.6) show NC gr 
 gsave  2268 1538 0 0 C 2163.45 1244.64 t 0 r /Helvetica findfont 48.8732 sf 0 0 m (0.8) show NC gr 
 gsave  2268 1538 0 0 C 2163.45 1365.19 t 0 r /Helvetica findfont 48.8732 sf 0 0 m (1) show NC gr  1 1 1 c black
 gsave  2268 1538 0 0 C 478.957 263.915 t 0 r /Helvetica-Bold findfont 29.3239 sf 0 0 m (1.00) show NC gr 
 gsave  2268 1538 0 0 C 814.553 263.915 t 0 r /Helvetica-Bold findfont 29.3239 sf 0 0 m (\2550.13) show NC gr 
 gsave  2268 1538 0 0 C 1153.41 263.915 t 0 r /Helvetica-Bold findfont 29.3239 sf 0 0 m (\2550.24) show NC gr 
 gsave  2268 1538 0 0 C 1498.78 263.915 t 0 r /Helvetica-Bold findfont 29.3239 sf 0 0 m (0.05) show NC gr 
 gsave  2268 1538 0 0 C 1840.89 263.915 t 0 r /Helvetica-Bold findfont 29.3239 sf 0 0 m (0.13) show NC gr 
 gsave  2268 1538 0 0 C 472.441 511.539 t 0 r /Helvetica-Bold findfont 29.3239 sf 0 0 m (\2550.13) show NC gr 
 gsave  2268 1538 0 0 C 821.07 511.539 t 0 r /Helvetica-Bold findfont 29.3239 sf 0 0 m (1.00) show NC gr 
 gsave  2268 1538 0 0 C 1153.41 511.539 t 0 r /Helvetica-Bold findfont 29.3239 sf 0 0 m (\2550.08) show NC gr 
 gsave  2268 1538 0 0 C 1495.52 511.539 t 0 r /Helvetica-Bold findfont 29.3239 sf 0 0 m (\2550.11) show NC gr 
 gsave  2268 1538 0 0 C 1837.63 511.539 t 0 r /Helvetica-Bold findfont 29.3239 sf 0 0 m (\2550.01) show NC gr 
 gsave  2268 1538 0 0 C 472.441 755.906 t 0 r /Helvetica-Bold findfont 29.3239 sf 0 0 m (\2550.24) show NC gr 
 gsave  2268 1538 0 0 C 814.553 755.906 t 0 r /Helvetica-Bold findfont 29.3239 sf 0 0 m (\2550.08) show NC gr 
 gsave  2268 1538 0 0 C 1159.92 755.906 t 0 r /Helvetica-Bold findfont 29.3239 sf 0 0 m (1.00) show NC gr 
 gsave  2268 1538 0 0 C 1492.26 755.906 t 0 r /Helvetica-Bold findfont 29.3239 sf 0 0 m (\2550.18) show NC gr 
 gsave  2268 1538 0 0 C 1834.37 755.906 t 0 r /Helvetica-Bold findfont 29.3239 sf 0 0 m (\2550.29) show NC gr 
 gsave  2268 1538 0 0 C 478.957 1003.53 t 0 r /Helvetica-Bold findfont 29.3239 sf 0 0 m (0.05) show NC gr 
 gsave  2268 1538 0 0 C 817.812 1003.53 t 0 r /Helvetica-Bold findfont 29.3239 sf 0 0 m (\2550.11) show NC gr 
 gsave  2268 1538 0 0 C 1153.41 1003.53 t 0 r /Helvetica-Bold findfont 29.3239 sf 0 0 m (\2550.18) show NC gr 
 gsave  2268 1538 0 0 C 1498.78 1003.53 t 0 r /Helvetica-Bold findfont 29.3239 sf 0 0 m (1.00) show NC gr 
 gsave  2268 1538 0 0 C 1840.89 1003.53 t 0 r /Helvetica-Bold findfont 29.3239 sf 0 0 m (0.00) show NC gr 
 gsave  2268 1538 0 0 C 478.957 1251.15 t 0 r /Helvetica-Bold findfont 29.3239 sf 0 0 m (0.13) show NC gr 
 gsave  2268 1538 0 0 C 817.812 1251.15 t 0 r /Helvetica-Bold findfont 29.3239 sf 0 0 m (\2550.01) show NC gr 
 gsave  2268 1538 0 0 C 1153.41 1251.15 t 0 r /Helvetica-Bold findfont 29.3239 sf 0 0 m (\2550.29) show NC gr 
 gsave  2268 1538 0 0 C 1498.78 1251.15 t 0 r /Helvetica-Bold findfont 29.3239 sf 0 0 m (0.00) show NC gr 
 gsave  2268 1538 0 0 C 1840.89 1251.15 t 0 r /Helvetica-Bold findfont 29.3239 sf 0 0 m (1.00) show NC gr  340 154 m 1701 X s
 gsave  2268 1538 0 0 C 423.568 110.779 t 0 r /Helvetica findfont 32.5821 sf 0 0 m (sigma_bin0) show NC gr 
 gsave  2268 1538 0 0 C 726.582 110.779 t 0 r /Helvetica findfont 32.5821 sf 0 0 m (mu_wwTop_SR2) show NC gr 
 gsave  2268 1538 0 0 C 1133.86 110.779 t 0 r /Helvetica findfont 32.5821 sf 0 0 m (mu_ggf) show NC gr 
 gsave  2268 1538 0 0 C 1459.68 110.779 t 0 r /Helvetica findfont 32.5821 sf 0 0 m (mu_Zjets) show NC gr 
 gsave  2268 1538 0 0 C 1717.08 110.779 t 0 r /Helvetica findfont 32.5821 sf 0 0 m (mu_wwTop_CRGGF) show NC gr  340 188 m -34 Y s 680 188 m -34 Y s 1020 188 m -34 Y s 1361 188 m -34 Y s 1701 188 m -34 Y s 2041 188 m -34 Y s 340 154 m 1230 Y s
 gsave  2268 1538 0 0 C 146.62 267.173 t 0 r /Helvetica findfont 32.5821 sf 0 0 m (sigma_bin0) show NC gr 
 gsave  2268 1538 0 0 C 65.1643 514.798 t 0 r /Helvetica findfont 32.5821 sf 0 0 m (mu_wwTop_SR2) show NC gr 
 gsave  2268 1538 0 0 C 202.009 759.164 t 0 r /Helvetica findfont 32.5821 sf 0 0 m (mu_ggf) show NC gr 
 gsave  2268 1538 0 0 C 179.202 1006.79 t 0 r /Helvetica findfont 32.5821 sf 0 0 m (mu_Zjets) show NC gr 
 gsave  2268 1538 0 0 C 9.77464 1254.41 t 0 r /Helvetica findfont 32.5821 sf 0 0 m (mu_wwTop_CRGGF) show NC gr  395 154 m -55 X s 395 400 m -55 X s 395 646 m -55 X s 395 892 m -55 X s 395 1138 m -55 X s 395 1384 m -55 X s
 gr  gr showpage
end
%%EOF
