%!PS-Adobe-2.0 EPSF-2.0
%%BoundingBox:  0 0 567 384
%%Title: cCorrNpAll_matrix_inc.eps: 
%%Creator: ROOT Version 6.16/00
%%CreationDate: Fri Aug  6 01:32:55 2021
%%DocumentNeededResources: ProcSet (FontSetInit)
%%EndComments
%%BeginProlog
80 dict begin
/s {stroke} def /l {lineto} def /m {moveto} def /t {translate} def
/r {rotate} def /rl {roll}  def /R {repeat} def
/d {rlineto} def /rm {rmoveto} def /gr {grestore} def /f {eofill} def
/c {setrgbcolor} def /black {0 setgray} def /sd {setdash} def
/cl {closepath} def /sf {scalefont setfont} def /lw {setlinewidth} def
/box {m dup 0 exch d exch 0 d 0 exch neg d cl} def
/NC{systemdict begin initclip end}def/C{NC box clip newpath}def
/bl {box s} def /bf {gsave box gsave f grestore 1 lw [] 0 sd s grestore} def /Y { 0 exch d} def /X { 0 d} def 
/K {{pop pop 0 moveto} exch kshow} bind def
/ita {/ang 15 def gsave [1 0 ang dup sin exch cos div 1 0 0] concat} def 
/mp {newpath /y exch def /x exch def} def
/side {[w .77 mul w .23 mul] .385 w mul sd w 0 l currentpoint t -144 r} def
/mr {mp x y w2 0 360 arc} def /m24 {mr s} def /m20 {mr f} def
/mb {mp x y w2 add m w2 neg 0 d 0 w neg d w 0 d 0 w d cl} def
/mt {mp x y w2 add m w2 neg w neg d w 0 d cl} def
/w4 {w 4 div} def
/w6 {w 6 div} def
/w8 {w 8 div} def
/m21 {mb f} def /m25 {mb s} def /m22 {mt f} def /m26{mt s} def
/m23 {mp x y w2 sub m w2 w d w neg 0 d cl f} def
/m27 {mp x y w2 add m w3 neg w2 neg d w3 w2 neg d w3 w2 d cl s} def
/m28 {mp x w2 sub y w2 sub w3 add m w3 0 d  0 w3 neg d w3 0 d 0 w3 d w3 0 d  0 w3 d w3 neg 0 d 0 w3 d w3 neg 0 d 0 w3 neg d w3 neg 0 d cl s } def
/m29 {mp gsave x w2 sub y w2 add w3 sub m currentpoint t 4 {side} repeat cl fill gr} def
/m30 {mp gsave x w2 sub y w2 add w3 sub m currentpoint t 4 {side} repeat cl s gr} def
/m31 {mp x y w2 sub m 0 w d x w2 sub y m w 0 d x w2 sub y w2 add m w w neg d x w2 sub y w2 sub m w w d s} def
/m32 {mp x y w2 sub m w2 w d w neg 0 d cl s} def
/m33 {mp x y w2 add m w3 neg w2 neg d w3 w2 neg d w3 w2 d cl f} def
/m34 {mp x w2 sub y w2 sub w3 add m w3 0 d  0 w3 neg d w3 0 d 0 w3 d w3 0 d  0 w3 d w3 neg 0 d 0 w3 d w3 neg 0 d 0 w3 neg d w3 neg 0 d cl f } def
/m35 {mp x y w2 add m w2 neg w2 neg d w2 w2 neg d w2 w2 d w2 neg w2 d x y w2 sub m 0 w d x w2 sub y m w 0 d s} def
/m36 {mb x w2 sub y w2 add m w w neg d x w2 sub y w2 sub m w w d s} def
/m37 {mp x y m w4 neg w2 d w4 neg w2 neg d w2 0 d  w4 neg w2 neg d w2 0 d w4 neg w2 d w2 0 d w4 neg w2 d w4 neg w2 neg d cl s} def
/m38 {mp x w4 sub y w2 add m w4 neg w4 neg d 0 w2 neg d w4 w4 neg d w2 0 d w4 w4 d 0 w2 d w4 neg w4 d w2 neg 0 d x y w2 sub m 0 w d x w2 sub y m w 0 d cl s} def
/m39 {mp x y m w4 neg w2 d w4 neg w2 neg d w2 0 d  w4 neg w2 neg d w2 0 d w4 neg w2 d w2 0 d w4 neg w2 d w4 neg w2 neg d cl f} def
/m40 {mp x y m w4 w2 d w4 w4 neg d w2 neg w4 neg d w2 w4 neg d w4 neg w4 neg d w4 neg w2 d w4 neg w2 neg d w4 neg w4 d w2 w4 d w2 neg w4 d w4 w4 d w4 w2 neg d cl s} def
/m41 {mp x y m w4 w2 d w4 w4 neg d w2 neg w4 neg d w2 w4 neg d w4 neg w4 neg d w4 neg w2 d w4 neg w2 neg d w4 neg w4 d w2 w4 d w2 neg w4 d w4 w4 d w4 w2 neg d cl f} def
/m42 {mp x y w2 add m w8 neg w2 -3 4 div mul d w2 -3 4 div mul w8 neg d w2 3 4 div mul w8 neg d w8 w2 -3 4 div mul d w8 w2 3 4 div mul d w2 3 4 div mul w8 d w2 -3 4 div mul w8 d w8 neg w2 3 4 div mul d cl s} def
/m43 {mp x y w2 add m w8 neg w2 -3 4 div mul d w2 -3 4 div mul w8 neg d w2 3 4 div mul w8 neg d w8 w2 -3 4 div mul d w8 w2 3 4 div mul d w2 3 4 div mul w8 d w2 -3 4 div mul w8 d w8 neg w2 3 4 div mul d cl f} def
/m44 {mp x y m w6 neg w2 d w2 2 3 div mul 0 d w6 neg w2 neg d w2 w6 d 0 w2 -2 3 div mul d w2 neg w6 d w6 w2 neg d w2 -2 3 div mul 0 d w6 w2 d w2 neg w6 neg d 0 w2 2 3 div mul d w2 w6 neg d cl s} def
/m45 {mp x y m w6 neg w2 d w2 2 3 div mul 0 d w6 neg w2 neg d w2 w6 d 0 w2 -2 3 div mul d w2 neg w6 d w6 w2 neg d w2 -2 3 div mul 0 d w6 w2 d w2 neg w6 neg d 0 w2 2 3 div mul d w2 w6 neg d cl f} def
/m46 {mp x y w4 add m w4 neg w4 d w4 neg w4 neg d  w4 w4 neg d w4 neg w4 neg d w4 w4 neg d w4 w4 d w4 w4 neg d w4 w4 d w4 neg w4 d w4 w4 d w4 neg w4 d w4 neg w4 neg d cl s} def
/m47 {mp x y w4 add m w4 neg w4 d w4 neg w4 neg d w4 w4 neg d w4 neg w4 neg d  w4 w4 neg d w4 w4 d w4 w4 neg d w4 w4 d w4 neg w4 d w4 w4 d w4 neg w4 d w4 neg w4 neg d cl f} def
/m48 {mp x y w4 add m w4 neg w4 d w4 neg w4 neg d w4 w4 neg d  w4 neg w4 neg d w4 w4 neg d w4 w4 d w4 w4 neg d w4 w4 d w4 neg w4 d w4 w4 d w4 neg w4 d w4 neg w4 neg d  w4 w4 neg d w4 neg w4 neg d w4 neg w4 d w4 w4 d cl f} def
/m49 {mp x w2 sub w3 add y w2 sub w3 add m  0 w3 neg d w3 0 d 0 w3 d w3 0 d 0 w3 d w3 neg 0 d 0 w3 d w3 neg 0 d 0 w3 neg d w3 neg 0 d 0 w3 neg d w3 0 d 0 w3 d w3 0 d 0 w3 neg d w3 neg 0 d cl f } def
/m2 {mp x y w2 sub m 0 w d x w2 sub y m w 0 d s} def
/m5 {mp x w2 sub y w2 sub m w w d x w2 sub y w2 add m w w neg d s} def
%%IncludeResource: ProcSet (FontSetInit)
%%IncludeResource: font Times-Roman
%%IncludeResource: font Times-Italic
%%IncludeResource: font Times-Bold
%%IncludeResource: font Times-BoldItalic
%%IncludeResource: font Helvetica
%%IncludeResource: font Helvetica-Oblique
%%IncludeResource: font Helvetica-Bold
%%IncludeResource: font Helvetica-BoldOblique
%%IncludeResource: font Courier
%%IncludeResource: font Courier-Oblique
%%IncludeResource: font Courier-Bold
%%IncludeResource: font Courier-BoldOblique
%%IncludeResource: font Symbol
%%IncludeResource: font ZapfDingbats
/reEncode {exch findfont dup length dict begin {1 index /FID eq  {pop pop} {def} ifelse } forall /Encoding exch def currentdict end dup /FontName get exch definefont pop } def [/Times-Bold /Times-Italic /Times-BoldItalic /Helvetica /Helvetica-Oblique
 /Helvetica-Bold /Helvetica-BoldOblique /Courier /Courier-Oblique /Courier-Bold /Courier-BoldOblique /Times-Roman /AvantGarde-Book /AvantGarde-BookOblique /AvantGarde-Demi /AvantGarde-DemiOblique /Bookman-Demi /Bookman-DemiItalic /Bookman-Light
 /Bookman-LightItalic /Helvetica-Narrow /Helvetica-Narrow-Bold /Helvetica-Narrow-BoldOblique /Helvetica-Narrow-Oblique /NewCenturySchlbk-Roman /NewCenturySchlbk-Bold /NewCenturySchlbk-BoldItalic /NewCenturySchlbk-Italic /Palatino-Bold
 /Palatino-BoldItalic /Palatino-Italic /Palatino-Roman ] {ISOLatin1Encoding reEncode } forall
%%EndProlog
%%BeginSetup
%%EndSetup
newpath  gsave  .25 .25 scale  gsave  0 0 t black[  ] 0 sd 3 lw 1 1 1 c 2268 1538 0 0 bf black 1 1 1 c 1814 1230 227 154 bf black 1814 1230 227 154 bl 1 1 1 c 0.977 0.977044 0.0583656 c 50 34 227 154 bf 51 34 277 154 bf 50 34 328 154 bf 50 34 378 154
 bf 51 34 428 154 bf 50 34 479 154 bf 51 34 529 154 bf 50 34 580 154 bf 50 34 630 154 bf 51 34 680 154 bf 50 34 731 154 bf 50 34 781 154 bf 51 34 831 154 bf 50 34 882 154 bf 51 34 932 154 bf 50 34 983 154 bf 50 34 1033 154 bf 51 34 1083 154 bf 50 34
 1134 154 bf 51 34 1184 154 bf 50 34 1235 154 bf 50 34 1285 154 bf 51 34 1335 154 bf 50 34 1386 154 bf 51 34 1436 154 bf 50 34 1487 154 bf 50 34 1537 154 bf 51 34 1587 154 bf 50 34 1638 154 bf 51 34 1688 154 bf 50 34 1739 154 bf 0.0526375 0.656131
 0.763481 c 50 34 1789 154 bf 51 34 1839 154 bf 50 34 1890 154 bf 51 34 1940 154 bf 50 34 1991 154 bf 0.322347 0.730556 0.570878 c 50 34 227 188 bf 51 34 277 188 bf 50 34 328 188 bf 50 34 378 188 bf 51 34 428 188 bf 50 34 479 188 bf 51 34 529 188 bf
 50 34 580 188 bf 0.0526375 0.656131 0.763481 c 50 34 630 188 bf 0.322347 0.730556 0.570878 c 51 34 680 188 bf 50 34 731 188 bf 0.0526375 0.656131 0.763481 c 50 34 781 188 bf 0.322347 0.730556 0.570878 c 51 34 831 188 bf 0.0526375 0.656131 0.763481 c
 50 34 882 188 bf 0.322347 0.730556 0.570878 c 51 34 932 188 bf 0.033475 0.616063 0.800231 c 50 34 983 188 bf 0.322347 0.730556 0.570878 c 50 34 1033 188 bf 51 34 1083 188 bf 50 34 1134 188 bf 51 34 1184 188 bf 50 34 1235 188 bf 50 34 1285 188 bf
 0.0526375 0.656131 0.763481 c 51 34 1335 188 bf 0.322347 0.730556 0.570878 c 50 34 1386 188 bf 51 34 1436 188 bf 50 34 1487 188 bf 0.033475 0.616063 0.800231 c 50 34 1537 188 bf 0.322347 0.730556 0.570878 c 51 34 1587 188 bf 50 34 1638 188 bf 51 34
 1688 188 bf 50 34 1739 188 bf 0.977 0.977044 0.0583656 c 50 34 1789 188 bf 51 34 1839 188 bf 0.033475 0.616063 0.800231 c 50 34 1890 188 bf 51 34 1940 188 bf 0.977 0.977044 0.0583656 c 50 34 1991 188 bf 0.322347 0.730556 0.570878 c 50 34 227 222 bf
 51 34 277 222 bf 50 34 328 222 bf 50 34 378 222 bf 51 34 428 222 bf 50 34 479 222 bf 51 34 529 222 bf 50 34 580 222 bf 50 34 630 222 bf 51 34 680 222 bf 50 34 731 222 bf 50 34 781 222 bf 51 34 831 222 bf 50 34 882 222 bf 51 34 932 222 bf 50 34 983
 222 bf 50 34 1033 222 bf 51 34 1083 222 bf 50 34 1134 222 bf 51 34 1184 222 bf 50 34 1235 222 bf 50 34 1285 222 bf 51 34 1335 222 bf 50 34 1386 222 bf 51 34 1436 222 bf 50 34 1487 222 bf 50 34 1537 222 bf 51 34 1587 222 bf 50 34 1638 222 bf 51 34
 1688 222 bf 50 34 1739 222 bf 0.0526375 0.656131 0.763481 c 50 34 1789 222 bf 0.322347 0.730556 0.570878 c 51 34 1839 222 bf 0.0526375 0.656131 0.763481 c 50 34 1890 222 bf 0.977 0.977044 0.0583656 c 51 34 1940 222 bf 0.322347 0.730556 0.570878 c 50
 34 1991 222 bf 50 34 227 256 bf 51 34 277 256 bf 50 34 328 256 bf 50 34 378 256 bf 51 34 428 256 bf 50 34 479 256 bf 51 34 529 256 bf 50 34 580 256 bf 50 34 630 256 bf 51 34 680 256 bf 50 34 731 256 bf 50 34 781 256 bf 51 34 831 256 bf 50 34 882 256
 bf 51 34 932 256 bf 50 34 983 256 bf 50 34 1033 256 bf 51 34 1083 256 bf 50 34 1134 256 bf 51 34 1184 256 bf 50 34 1235 256 bf 50 34 1285 256 bf 51 34 1335 256 bf 50 34 1386 256 bf 51 34 1436 256 bf 50 34 1487 256 bf 50 34 1537 256 bf 51 34 1587 256
 bf 50 34 1638 256 bf 51 34 1688 256 bf 50 34 1739 256 bf 50 34 1789 256 bf 51 34 1839 256 bf 0.977 0.977044 0.0583656 c 50 34 1890 256 bf 0.322347 0.730556 0.570878 c 51 34 1940 256 bf 50 34 1991 256 bf 50 35 227 290 bf 51 35 277 290 bf 50 35 328
 290 bf 50 35 378 290 bf 51 35 428 290 bf 50 35 479 290 bf 51 35 529 290 bf 50 35 580 290 bf 50 35 630 290 bf 51 35 680 290 bf 50 35 731 290 bf 50 35 781 290 bf 51 35 831 290 bf 50 35 882 290 bf 51 35 932 290 bf 50 35 983 290 bf 50 35 1033 290 bf 51
 35 1083 290 bf 50 35 1134 290 bf 51 35 1184 290 bf 50 35 1235 290 bf 50 35 1285 290 bf 51 35 1335 290 bf 50 35 1386 290 bf 51 35 1436 290 bf 50 35 1487 290 bf 50 35 1537 290 bf 51 35 1587 290 bf 50 35 1638 290 bf 51 35 1688 290 bf 50 35 1739 290 bf
 50 35 1789 290 bf 51 35 1839 290 bf 0.0526375 0.656131 0.763481 c 50 35 1890 290 bf 0.322347 0.730556 0.570878 c 51 35 1940 290 bf 50 35 1991 290 bf 50 34 227 325 bf 51 34 277 325 bf 50 34 328 325 bf 50 34 378 325 bf 51 34 428 325 bf 50 34 479 325
 bf 51 34 529 325 bf 50 34 580 325 bf 50 34 630 325 bf 51 34 680 325 bf 50 34 731 325 bf 50 34 781 325 bf 51 34 831 325 bf 50 34 882 325 bf 51 34 932 325 bf 50 34 983 325 bf 50 34 1033 325 bf 51 34 1083 325 bf 50 34 1134 325 bf 51 34 1184 325 bf 50
 34 1235 325 bf 50 34 1285 325 bf 51 34 1335 325 bf 50 34 1386 325 bf 51 34 1436 325 bf 50 34 1487 325 bf 50 34 1537 325 bf 51 34 1587 325 bf 50 34 1638 325 bf 51 34 1688 325 bf 50 34 1739 325 bf 50 34 1789 325 bf 51 34 1839 325 bf 50 34 1890 325 bf
 51 34 1940 325 bf 50 34 1991 325 bf 50 34 227 359 bf 0.977 0.977044 0.0583656 c 51 34 277 359 bf 0.9842 0.903169 0.111953 c 50 34 328 359 bf 0.150523 0.241303 0.660565 c 50 34 378 359 bf 0.977 0.977044 0.0583656 c 51 34 428 359 bf 50 34 479 359 bf
 0.322347 0.730556 0.570878 c 51 34 529 359 bf 50 34 580 359 bf 0.992 0.823138 0.170006 c 50 34 630 359 bf 0.977 0.977044 0.0583656 c 51 34 680 359 bf 50 34 731 359 bf 0.956881 0.774519 0.230291 c 50 34 781 359 bf 0.884975 0.752825 0.292488 c 51 34
 831 359 bf 0.977 0.977044 0.0583656 c 50 34 882 359 bf 51 34 932 359 bf 0.322347 0.730556 0.570878 c 50 34 983 359 bf 0.884975 0.752825 0.292488 c 50 34 1033 359 bf 0.322347 0.730556 0.570878 c 51 34 1083 359 bf 0.977 0.977044 0.0583656 c 50 34 1134
 359 bf 0.322347 0.730556 0.570878 c 51 34 1184 359 bf 0.150523 0.241303 0.660565 c 50 34 1235 359 bf 0.977 0.977044 0.0583656 c 50 34 1285 359 bf 51 34 1335 359 bf 50 34 1386 359 bf 51 34 1436 359 bf 0.322347 0.730556 0.570878 c 50 34 1487 359 bf
 0.884975 0.752825 0.292488 c 50 34 1537 359 bf 0.992 0.823138 0.170006 c 51 34 1587 359 bf 0.322347 0.730556 0.570878 c 50 34 1638 359 bf 0.0557375 0.560081 0.819366 c 51 34 1688 359 bf 0.977 0.977044 0.0583656 c 50 34 1739 359 bf 0.322347 0.730556
 0.570878 c 50 34 1789 359 bf 0.977 0.977044 0.0583656 c 51 34 1839 359 bf 0.322347 0.730556 0.570878 c 50 34 1890 359 bf 51 34 1940 359 bf 50 34 1991 359 bf 50 34 227 393 bf 51 34 277 393 bf 50 34 328 393 bf 50 34 378 393 bf 51 34 428 393 bf 50 34
 479 393 bf 51 34 529 393 bf 50 34 580 393 bf 50 34 630 393 bf 51 34 680 393 bf 50 34 731 393 bf 50 34 781 393 bf 51 34 831 393 bf 50 34 882 393 bf 51 34 932 393 bf 50 34 983 393 bf 50 34 1033 393 bf 51 34 1083 393 bf 50 34 1134 393 bf 51 34 1184 393
 bf 50 34 1235 393 bf 50 34 1285 393 bf 51 34 1335 393 bf 50 34 1386 393 bf 51 34 1436 393 bf 50 34 1487 393 bf 50 34 1537 393 bf 51 34 1587 393 bf 50 34 1638 393 bf 51 34 1688 393 bf 50 34 1739 393 bf 50 34 1789 393 bf 51 34 1839 393 bf 50 34 1890
 393 bf 51 34 1940 393 bf 50 34 1991 393 bf 50 34 227 427 bf 51 34 277 427 bf 50 34 328 427 bf 50 34 378 427 bf 51 34 428 427 bf 50 34 479 427 bf 51 34 529 427 bf 50 34 580 427 bf 50 34 630 427 bf 51 34 680 427 bf 50 34 731 427 bf 50 34 781 427 bf 51
 34 831 427 bf 50 34 882 427 bf 51 34 932 427 bf 50 34 983 427 bf 50 34 1033 427 bf 51 34 1083 427 bf 50 34 1134 427 bf 51 34 1184 427 bf 50 34 1235 427 bf 50 34 1285 427 bf 51 34 1335 427 bf 50 34 1386 427 bf 51 34 1436 427 bf 50 34 1487 427 bf 50
 34 1537 427 bf 51 34 1587 427 bf 50 34 1638 427 bf 51 34 1688 427 bf 50 34 1739 427 bf 50 34 1789 427 bf 51 34 1839 427 bf 50 34 1890 427 bf 51 34 1940 427 bf 50 34 1991 427 bf 50 35 227 461 bf 51 35 277 461 bf 50 35 328 461 bf 50 35 378 461 bf 51
 35 428 461 bf 50 35 479 461 bf 51 35 529 461 bf 50 35 580 461 bf 50 35 630 461 bf 51 35 680 461 bf 50 35 731 461 bf 50 35 781 461 bf 51 35 831 461 bf 50 35 882 461 bf 51 35 932 461 bf 50 35 983 461 bf 50 35 1033 461 bf 51 35 1083 461 bf 50 35 1134
 461 bf 51 35 1184 461 bf 50 35 1235 461 bf 50 35 1285 461 bf 51 35 1335 461 bf 50 35 1386 461 bf 51 35 1436 461 bf 50 35 1487 461 bf 50 35 1537 461 bf 51 35 1587 461 bf 50 35 1638 461 bf 51 35 1688 461 bf 50 35 1739 461 bf 50 35 1789 461 bf 51 35
 1839 461 bf 50 35 1890 461 bf 51 35 1940 461 bf 50 35 1991 461 bf 50 34 227 496 bf 0.977 0.977044 0.0583656 c 51 34 277 496 bf 0.9842 0.903169 0.111953 c 50 34 328 496 bf 0.0557375 0.560081 0.819366 c 50 34 378 496 bf 0.884975 0.752825 0.292488 c 51
 34 428 496 bf 0.977 0.977044 0.0583656 c 50 34 479 496 bf 51 34 529 496 bf 0.322347 0.730556 0.570878 c 50 34 580 496 bf 0.992 0.823138 0.170006 c 50 34 630 496 bf 0.977 0.977044 0.0583656 c 51 34 680 496 bf 50 34 731 496 bf 0.884975 0.752825
 0.292488 c 50 34 781 496 bf 0.322347 0.730556 0.570878 c 51 34 831 496 bf 0.977 0.977044 0.0583656 c 50 34 882 496 bf 0.322347 0.730556 0.570878 c 51 34 932 496 bf 0.977 0.977044 0.0583656 c 50 34 983 496 bf 0.322347 0.730556 0.570878 c 50 34 1033
 496 bf 0.977 0.977044 0.0583656 c 51 34 1083 496 bf 50 34 1134 496 bf 0.0557375 0.560081 0.819366 c 51 34 1184 496 bf 0.150523 0.241303 0.660565 c 50 34 1235 496 bf 0.977 0.977044 0.0583656 c 50 34 1285 496 bf 51 34 1335 496 bf 0.884975 0.752825
 0.292488 c 50 34 1386 496 bf 0.977 0.977044 0.0583656 c 51 34 1436 496 bf 50 34 1487 496 bf 0.884975 0.752825 0.292488 c 50 34 1537 496 bf 0.956881 0.774519 0.230291 c 51 34 1587 496 bf 0.322347 0.730556 0.570878 c 50 34 1638 496 bf 0.150523
 0.241303 0.660565 c 51 34 1688 496 bf 0.977 0.977044 0.0583656 c 50 34 1739 496 bf 50 34 1789 496 bf 51 34 1839 496 bf 0.322347 0.730556 0.570878 c 50 34 1890 496 bf 0.977 0.977044 0.0583656 c 51 34 1940 496 bf 0.322347 0.730556 0.570878 c 50 34
 1991 496 bf 50 34 227 530 bf 51 34 277 530 bf 50 34 328 530 bf 50 34 378 530 bf 51 34 428 530 bf 50 34 479 530 bf 51 34 529 530 bf 50 34 580 530 bf 50 34 630 530 bf 51 34 680 530 bf 50 34 731 530 bf 50 34 781 530 bf 51 34 831 530 bf 50 34 882 530 bf
 51 34 932 530 bf 50 34 983 530 bf 50 34 1033 530 bf 51 34 1083 530 bf 50 34 1134 530 bf 51 34 1184 530 bf 50 34 1235 530 bf 50 34 1285 530 bf 51 34 1335 530 bf 50 34 1386 530 bf 51 34 1436 530 bf 50 34 1487 530 bf 50 34 1537 530 bf 51 34 1587 530 bf
 50 34 1638 530 bf 51 34 1688 530 bf 50 34 1739 530 bf 50 34 1789 530 bf 51 34 1839 530 bf 50 34 1890 530 bf 51 34 1940 530 bf 50 34 1991 530 bf 50 34 227 564 bf 51 34 277 564 bf 50 34 328 564 bf 50 34 378 564 bf 51 34 428 564 bf 50 34 479 564 bf 51
 34 529 564 bf 50 34 580 564 bf 50 34 630 564 bf 51 34 680 564 bf 50 34 731 564 bf 50 34 781 564 bf 51 34 831 564 bf 50 34 882 564 bf 51 34 932 564 bf 50 34 983 564 bf 50 34 1033 564 bf 51 34 1083 564 bf 50 34 1134 564 bf 51 34 1184 564 bf 50 34 1235
 564 bf 50 34 1285 564 bf 51 34 1335 564 bf 50 34 1386 564 bf 51 34 1436 564 bf 50 34 1487 564 bf 50 34 1537 564 bf 51 34 1587 564 bf 50 34 1638 564 bf 51 34 1688 564 bf 50 34 1739 564 bf 50 34 1789 564 bf 0.2082 0.1664 0.5293 c 51 34 1839 564 bf
 0.977 0.977044 0.0583656 c 50 34 1890 564 bf 0.322347 0.730556 0.570878 c 51 34 1940 564 bf 50 34 1991 564 bf 50 34 227 598 bf 51 34 277 598 bf 50 34 328 598 bf 50 34 378 598 bf 51 34 428 598 bf 50 34 479 598 bf 51 34 529 598 bf 50 34 580 598 bf 50
 34 630 598 bf 51 34 680 598 bf 50 34 731 598 bf 50 34 781 598 bf 51 34 831 598 bf 50 34 882 598 bf 51 34 932 598 bf 50 34 983 598 bf 50 34 1033 598 bf 51 34 1083 598 bf 50 34 1134 598 bf 51 34 1184 598 bf 50 34 1235 598 bf 50 34 1285 598 bf 51 34
 1335 598 bf 50 34 1386 598 bf 51 34 1436 598 bf 50 34 1487 598 bf 50 34 1537 598 bf 51 34 1587 598 bf 50 34 1638 598 bf 51 34 1688 598 bf 50 34 1739 598 bf 50 34 1789 598 bf 0.2082 0.1664 0.5293 c 51 34 1839 598 bf 0.322347 0.730556 0.570878 c 50 34
 1890 598 bf 51 34 1940 598 bf 50 34 1991 598 bf 50 34 227 632 bf 0.977 0.977044 0.0583656 c 51 34 277 632 bf 0.992 0.823138 0.170006 c 50 34 328 632 bf 0.0557375 0.560081 0.819366 c 50 34 378 632 bf 0.884975 0.752825 0.292488 c 51 34 428 632 bf
 0.322347 0.730556 0.570878 c 50 34 479 632 bf 0.977 0.977044 0.0583656 c 51 34 529 632 bf 0.884975 0.752825 0.292488 c 50 34 580 632 bf 0.956881 0.774519 0.230291 c 50 34 630 632 bf 0.977 0.977044 0.0583656 c 51 34 680 632 bf 0.884975 0.752825
 0.292488 c 50 34 731 632 bf 50 34 781 632 bf 0.322347 0.730556 0.570878 c 51 34 831 632 bf 0.2082 0.1664 0.5293 c 50 34 882 632 bf 0.322347 0.730556 0.570878 c 51 34 932 632 bf 50 34 983 632 bf 50 34 1033 632 bf 51 34 1083 632 bf 0.977 0.977044
 0.0583656 c 50 34 1134 632 bf 0.0557375 0.560081 0.819366 c 51 34 1184 632 bf 50 34 1235 632 bf 0.322347 0.730556 0.570878 c 50 34 1285 632 bf 0.977 0.977044 0.0583656 c 51 34 1335 632 bf 0.884975 0.752825 0.292488 c 50 34 1386 632 bf 51 34 1436 632
 bf 0.322347 0.730556 0.570878 c 50 34 1487 632 bf 0.977 0.977044 0.0583656 c 50 34 1537 632 bf 0.956881 0.774519 0.230291 c 51 34 1587 632 bf 0.322347 0.730556 0.570878 c 50 34 1638 632 bf 0.150523 0.241303 0.660565 c 51 34 1688 632 bf 0.884975
 0.752825 0.292488 c 50 34 1739 632 bf 0.977 0.977044 0.0583656 c 50 34 1789 632 bf 0.2082 0.1664 0.5293 c 51 34 1839 632 bf 0.322347 0.730556 0.570878 c 50 34 1890 632 bf 51 34 1940 632 bf 0.884975 0.752825 0.292488 c 50 34 1991 632 bf 0.322347
 0.730556 0.570878 c 50 35 227 666 bf 51 35 277 666 bf 50 35 328 666 bf 50 35 378 666 bf 51 35 428 666 bf 50 35 479 666 bf 51 35 529 666 bf 50 35 580 666 bf 50 35 630 666 bf 51 35 680 666 bf 50 35 731 666 bf 50 35 781 666 bf 51 35 831 666 bf 0.2082
 0.1664 0.5293 c 50 35 882 666 bf 0.322347 0.730556 0.570878 c 51 35 932 666 bf 50 35 983 666 bf 50 35 1033 666 bf 51 35 1083 666 bf 50 35 1134 666 bf 51 35 1184 666 bf 50 35 1235 666 bf 50 35 1285 666 bf 51 35 1335 666 bf 50 35 1386 666 bf 51 35
 1436 666 bf 50 35 1487 666 bf 50 35 1537 666 bf 51 35 1587 666 bf 50 35 1638 666 bf 51 35 1688 666 bf 50 35 1739 666 bf 50 35 1789 666 bf 0.2082 0.1664 0.5293 c 51 35 1839 666 bf 0.322347 0.730556 0.570878 c 50 35 1890 666 bf 51 35 1940 666 bf 50 35
 1991 666 bf 50 34 227 701 bf 51 34 277 701 bf 0.977 0.977044 0.0583656 c 50 34 328 701 bf 0.322347 0.730556 0.570878 c 50 34 378 701 bf 51 34 428 701 bf 50 34 479 701 bf 51 34 529 701 bf 50 34 580 701 bf 50 34 630 701 bf 51 34 680 701 bf 50 34 731
 701 bf 50 34 781 701 bf 51 34 831 701 bf 0.2082 0.1664 0.5293 c 50 34 882 701 bf 0.322347 0.730556 0.570878 c 51 34 932 701 bf 50 34 983 701 bf 50 34 1033 701 bf 51 34 1083 701 bf 50 34 1134 701 bf 51 34 1184 701 bf 50 34 1235 701 bf 50 34 1285 701
 bf 51 34 1335 701 bf 50 34 1386 701 bf 51 34 1436 701 bf 50 34 1487 701 bf 50 34 1537 701 bf 51 34 1587 701 bf 50 34 1638 701 bf 0.2082 0.1664 0.5293 c 51 34 1688 701 bf 0.322347 0.730556 0.570878 c 50 34 1739 701 bf 50 34 1789 701 bf 0.2082 0.1664
 0.5293 c 51 34 1839 701 bf 0.884975 0.752825 0.292488 c 50 34 1890 701 bf 0.322347 0.730556 0.570878 c 51 34 1940 701 bf 50 34 1991 701 bf 50 34 227 735 bf 51 34 277 735 bf 0.977 0.977044 0.0583656 c 50 34 328 735 bf 0.322347 0.730556 0.570878 c 50
 34 378 735 bf 51 34 428 735 bf 50 34 479 735 bf 51 34 529 735 bf 50 34 580 735 bf 50 34 630 735 bf 51 34 680 735 bf 50 34 731 735 bf 50 34 781 735 bf 51 34 831 735 bf 0.2082 0.1664 0.5293 c 50 34 882 735 bf 0.322347 0.730556 0.570878 c 51 34 932 735
 bf 50 34 983 735 bf 50 34 1033 735 bf 51 34 1083 735 bf 50 34 1134 735 bf 51 34 1184 735 bf 50 34 1235 735 bf 0.0557375 0.560081 0.819366 c 50 34 1285 735 bf 0.322347 0.730556 0.570878 c 51 34 1335 735 bf 50 34 1386 735 bf 51 34 1436 735 bf 50 34
 1487 735 bf 50 34 1537 735 bf 51 34 1587 735 bf 50 34 1638 735 bf 51 34 1688 735 bf 50 34 1739 735 bf 50 34 1789 735 bf 0.2082 0.1664 0.5293 c 51 34 1839 735 bf 0.322347 0.730556 0.570878 c 50 34 1890 735 bf 51 34 1940 735 bf 50 34 1991 735 bf
 0.0557375 0.560081 0.819366 c 50 34 227 769 bf 0.977 0.977044 0.0583656 c 51 34 277 769 bf 50 34 328 769 bf 0.322347 0.730556 0.570878 c 50 34 378 769 bf 51 34 428 769 bf 50 34 479 769 bf 0.150523 0.241303 0.660565 c 51 34 529 769 bf 0.322347
 0.730556 0.570878 c 50 34 580 769 bf 50 34 630 769 bf 51 34 680 769 bf 0.884975 0.752825 0.292488 c 50 34 731 769 bf 0.322347 0.730556 0.570878 c 50 34 781 769 bf 51 34 831 769 bf 0.2082 0.1664 0.5293 c 50 34 882 769 bf 0.322347 0.730556 0.570878 c
 51 34 932 769 bf 50 34 983 769 bf 50 34 1033 769 bf 51 34 1083 769 bf 50 34 1134 769 bf 0.150523 0.241303 0.660565 c 51 34 1184 769 bf 50 34 1235 769 bf 0.322347 0.730556 0.570878 c 50 34 1285 769 bf 51 34 1335 769 bf 0.956881 0.774519 0.230291 c 50
 34 1386 769 bf 0.977 0.977044 0.0583656 c 51 34 1436 769 bf 0.322347 0.730556 0.570878 c 50 34 1487 769 bf 0.992 0.823138 0.170006 c 50 34 1537 769 bf 0.0557375 0.560081 0.819366 c 51 34 1587 769 bf 0.322347 0.730556 0.570878 c 50 34 1638 769 bf
 0.2082 0.1664 0.5293 c 51 34 1688 769 bf 0.884975 0.752825 0.292488 c 50 34 1739 769 bf 0.977 0.977044 0.0583656 c 50 34 1789 769 bf 0.2082 0.1664 0.5293 c 51 34 1839 769 bf 0.322347 0.730556 0.570878 c 50 34 1890 769 bf 0.2082 0.1664 0.5293 c 51 34
 1940 769 bf 0.322347 0.730556 0.570878 c 50 34 1991 769 bf 50 34 227 803 bf 51 34 277 803 bf 0.977 0.977044 0.0583656 c 50 34 328 803 bf 0.322347 0.730556 0.570878 c 50 34 378 803 bf 51 34 428 803 bf 50 34 479 803 bf 51 34 529 803 bf 50 34 580 803
 bf 50 34 630 803 bf 51 34 680 803 bf 50 34 731 803 bf 50 34 781 803 bf 51 34 831 803 bf 50 34 882 803 bf 51 34 932 803 bf 50 34 983 803 bf 50 34 1033 803 bf 51 34 1083 803 bf 50 34 1134 803 bf 51 34 1184 803 bf 50 34 1235 803 bf 50 34 1285 803 bf 51
 34 1335 803 bf 50 34 1386 803 bf 51 34 1436 803 bf 50 34 1487 803 bf 50 34 1537 803 bf 51 34 1587 803 bf 50 34 1638 803 bf 51 34 1688 803 bf 50 34 1739 803 bf 50 34 1789 803 bf 0.2082 0.1664 0.5293 c 51 34 1839 803 bf 0.322347 0.730556 0.570878 c 50
 34 1890 803 bf 51 34 1940 803 bf 50 34 1991 803 bf 50 34 227 837 bf 51 34 277 837 bf 0.977 0.977044 0.0583656 c 50 34 328 837 bf 0.322347 0.730556 0.570878 c 50 34 378 837 bf 51 34 428 837 bf 50 34 479 837 bf 51 34 529 837 bf 50 34 580 837 bf 50 34
 630 837 bf 51 34 680 837 bf 50 34 731 837 bf 50 34 781 837 bf 51 34 831 837 bf 50 34 882 837 bf 51 34 932 837 bf 50 34 983 837 bf 50 34 1033 837 bf 51 34 1083 837 bf 50 34 1134 837 bf 51 34 1184 837 bf 50 34 1235 837 bf 50 34 1285 837 bf 51 34 1335
 837 bf 50 34 1386 837 bf 51 34 1436 837 bf 50 34 1487 837 bf 50 34 1537 837 bf 51 34 1587 837 bf 50 34 1638 837 bf 51 34 1688 837 bf 50 34 1739 837 bf 50 34 1789 837 bf 51 34 1839 837 bf 0.884975 0.752825 0.292488 c 50 34 1890 837 bf 0.322347
 0.730556 0.570878 c 51 34 1940 837 bf 50 34 1991 837 bf 50 35 227 871 bf 51 35 277 871 bf 50 35 328 871 bf 50 35 378 871 bf 51 35 428 871 bf 50 35 479 871 bf 51 35 529 871 bf 50 35 580 871 bf 50 35 630 871 bf 51 35 680 871 bf 50 35 731 871 bf 50 35
 781 871 bf 51 35 831 871 bf 50 35 882 871 bf 51 35 932 871 bf 50 35 983 871 bf 50 35 1033 871 bf 51 35 1083 871 bf 50 35 1134 871 bf 51 35 1184 871 bf 50 35 1235 871 bf 50 35 1285 871 bf 51 35 1335 871 bf 50 35 1386 871 bf 51 35 1436 871 bf 50 35
 1487 871 bf 50 35 1537 871 bf 51 35 1587 871 bf 50 35 1638 871 bf 51 35 1688 871 bf 50 35 1739 871 bf 50 35 1789 871 bf 51 35 1839 871 bf 50 35 1890 871 bf 51 35 1940 871 bf 50 35 1991 871 bf 0.0557375 0.560081 0.819366 c 50 34 227 906 bf 0.977
 0.977044 0.0583656 c 51 34 277 906 bf 0.322347 0.730556 0.570878 c 50 34 328 906 bf 50 34 378 906 bf 51 34 428 906 bf 50 34 479 906 bf 0.150523 0.241303 0.660565 c 51 34 529 906 bf 0.322347 0.730556 0.570878 c 50 34 580 906 bf 50 34 630 906 bf 51 34
 680 906 bf 50 34 731 906 bf 50 34 781 906 bf 51 34 831 906 bf 50 34 882 906 bf 51 34 932 906 bf 0.977 0.977044 0.0583656 c 50 34 983 906 bf 0.322347 0.730556 0.570878 c 50 34 1033 906 bf 51 34 1083 906 bf 50 34 1134 906 bf 0.150523 0.241303 0.660565
 c 51 34 1184 906 bf 50 34 1235 906 bf 0.977 0.977044 0.0583656 c 50 34 1285 906 bf 0.322347 0.730556 0.570878 c 51 34 1335 906 bf 0.884975 0.752825 0.292488 c 50 34 1386 906 bf 0.977 0.977044 0.0583656 c 51 34 1436 906 bf 0.322347 0.730556 0.570878
 c 50 34 1487 906 bf 0.992 0.823138 0.170006 c 50 34 1537 906 bf 0.0557375 0.560081 0.819366 c 51 34 1587 906 bf 0.322347 0.730556 0.570878 c 50 34 1638 906 bf 51 34 1688 906 bf 50 34 1739 906 bf 0.9842 0.903169 0.111953 c 50 34 1789 906 bf 0.322347
 0.730556 0.570878 c 51 34 1839 906 bf 50 34 1890 906 bf 51 34 1940 906 bf 50 34 1991 906 bf 50 34 227 940 bf 51 34 277 940 bf 50 34 328 940 bf 50 34 378 940 bf 51 34 428 940 bf 50 34 479 940 bf 51 34 529 940 bf 50 34 580 940 bf 50 34 630 940 bf 51
 34 680 940 bf 50 34 731 940 bf 50 34 781 940 bf 51 34 831 940 bf 50 34 882 940 bf 51 34 932 940 bf 50 34 983 940 bf 50 34 1033 940 bf 51 34 1083 940 bf 50 34 1134 940 bf 51 34 1184 940 bf 50 34 1235 940 bf 50 34 1285 940 bf 51 34 1335 940 bf 50 34
 1386 940 bf 51 34 1436 940 bf 50 34 1487 940 bf 50 34 1537 940 bf 51 34 1587 940 bf 50 34 1638 940 bf 51 34 1688 940 bf 50 34 1739 940 bf 50 34 1789 940 bf 51 34 1839 940 bf 50 34 1890 940 bf 51 34 1940 940 bf 50 34 1991 940 bf 50 34 227 974 bf 51
 34 277 974 bf 50 34 328 974 bf 50 34 378 974 bf 51 34 428 974 bf 50 34 479 974 bf 51 34 529 974 bf 50 34 580 974 bf 50 34 630 974 bf 51 34 680 974 bf 50 34 731 974 bf 50 34 781 974 bf 51 34 831 974 bf 50 34 882 974 bf 51 34 932 974 bf 50 34 983 974
 bf 50 34 1033 974 bf 51 34 1083 974 bf 50 34 1134 974 bf 51 34 1184 974 bf 50 34 1235 974 bf 50 34 1285 974 bf 51 34 1335 974 bf 50 34 1386 974 bf 51 34 1436 974 bf 50 34 1487 974 bf 50 34 1537 974 bf 51 34 1587 974 bf 50 34 1638 974 bf 51 34 1688
 974 bf 50 34 1739 974 bf 50 34 1789 974 bf 51 34 1839 974 bf 50 34 1890 974 bf 0.2082 0.1664 0.5293 c 51 34 1940 974 bf 0.322347 0.730556 0.570878 c 50 34 1991 974 bf 50 34 227 1008 bf 51 34 277 1008 bf 50 34 328 1008 bf 50 34 378 1008 bf 51 34 428
 1008 bf 50 34 479 1008 bf 51 34 529 1008 bf 50 34 580 1008 bf 50 34 630 1008 bf 51 34 680 1008 bf 50 34 731 1008 bf 50 34 781 1008 bf 51 34 831 1008 bf 50 34 882 1008 bf 51 34 932 1008 bf 50 34 983 1008 bf 50 34 1033 1008 bf 51 34 1083 1008 bf 50 34
 1134 1008 bf 51 34 1184 1008 bf 50 34 1235 1008 bf 50 34 1285 1008 bf 51 34 1335 1008 bf 50 34 1386 1008 bf 51 34 1436 1008 bf 50 34 1487 1008 bf 50 34 1537 1008 bf 51 34 1587 1008 bf 50 34 1638 1008 bf 51 34 1688 1008 bf 50 34 1739 1008 bf 50 34
 1789 1008 bf 51 34 1839 1008 bf 50 34 1890 1008 bf 51 34 1940 1008 bf 50 34 1991 1008 bf 0.150523 0.241303 0.660565 c 50 35 227 1042 bf 0.977 0.977044 0.0583656 c 51 35 277 1042 bf 50 35 328 1042 bf 0.322347 0.730556 0.570878 c 50 35 378 1042 bf 51
 35 428 1042 bf 50 35 479 1042 bf 0.977 0.977044 0.0583656 c 51 35 529 1042 bf 0.322347 0.730556 0.570878 c 50 35 580 1042 bf 50 35 630 1042 bf 51 35 680 1042 bf 50 35 731 1042 bf 50 35 781 1042 bf 51 35 831 1042 bf 50 35 882 1042 bf 51 35 932 1042
 bf 50 35 983 1042 bf 50 35 1033 1042 bf 51 35 1083 1042 bf 50 35 1134 1042 bf 0.977 0.977044 0.0583656 c 51 35 1184 1042 bf 0.322347 0.730556 0.570878 c 50 35 1235 1042 bf 0.977 0.977044 0.0583656 c 50 35 1285 1042 bf 0.322347 0.730556 0.570878 c 51
 35 1335 1042 bf 0.884975 0.752825 0.292488 c 50 35 1386 1042 bf 0.322347 0.730556 0.570878 c 51 35 1436 1042 bf 50 35 1487 1042 bf 0.9842 0.903169 0.111953 c 50 35 1537 1042 bf 0.150523 0.241303 0.660565 c 51 35 1587 1042 bf 0.322347 0.730556
 0.570878 c 50 35 1638 1042 bf 0.977 0.977044 0.0583656 c 51 35 1688 1042 bf 0.322347 0.730556 0.570878 c 50 35 1739 1042 bf 0.9842 0.903169 0.111953 c 50 35 1789 1042 bf 0.884975 0.752825 0.292488 c 51 35 1839 1042 bf 0.322347 0.730556 0.570878 c 50
 35 1890 1042 bf 51 35 1940 1042 bf 50 35 1991 1042 bf 50 34 227 1077 bf 51 34 277 1077 bf 50 34 328 1077 bf 50 34 378 1077 bf 51 34 428 1077 bf 50 34 479 1077 bf 51 34 529 1077 bf 50 34 580 1077 bf 50 34 630 1077 bf 51 34 680 1077 bf 50 34 731 1077
 bf 50 34 781 1077 bf 51 34 831 1077 bf 50 34 882 1077 bf 51 34 932 1077 bf 50 34 983 1077 bf 50 34 1033 1077 bf 51 34 1083 1077 bf 50 34 1134 1077 bf 51 34 1184 1077 bf 50 34 1235 1077 bf 50 34 1285 1077 bf 51 34 1335 1077 bf 50 34 1386 1077 bf 51
 34 1436 1077 bf 50 34 1487 1077 bf 50 34 1537 1077 bf 51 34 1587 1077 bf 50 34 1638 1077 bf 51 34 1688 1077 bf 50 34 1739 1077 bf 50 34 1789 1077 bf 51 34 1839 1077 bf 50 34 1890 1077 bf 51 34 1940 1077 bf 50 34 1991 1077 bf 50 34 227 1111 bf 51 34
 277 1111 bf 50 34 328 1111 bf 50 34 378 1111 bf 51 34 428 1111 bf 50 34 479 1111 bf 51 34 529 1111 bf 50 34 580 1111 bf 50 34 630 1111 bf 51 34 680 1111 bf 50 34 731 1111 bf 50 34 781 1111 bf 51 34 831 1111 bf 50 34 882 1111 bf 51 34 932 1111 bf 50
 34 983 1111 bf 0.977 0.977044 0.0583656 c 50 34 1033 1111 bf 0.322347 0.730556 0.570878 c 51 34 1083 1111 bf 50 34 1134 1111 bf 51 34 1184 1111 bf 50 34 1235 1111 bf 50 34 1285 1111 bf 51 34 1335 1111 bf 50 34 1386 1111 bf 51 34 1436 1111 bf 50 34
 1487 1111 bf 50 34 1537 1111 bf 51 34 1587 1111 bf 50 34 1638 1111 bf 51 34 1688 1111 bf 50 34 1739 1111 bf 50 34 1789 1111 bf 51 34 1839 1111 bf 50 34 1890 1111 bf 51 34 1940 1111 bf 50 34 1991 1111 bf 50 34 227 1145 bf 51 34 277 1145 bf 50 34 328
 1145 bf 50 34 378 1145 bf 51 34 428 1145 bf 50 34 479 1145 bf 51 34 529 1145 bf 50 34 580 1145 bf 50 34 630 1145 bf 51 34 680 1145 bf 50 34 731 1145 bf 50 34 781 1145 bf 51 34 831 1145 bf 50 34 882 1145 bf 51 34 932 1145 bf 50 34 983 1145 bf 50 34
 1033 1145 bf 51 34 1083 1145 bf 50 34 1134 1145 bf 51 34 1184 1145 bf 50 34 1235 1145 bf 50 34 1285 1145 bf 51 34 1335 1145 bf 50 34 1386 1145 bf 51 34 1436 1145 bf 50 34 1487 1145 bf 50 34 1537 1145 bf 51 34 1587 1145 bf 50 34 1638 1145 bf 51 34
 1688 1145 bf 50 34 1739 1145 bf 50 34 1789 1145 bf 51 34 1839 1145 bf 50 34 1890 1145 bf 51 34 1940 1145 bf 50 34 1991 1145 bf 50 34 227 1179 bf 0.977 0.977044 0.0583656 c 51 34 277 1179 bf 50 34 328 1179 bf 0.322347 0.730556 0.570878 c 50 34 378
 1179 bf 51 34 428 1179 bf 50 34 479 1179 bf 0.977 0.977044 0.0583656 c 51 34 529 1179 bf 0.322347 0.730556 0.570878 c 50 34 580 1179 bf 50 34 630 1179 bf 51 34 680 1179 bf 50 34 731 1179 bf 50 34 781 1179 bf 51 34 831 1179 bf 50 34 882 1179 bf 51 34
 932 1179 bf 50 34 983 1179 bf 50 34 1033 1179 bf 51 34 1083 1179 bf 50 34 1134 1179 bf 51 34 1184 1179 bf 50 34 1235 1179 bf 0.977 0.977044 0.0583656 c 50 34 1285 1179 bf 0.322347 0.730556 0.570878 c 51 34 1335 1179 bf 0.977 0.977044 0.0583656 c 50
 34 1386 1179 bf 0.322347 0.730556 0.570878 c 51 34 1436 1179 bf 50 34 1487 1179 bf 0.977 0.977044 0.0583656 c 50 34 1537 1179 bf 0.322347 0.730556 0.570878 c 51 34 1587 1179 bf 50 34 1638 1179 bf 0.977 0.977044 0.0583656 c 51 34 1688 1179 bf
 0.322347 0.730556 0.570878 c 50 34 1739 1179 bf 50 34 1789 1179 bf 0.992 0.823138 0.170006 c 51 34 1839 1179 bf 0.322347 0.730556 0.570878 c 50 34 1890 1179 bf 0.2082 0.1664 0.5293 c 51 34 1940 1179 bf 0.322347 0.730556 0.570878 c 50 34 1991 1179 bf
 50 34 227 1213 bf 51 34 277 1213 bf 50 34 328 1213 bf 50 34 378 1213 bf 51 34 428 1213 bf 50 34 479 1213 bf 51 34 529 1213 bf 50 34 580 1213 bf 50 34 630 1213 bf 51 34 680 1213 bf 50 34 731 1213 bf 50 34 781 1213 bf 51 34 831 1213 bf 50 34 882 1213
 bf 51 34 932 1213 bf 50 34 983 1213 bf 50 34 1033 1213 bf 51 34 1083 1213 bf 50 34 1134 1213 bf 51 34 1184 1213 bf 50 34 1235 1213 bf 50 34 1285 1213 bf 51 34 1335 1213 bf 50 34 1386 1213 bf 51 34 1436 1213 bf 50 34 1487 1213 bf 50 34 1537 1213 bf
 51 34 1587 1213 bf 50 34 1638 1213 bf 51 34 1688 1213 bf 50 34 1739 1213 bf 50 34 1789 1213 bf 51 34 1839 1213 bf 50 34 1890 1213 bf 51 34 1940 1213 bf 50 34 1991 1213 bf 50 35 227 1247 bf 51 35 277 1247 bf 50 35 328 1247 bf 50 35 378 1247 bf 51 35
 428 1247 bf 0.956881 0.774519 0.230291 c 50 35 479 1247 bf 0.322347 0.730556 0.570878 c 51 35 529 1247 bf 50 35 580 1247 bf 50 35 630 1247 bf 51 35 680 1247 bf 50 35 731 1247 bf 50 35 781 1247 bf 51 35 831 1247 bf 50 35 882 1247 bf 51 35 932 1247 bf
 50 35 983 1247 bf 0.2082 0.1664 0.5293 c 50 35 1033 1247 bf 0.322347 0.730556 0.570878 c 51 35 1083 1247 bf 50 35 1134 1247 bf 51 35 1184 1247 bf 50 35 1235 1247 bf 50 35 1285 1247 bf 51 35 1335 1247 bf 50 35 1386 1247 bf 51 35 1436 1247 bf 50 35
 1487 1247 bf 50 35 1537 1247 bf 51 35 1587 1247 bf 50 35 1638 1247 bf 51 35 1688 1247 bf 50 35 1739 1247 bf 50 35 1789 1247 bf 51 35 1839 1247 bf 50 35 1890 1247 bf 51 35 1940 1247 bf 50 35 1991 1247 bf 50 34 227 1282 bf 51 34 277 1282 bf 50 34 328
 1282 bf 50 34 378 1282 bf 51 34 428 1282 bf 50 34 479 1282 bf 51 34 529 1282 bf 50 34 580 1282 bf 50 34 630 1282 bf 51 34 680 1282 bf 50 34 731 1282 bf 50 34 781 1282 bf 51 34 831 1282 bf 50 34 882 1282 bf 51 34 932 1282 bf 50 34 983 1282 bf 0.2082
 0.1664 0.5293 c 50 34 1033 1282 bf 0.322347 0.730556 0.570878 c 51 34 1083 1282 bf 50 34 1134 1282 bf 51 34 1184 1282 bf 50 34 1235 1282 bf 50 34 1285 1282 bf 51 34 1335 1282 bf 50 34 1386 1282 bf 51 34 1436 1282 bf 50 34 1487 1282 bf 50 34 1537
 1282 bf 51 34 1587 1282 bf 50 34 1638 1282 bf 51 34 1688 1282 bf 50 34 1739 1282 bf 50 34 1789 1282 bf 51 34 1839 1282 bf 50 34 1890 1282 bf 51 34 1940 1282 bf 50 34 1991 1282 bf 50 34 227 1316 bf 51 34 277 1316 bf 0.977 0.977044 0.0583656 c 50 34
 328 1316 bf 0.322347 0.730556 0.570878 c 50 34 378 1316 bf 51 34 428 1316 bf 50 34 479 1316 bf 51 34 529 1316 bf 50 34 580 1316 bf 50 34 630 1316 bf 51 34 680 1316 bf 50 34 731 1316 bf 50 34 781 1316 bf 51 34 831 1316 bf 50 34 882 1316 bf 51 34 932
 1316 bf 50 34 983 1316 bf 0.2082 0.1664 0.5293 c 50 34 1033 1316 bf 0.322347 0.730556 0.570878 c 51 34 1083 1316 bf 50 34 1134 1316 bf 0.2082 0.1664 0.5293 c 51 34 1184 1316 bf 0.977 0.977044 0.0583656 c 50 34 1235 1316 bf 0.322347 0.730556 0.570878
 c 50 34 1285 1316 bf 51 34 1335 1316 bf 0.977 0.977044 0.0583656 c 50 34 1386 1316 bf 0.884975 0.752825 0.292488 c 51 34 1436 1316 bf 0.322347 0.730556 0.570878 c 50 34 1487 1316 bf 0.977 0.977044 0.0583656 c 50 34 1537 1316 bf 0.0557375 0.560081
 0.819366 c 51 34 1587 1316 bf 0.322347 0.730556 0.570878 c 50 34 1638 1316 bf 0.977 0.977044 0.0583656 c 51 34 1688 1316 bf 0.322347 0.730556 0.570878 c 50 34 1739 1316 bf 50 34 1789 1316 bf 0.956881 0.774519 0.230291 c 51 34 1839 1316 bf 0.322347
 0.730556 0.570878 c 50 34 1890 1316 bf 51 34 1940 1316 bf 50 34 1991 1316 bf 50 34 227 1350 bf 51 34 277 1350 bf 50 34 328 1350 bf 50 34 378 1350 bf 51 34 428 1350 bf 50 34 479 1350 bf 51 34 529 1350 bf 50 34 580 1350 bf 50 34 630 1350 bf 51 34 680
 1350 bf 50 34 731 1350 bf 50 34 781 1350 bf 51 34 831 1350 bf 50 34 882 1350 bf 51 34 932 1350 bf 50 34 983 1350 bf 0.2082 0.1664 0.5293 c 50 34 1033 1350 bf 0.322347 0.730556 0.570878 c 51 34 1083 1350 bf 50 34 1134 1350 bf 51 34 1184 1350 bf 50 34
 1235 1350 bf 0.2082 0.1664 0.5293 c 50 34 1285 1350 bf 0.322347 0.730556 0.570878 c 51 34 1335 1350 bf 50 34 1386 1350 bf 51 34 1436 1350 bf 50 34 1487 1350 bf 50 34 1537 1350 bf 51 34 1587 1350 bf 50 34 1638 1350 bf 51 34 1688 1350 bf 50 34 1739
 1350 bf 50 34 1789 1350 bf 51 34 1839 1350 bf 50 34 1890 1350 bf 51 34 1940 1350 bf 50 34 1991 1350 bf 0.150523 0.241303 0.660565 c 102 61 2052 154 bf 0.0880387 0.322448 0.802768 c 102 62 2052 215 bf 0.0633125 0.391444 0.861859 c 102 61 2052 277 bf
 0.0703625 0.445519 0.850647 c 102 62 2052 338 bf 0.078 0.5041 0.8385 c 102 61 2052 400 bf 0.0557375 0.560081 0.819366 c 102 62 2052 461 bf 0.033475 0.616063 0.800231 c 102 61 2052 523 bf 0.0526375 0.656131 0.763481 c 102 62 2052 584 bf 0.116419
 0.686966 0.702991 c 102 61 2052 646 bf 0.1802 0.7178 0.6425 c 102 62 2052 707 bf 0.322347 0.730556 0.570878 c 102 61 2052 769 bf 0.453559 0.742331 0.504766 c 102 62 2052 830 bf 0.584194 0.746125 0.444394 c 102 61 2052 892 bf 0.701397 0.739462
 0.397147 c 102 62 2052 953 bf 0.8186 0.7328 0.3499 c 102 62 2052 1015 bf 0.884975 0.752825 0.292488 c 102 61 2052 1077 bf 0.956881 0.774519 0.230291 c 102 62 2052 1138 bf 0.992 0.823138 0.170006 c 102 61 2052 1200 bf 0.9842 0.903169 0.111953 c 102
 62 2052 1261 bf 0.977 0.977044 0.0583656 c 102 61 2052 1323 bf black 2154 154 m 1230 Y s 2100 154 m 54 X s 2100 277 m 54 X s 2100 400 m 54 X s 2100 523 m 54 X s 2100 646 m 54 X s 2100 769 m 54 X s 2100 892 m 54 X s 2100 1015 m 54 X s 2100 1138 m 54
 X s 2100 1261 m 54 X s 2100 1384 m 54 X s 2100 154 m 54 X s
 gsave  2268 1538 0 0 C 2189.52 136.845 t 0 r /Helvetica findfont 48.8732 sf 0 0 m (1) show NC gr 
 gsave  2268 1538 0 0 C 2163.45 136.845 t 0 r /Symbol findfont 48.8732 sf 0 0 m (-) show NC gr 
 gsave  2268 1538 0 0 C 2189.52 257.399 t 0 r /Helvetica findfont 48.8732 sf 0 0 m (0.8) show NC gr 
 gsave  2268 1538 0 0 C 2163.45 257.399 t 0 r /Symbol findfont 48.8732 sf 0 0 m (-) show NC gr 
 gsave  2268 1538 0 0 C 2189.52 381.211 t 0 r /Helvetica findfont 48.8732 sf 0 0 m (0.6) show NC gr 
 gsave  2268 1538 0 0 C 2163.45 381.211 t 0 r /Symbol findfont 48.8732 sf 0 0 m (-) show NC gr 
 gsave  2268 1538 0 0 C 2189.52 505.023 t 0 r /Helvetica findfont 48.8732 sf 0 0 m (0.4) show NC gr 
 gsave  2268 1538 0 0 C 2163.45 505.023 t 0 r /Symbol findfont 48.8732 sf 0 0 m (-) show NC gr 
 gsave  2268 1538 0 0 C 2189.52 628.835 t 0 r /Helvetica findfont 48.8732 sf 0 0 m (0.2) show NC gr 
 gsave  2268 1538 0 0 C 2163.45 628.835 t 0 r /Symbol findfont 48.8732 sf 0 0 m (-) show NC gr 
 gsave  2268 1538 0 0 C 2163.45 749.389 t 0 r /Helvetica findfont 48.8732 sf 0 0 m (0) show NC gr 
 gsave  2268 1538 0 0 C 2163.45 873.201 t 0 r /Helvetica findfont 48.8732 sf 0 0 m (0.2) show NC gr 
 gsave  2268 1538 0 0 C 2163.45 997.013 t 0 r /Helvetica findfont 48.8732 sf 0 0 m (0.4) show NC gr 
 gsave  2268 1538 0 0 C 2163.45 1120.83 t 0 r /Helvetica findfont 48.8732 sf 0 0 m (0.6) show NC gr 
 gsave  2268 1538 0 0 C 2163.45 1244.64 t 0 r /Helvetica findfont 48.8732 sf 0 0 m (0.8) show NC gr 
 gsave  2268 1538 0 0 C 2163.45 1365.19 t 0 r /Helvetica findfont 48.8732 sf 0 0 m (1) show NC gr  1 1 1 c black
 gsave  2268 1538 0 0 C 221.559 159.652 t 0 r /Helvetica-Bold findfont 29.3239 sf 0 0 m (1.00) show NC gr 
 gsave  2268 1538 0 0 C 270.432 159.652 t 0 r /Helvetica-Bold findfont 29.3239 sf 0 0 m (1.00) show NC gr 
 gsave  2268 1538 0 0 C 322.563 159.652 t 0 r /Helvetica-Bold findfont 29.3239 sf 0 0 m (1.00) show NC gr 
 gsave  2268 1538 0 0 C 371.436 159.652 t 0 r /Helvetica-Bold findfont 29.3239 sf 0 0 m (1.00) show NC gr 
 gsave  2268 1538 0 0 C 423.568 159.652 t 0 r /Helvetica-Bold findfont 29.3239 sf 0 0 m (1.00) show NC gr 
 gsave  2268 1538 0 0 C 472.441 159.652 t 0 r /Helvetica-Bold findfont 29.3239 sf 0 0 m (1.00) show NC gr 
 gsave  2268 1538 0 0 C 524.572 159.652 t 0 r /Helvetica-Bold findfont 29.3239 sf 0 0 m (1.00) show NC gr 
 gsave  2268 1538 0 0 C 573.446 159.652 t 0 r /Helvetica-Bold findfont 29.3239 sf 0 0 m (1.00) show NC gr 
 gsave  2268 1538 0 0 C 625.577 159.652 t 0 r /Helvetica-Bold findfont 29.3239 sf 0 0 m (1.00) show NC gr 
 gsave  2268 1538 0 0 C 674.45 159.652 t 0 r /Helvetica-Bold findfont 29.3239 sf 0 0 m (1.00) show NC gr 
 gsave  2268 1538 0 0 C 726.582 159.652 t 0 r /Helvetica-Bold findfont 29.3239 sf 0 0 m (1.00) show NC gr 
 gsave  2268 1538 0 0 C 775.455 159.652 t 0 r /Helvetica-Bold findfont 29.3239 sf 0 0 m (1.00) show NC gr 
 gsave  2268 1538 0 0 C 824.328 159.652 t 0 r /Helvetica-Bold findfont 29.3239 sf 0 0 m (1.00) show NC gr 
 gsave  2268 1538 0 0 C 876.459 159.652 t 0 r /Helvetica-Bold findfont 29.3239 sf 0 0 m (1.00) show NC gr 
 gsave  2268 1538 0 0 C 925.333 159.652 t 0 r /Helvetica-Bold findfont 29.3239 sf 0 0 m (1.00) show NC gr 
 gsave  2268 1538 0 0 C 977.464 159.652 t 0 r /Helvetica-Bold findfont 29.3239 sf 0 0 m (1.00) show NC gr 
 gsave  2268 1538 0 0 C 1026.34 159.652 t 0 r /Helvetica-Bold findfont 29.3239 sf 0 0 m (1.00) show NC gr 
 gsave  2268 1538 0 0 C 1078.47 159.652 t 0 r /Helvetica-Bold findfont 29.3239 sf 0 0 m (1.00) show NC gr 
 gsave  2268 1538 0 0 C 1127.34 159.652 t 0 r /Helvetica-Bold findfont 29.3239 sf 0 0 m (1.00) show NC gr 
 gsave  2268 1538 0 0 C 1179.47 159.652 t 0 r /Helvetica-Bold findfont 29.3239 sf 0 0 m (1.00) show NC gr 
 gsave  2268 1538 0 0 C 1228.35 159.652 t 0 r /Helvetica-Bold findfont 29.3239 sf 0 0 m (1.00) show NC gr 
 gsave  2268 1538 0 0 C 1280.48 159.652 t 0 r /Helvetica-Bold findfont 29.3239 sf 0 0 m (1.00) show NC gr 
 gsave  2268 1538 0 0 C 1329.35 159.652 t 0 r /Helvetica-Bold findfont 29.3239 sf 0 0 m (1.00) show NC gr 
 gsave  2268 1538 0 0 C 1381.48 159.652 t 0 r /Helvetica-Bold findfont 29.3239 sf 0 0 m (1.00) show NC gr 
 gsave  2268 1538 0 0 C 1430.36 159.652 t 0 r /Helvetica-Bold findfont 29.3239 sf 0 0 m (1.00) show NC gr 
 gsave  2268 1538 0 0 C 1482.49 159.652 t 0 r /Helvetica-Bold findfont 29.3239 sf 0 0 m (1.00) show NC gr 
 gsave  2268 1538 0 0 C 1531.36 159.652 t 0 r /Helvetica-Bold findfont 29.3239 sf 0 0 m (1.00) show NC gr 
 gsave  2268 1538 0 0 C 1580.23 159.652 t 0 r /Helvetica-Bold findfont 29.3239 sf 0 0 m (1.00) show NC gr 
 gsave  2268 1538 0 0 C 1632.36 159.652 t 0 r /Helvetica-Bold findfont 29.3239 sf 0 0 m (1.00) show NC gr 
 gsave  2268 1538 0 0 C 1681.24 159.652 t 0 r /Helvetica-Bold findfont 29.3239 sf 0 0 m (1.00) show NC gr 
 gsave  2268 1538 0 0 C 1733.37 159.652 t 0 r /Helvetica-Bold findfont 29.3239 sf 0 0 m (1.00) show NC gr 
 gsave  2268 1538 0 0 C 1778.98 159.652 t 0 r /Helvetica-Bold findfont 29.3239 sf 0 0 m (\2550.21) show NC gr 
 gsave  2268 1538 0 0 C 1831.12 159.652 t 0 r /Helvetica-Bold findfont 29.3239 sf 0 0 m (\2550.21) show NC gr 
 gsave  2268 1538 0 0 C 1876.73 159.652 t 0 r /Helvetica-Bold findfont 29.3239 sf 0 0 m (\2550.28) show NC gr 
 gsave  2268 1538 0 0 C 1928.86 159.652 t 0 r /Helvetica-Bold findfont 29.3239 sf 0 0 m (\2550.23) show NC gr 
 gsave  2268 1538 0 0 C 1977.74 159.652 t 0 r /Helvetica-Bold findfont 29.3239 sf 0 0 m (\2550.29) show NC gr 
 gsave  2268 1538 0 0 C 622.319 192.235 t 0 r /Helvetica-Bold findfont 29.3239 sf 0 0 m (\2550.21) show NC gr 
 gsave  2268 1538 0 0 C 768.938 192.235 t 0 r /Helvetica-Bold findfont 29.3239 sf 0 0 m (\2550.28) show NC gr 
 gsave  2268 1538 0 0 C 869.943 192.235 t 0 r /Helvetica-Bold findfont 29.3239 sf 0 0 m (\2550.23) show NC gr 
 gsave  2268 1538 0 0 C 970.948 192.235 t 0 r /Helvetica-Bold findfont 29.3239 sf 0 0 m (\2550.30) show NC gr 
 gsave  2268 1538 0 0 C 1326.09 192.235 t 0 r /Helvetica-Bold findfont 29.3239 sf 0 0 m (\2550.21) show NC gr 
 gsave  2268 1538 0 0 C 1528.1 192.235 t 0 r /Helvetica-Bold findfont 29.3239 sf 0 0 m (\2550.31) show NC gr 
 gsave  2268 1538 0 0 C 1782.24 192.235 t 0 r /Helvetica-Bold findfont 29.3239 sf 0 0 m (1.00) show NC gr 
 gsave  2268 1538 0 0 C 1834.37 192.235 t 0 r /Helvetica-Bold findfont 29.3239 sf 0 0 m (1.00) show NC gr 
 gsave  2268 1538 0 0 C 1879.99 192.235 t 0 r /Helvetica-Bold findfont 29.3239 sf 0 0 m (\2550.31) show NC gr 
 gsave  2268 1538 0 0 C 1928.86 192.235 t 0 r /Helvetica-Bold findfont 29.3239 sf 0 0 m (\2550.30) show NC gr 
 gsave  2268 1538 0 0 C 1984.25 192.235 t 0 r /Helvetica-Bold findfont 29.3239 sf 0 0 m (1.00) show NC gr 
 gsave  2268 1538 0 0 C 1775.73 228.075 t 0 r /Helvetica-Bold findfont 29.3239 sf 0 0 m (\2550.24) show NC gr 
 gsave  2268 1538 0 0 C 1876.73 228.075 t 0 r /Helvetica-Bold findfont 29.3239 sf 0 0 m (\2550.24) show NC gr 
 gsave  2268 1538 0 0 C 1935.38 228.075 t 0 r /Helvetica-Bold findfont 29.3239 sf 0 0 m (1.00) show NC gr 
 gsave  2268 1538 0 0 C 1883.25 260.657 t 0 r /Helvetica-Bold findfont 29.3239 sf 0 0 m (1.00) show NC gr 
 gsave  2268 1538 0 0 C 1876.73 296.497 t 0 r /Helvetica-Bold findfont 29.3239 sf 0 0 m (\2550.29) show NC gr 
 gsave  2268 1538 0 0 C 237.85 364.92 t 0 r /Helvetica-Bold findfont 29.3239 sf 0 0 m (84000.00) show NC gr 
 gsave  2268 1538 0 0 C 322.563 364.92 t 0 r /Helvetica-Bold findfont 29.3239 sf 0 0 m (0.88) show NC gr 
 gsave  2268 1538 0 0 C 364.92 364.92 t 0 r /Helvetica-Bold findfont 29.3239 sf 0 0 m (\2551.00) show NC gr 
 gsave  2268 1538 0 0 C 423.568 364.92 t 0 r /Helvetica-Bold findfont 29.3239 sf 0 0 m (1.00) show NC gr 
 gsave  2268 1538 0 0 C 430.084 364.92 t 0 r /Helvetica-Bold findfont 29.3239 sf 0 0 m (150000.00) show NC gr 
 gsave  2268 1538 0 0 C 566.929 364.92 t 0 r /Helvetica-Bold findfont 29.3239 sf 0 0 m (\2550.00) show NC gr 
 gsave  2268 1538 0 0 C 625.577 364.92 t 0 r /Helvetica-Bold findfont 29.3239 sf 0 0 m (0.75) show NC gr 
 gsave  2268 1538 0 0 C 641.868 364.92 t 0 r /Helvetica-Bold findfont 29.3239 sf 0 0 m (84000.00) show NC gr 
 gsave  2268 1538 0 0 C 684.225 364.92 t 0 r /Helvetica-Bold findfont 29.3239 sf 0 0 m (128000.00) show NC gr 
 gsave  2268 1538 0 0 C 775.455 364.92 t 0 r /Helvetica-Bold findfont 29.3239 sf 0 0 m (0.62) show NC gr 
 gsave  2268 1538 0 0 C 824.328 364.92 t 0 r /Helvetica-Bold findfont 29.3239 sf 0 0 m (0.50) show NC gr 
 gsave  2268 1538 0 0 C 876.459 364.92 t 0 r /Helvetica-Bold findfont 29.3239 sf 0 0 m (1.00) show NC gr 
 gsave  2268 1538 0 0 C 892.75 364.92 t 0 r /Helvetica-Bold findfont 29.3239 sf 0 0 m (40000.00) show NC gr 
 gsave  2268 1538 0 0 C 1026.34 364.92 t 0 r /Helvetica-Bold findfont 29.3239 sf 0 0 m (0.50) show NC gr 
 gsave  2268 1538 0 0 C 1084.99 364.92 t 0 r /Helvetica-Bold findfont 29.3239 sf 0 0 m (106000.00) show NC gr 
 gsave  2268 1538 0 0 C 1172.96 364.92 t 0 r /Helvetica-Bold findfont 29.3239 sf 0 0 m (\2550.00) show NC gr 
 gsave  2268 1538 0 0 C 1221.83 364.92 t 0 r /Helvetica-Bold findfont 29.3239 sf 0 0 m (\2551.00) show NC gr 
 gsave  2268 1538 0 0 C 1280.48 364.92 t 0 r /Helvetica-Bold findfont 29.3239 sf 0 0 m (1.00) show NC gr 
 gsave  2268 1538 0 0 C 1286.99 364.92 t 0 r /Helvetica-Bold findfont 29.3239 sf 0 0 m (150000.00) show NC gr 
 gsave  2268 1538 0 0 C 1381.48 364.92 t 0 r /Helvetica-Bold findfont 29.3239 sf 0 0 m (1.00) show NC gr 
 gsave  2268 1538 0 0 C 1430.36 364.92 t 0 r /Helvetica-Bold findfont 29.3239 sf 0 0 m (1.00) show NC gr 
 gsave  2268 1538 0 0 C 1531.36 364.92 t 0 r /Helvetica-Bold findfont 29.3239 sf 0 0 m (0.50) show NC gr 
 gsave  2268 1538 0 0 C 1580.23 364.92 t 0 r /Helvetica-Bold findfont 29.3239 sf 0 0 m (0.75) show NC gr 
 gsave  2268 1538 0 0 C 1674.72 364.92 t 0 r /Helvetica-Bold findfont 29.3239 sf 0 0 m (\2550.50) show NC gr 
 gsave  2268 1538 0 0 C 1691.01 364.92 t 0 r /Helvetica-Bold findfont 29.3239 sf 0 0 m (128000.00) show NC gr 
 gsave  2268 1538 0 0 C 1834.37 364.92 t 0 r /Helvetica-Bold findfont 29.3239 sf 0 0 m (1.00) show NC gr 
 gsave  2268 1538 0 0 C 237.85 501.765 t 0 r /Helvetica-Bold findfont 29.3239 sf 0 0 m (62000.00) show NC gr 
 gsave  2268 1538 0 0 C 322.563 501.765 t 0 r /Helvetica-Bold findfont 29.3239 sf 0 0 m (0.88) show NC gr 
 gsave  2268 1538 0 0 C 364.92 501.765 t 0 r /Helvetica-Bold findfont 29.3239 sf 0 0 m (\2550.50) show NC gr 
 gsave  2268 1538 0 0 C 423.568 501.765 t 0 r /Helvetica-Bold findfont 29.3239 sf 0 0 m (0.50) show NC gr 
 gsave  2268 1538 0 0 C 430.084 501.765 t 0 r /Helvetica-Bold findfont 29.3239 sf 0 0 m (150000.00) show NC gr 
 gsave  2268 1538 0 0 C 524.572 501.765 t 0 r /Helvetica-Bold findfont 29.3239 sf 0 0 m (1.00) show NC gr 
 gsave  2268 1538 0 0 C 573.446 501.765 t 0 r /Helvetica-Bold findfont 29.3239 sf 0 0 m (0.00) show NC gr 
 gsave  2268 1538 0 0 C 625.577 501.765 t 0 r /Helvetica-Bold findfont 29.3239 sf 0 0 m (0.75) show NC gr 
 gsave  2268 1538 0 0 C 641.868 501.765 t 0 r /Helvetica-Bold findfont 29.3239 sf 0 0 m (84000.00) show NC gr 
 gsave  2268 1538 0 0 C 726.582 501.765 t 0 r /Helvetica-Bold findfont 29.3239 sf 0 0 m (1.00) show NC gr 
 gsave  2268 1538 0 0 C 775.455 501.765 t 0 r /Helvetica-Bold findfont 29.3239 sf 0 0 m (0.50) show NC gr 
 gsave  2268 1538 0 0 C 876.459 501.765 t 0 r /Helvetica-Bold findfont 29.3239 sf 0 0 m (1.00) show NC gr 
 gsave  2268 1538 0 0 C 935.107 501.765 t 0 r /Helvetica-Bold findfont 29.3239 sf 0 0 m (150000.00) show NC gr 
 gsave  2268 1538 0 0 C 1078.47 501.765 t 0 r /Helvetica-Bold findfont 29.3239 sf 0 0 m (1.00) show NC gr 
 gsave  2268 1538 0 0 C 1094.76 501.765 t 0 r /Helvetica-Bold findfont 29.3239 sf 0 0 m (84000.00) show NC gr 
 gsave  2268 1538 0 0 C 1172.96 501.765 t 0 r /Helvetica-Bold findfont 29.3239 sf 0 0 m (\2550.50) show NC gr 
 gsave  2268 1538 0 0 C 1221.83 501.765 t 0 r /Helvetica-Bold findfont 29.3239 sf 0 0 m (\2551.00) show NC gr 
 gsave  2268 1538 0 0 C 1280.48 501.765 t 0 r /Helvetica-Bold findfont 29.3239 sf 0 0 m (1.00) show NC gr 
 gsave  2268 1538 0 0 C 1286.99 501.765 t 0 r /Helvetica-Bold findfont 29.3239 sf 0 0 m (150000.00) show NC gr 
 gsave  2268 1538 0 0 C 1381.48 501.765 t 0 r /Helvetica-Bold findfont 29.3239 sf 0 0 m (0.50) show NC gr 
 gsave  2268 1538 0 0 C 1430.36 501.765 t 0 r /Helvetica-Bold findfont 29.3239 sf 0 0 m (1.00) show NC gr 
 gsave  2268 1538 0 0 C 1482.49 501.765 t 0 r /Helvetica-Bold findfont 29.3239 sf 0 0 m (1.00) show NC gr 
 gsave  2268 1538 0 0 C 1531.36 501.765 t 0 r /Helvetica-Bold findfont 29.3239 sf 0 0 m (0.50) show NC gr 
 gsave  2268 1538 0 0 C 1580.23 501.765 t 0 r /Helvetica-Bold findfont 29.3239 sf 0 0 m (0.62) show NC gr 
 gsave  2268 1538 0 0 C 1674.72 501.765 t 0 r /Helvetica-Bold findfont 29.3239 sf 0 0 m (\2551.00) show NC gr 
 gsave  2268 1538 0 0 C 1700.79 501.765 t 0 r /Helvetica-Bold findfont 29.3239 sf 0 0 m (62000.00) show NC gr 
 gsave  2268 1538 0 0 C 1782.24 501.765 t 0 r /Helvetica-Bold findfont 29.3239 sf 0 0 m (1.00) show NC gr 
 gsave  2268 1538 0 0 C 1834.37 501.765 t 0 r /Helvetica-Bold findfont 29.3239 sf 0 0 m (1.00) show NC gr 
 gsave  2268 1538 0 0 C 1935.38 501.765 t 0 r /Helvetica-Bold findfont 29.3239 sf 0 0 m (1.00) show NC gr 
 gsave  2268 1538 0 0 C 1840.89 570.187 t 0 r /Helvetica-Bold findfont 29.3239 sf 0 0 m ( inf) show NC gr 
 gsave  2268 1538 0 0 C 1883.25 570.187 t 0 r /Helvetica-Bold findfont 29.3239 sf 0 0 m (1.00) show NC gr 
 gsave  2268 1538 0 0 C 1840.89 602.769 t 0 r /Helvetica-Bold findfont 29.3239 sf 0 0 m ( inf) show NC gr 
 gsave  2268 1538 0 0 C 237.85 638.61 t 0 r /Helvetica-Bold findfont 29.3239 sf 0 0 m (62000.00) show NC gr 
 gsave  2268 1538 0 0 C 322.563 638.61 t 0 r /Helvetica-Bold findfont 29.3239 sf 0 0 m (0.75) show NC gr 
 gsave  2268 1538 0 0 C 364.92 638.61 t 0 r /Helvetica-Bold findfont 29.3239 sf 0 0 m (\2550.50) show NC gr 
 gsave  2268 1538 0 0 C 423.568 638.61 t 0 r /Helvetica-Bold findfont 29.3239 sf 0 0 m (0.50) show NC gr 
 gsave  2268 1538 0 0 C 524.572 638.61 t 0 r /Helvetica-Bold findfont 29.3239 sf 0 0 m (1.00) show NC gr 
 gsave  2268 1538 0 0 C 573.446 638.61 t 0 r /Helvetica-Bold findfont 29.3239 sf 0 0 m (0.50) show NC gr 
 gsave  2268 1538 0 0 C 625.577 638.61 t 0 r /Helvetica-Bold findfont 29.3239 sf 0 0 m (0.62) show NC gr 
 gsave  2268 1538 0 0 C 641.868 638.61 t 0 r /Helvetica-Bold findfont 29.3239 sf 0 0 m (62000.00) show NC gr 
 gsave  2268 1538 0 0 C 726.582 638.61 t 0 r /Helvetica-Bold findfont 29.3239 sf 0 0 m (0.50) show NC gr 
 gsave  2268 1538 0 0 C 775.455 638.61 t 0 r /Helvetica-Bold findfont 29.3239 sf 0 0 m (0.50) show NC gr 
 gsave  2268 1538 0 0 C 882.976 638.61 t 0 r /Helvetica-Bold findfont 29.3239 sf 0 0 m ( inf) show NC gr 
 gsave  2268 1538 0 0 C 1094.76 638.61 t 0 r /Helvetica-Bold findfont 29.3239 sf 0 0 m (84000.00) show NC gr 
 gsave  2268 1538 0 0 C 1172.96 638.61 t 0 r /Helvetica-Bold findfont 29.3239 sf 0 0 m (\2550.50) show NC gr 
 gsave  2268 1538 0 0 C 1221.83 638.61 t 0 r /Helvetica-Bold findfont 29.3239 sf 0 0 m (\2550.50) show NC gr 
 gsave  2268 1538 0 0 C 1286.99 638.61 t 0 r /Helvetica-Bold findfont 29.3239 sf 0 0 m (128000.00) show NC gr 
 gsave  2268 1538 0 0 C 1381.48 638.61 t 0 r /Helvetica-Bold findfont 29.3239 sf 0 0 m (0.50) show NC gr 
 gsave  2268 1538 0 0 C 1430.36 638.61 t 0 r /Helvetica-Bold findfont 29.3239 sf 0 0 m (0.50) show NC gr 
 gsave  2268 1538 0 0 C 1531.36 638.61 t 0 r /Helvetica-Bold findfont 29.3239 sf 0 0 m (1.00) show NC gr 
 gsave  2268 1538 0 0 C 1580.23 638.61 t 0 r /Helvetica-Bold findfont 29.3239 sf 0 0 m (0.62) show NC gr 
 gsave  2268 1538 0 0 C 1674.72 638.61 t 0 r /Helvetica-Bold findfont 29.3239 sf 0 0 m (\2551.00) show NC gr 
 gsave  2268 1538 0 0 C 1733.37 638.61 t 0 r /Helvetica-Bold findfont 29.3239 sf 0 0 m (0.50) show NC gr 
 gsave  2268 1538 0 0 C 1782.24 638.61 t 0 r /Helvetica-Bold findfont 29.3239 sf 0 0 m (1.00) show NC gr 
 gsave  2268 1538 0 0 C 1840.89 638.61 t 0 r /Helvetica-Bold findfont 29.3239 sf 0 0 m ( inf) show NC gr 
 gsave  2268 1538 0 0 C 1984.25 638.61 t 0 r /Helvetica-Bold findfont 29.3239 sf 0 0 m (0.50) show NC gr 
 gsave  2268 1538 0 0 C 882.976 671.192 t 0 r /Helvetica-Bold findfont 29.3239 sf 0 0 m ( inf) show NC gr 
 gsave  2268 1538 0 0 C 1840.89 671.192 t 0 r /Helvetica-Bold findfont 29.3239 sf 0 0 m ( inf) show NC gr 
 gsave  2268 1538 0 0 C 312.788 707.032 t 0 r /Helvetica-Bold findfont 29.3239 sf 0 0 m (87.89) show NC gr 
 gsave  2268 1538 0 0 C 882.976 707.032 t 0 r /Helvetica-Bold findfont 29.3239 sf 0 0 m ( inf) show NC gr 
 gsave  2268 1538 0 0 C 1687.75 707.032 t 0 r /Helvetica-Bold findfont 29.3239 sf 0 0 m ( inf) show NC gr 
 gsave  2268 1538 0 0 C 1840.89 707.032 t 0 r /Helvetica-Bold findfont 29.3239 sf 0 0 m ( inf) show NC gr 
 gsave  2268 1538 0 0 C 1883.25 707.032 t 0 r /Helvetica-Bold findfont 29.3239 sf 0 0 m (0.50) show NC gr 
 gsave  2268 1538 0 0 C 306.272 739.614 t 0 r /Helvetica-Bold findfont 29.3239 sf 0 0 m (239.49) show NC gr 
 gsave  2268 1538 0 0 C 882.976 739.614 t 0 r /Helvetica-Bold findfont 29.3239 sf 0 0 m ( inf) show NC gr 
 gsave  2268 1538 0 0 C 1273.96 739.614 t 0 r /Helvetica-Bold findfont 29.3239 sf 0 0 m (\2550.50) show NC gr 
 gsave  2268 1538 0 0 C 1840.89 739.614 t 0 r /Helvetica-Bold findfont 29.3239 sf 0 0 m ( inf) show NC gr 
 gsave  2268 1538 0 0 C 215.042 775.455 t 0 r /Helvetica-Bold findfont 29.3239 sf 0 0 m (\2550.50) show NC gr 
 gsave  2268 1538 0 0 C 237.85 775.455 t 0 r /Helvetica-Bold findfont 29.3239 sf 0 0 m (84000.00) show NC gr 
 gsave  2268 1538 0 0 C 316.047 775.455 t 0 r /Helvetica-Bold findfont 29.3239 sf 0 0 m (86.31) show NC gr 
 gsave  2268 1538 0 0 C 518.056 775.455 t 0 r /Helvetica-Bold findfont 29.3239 sf 0 0 m (\2551.00) show NC gr 
 gsave  2268 1538 0 0 C 726.582 775.455 t 0 r /Helvetica-Bold findfont 29.3239 sf 0 0 m (0.50) show NC gr 
 gsave  2268 1538 0 0 C 882.976 775.455 t 0 r /Helvetica-Bold findfont 29.3239 sf 0 0 m ( inf) show NC gr 
 gsave  2268 1538 0 0 C 1172.96 775.455 t 0 r /Helvetica-Bold findfont 29.3239 sf 0 0 m (\2551.00) show NC gr 
 gsave  2268 1538 0 0 C 1221.83 775.455 t 0 r /Helvetica-Bold findfont 29.3239 sf 0 0 m (\2551.00) show NC gr 
 gsave  2268 1538 0 0 C 1381.48 775.455 t 0 r /Helvetica-Bold findfont 29.3239 sf 0 0 m (0.62) show NC gr 
 gsave  2268 1538 0 0 C 1430.36 775.455 t 0 r /Helvetica-Bold findfont 29.3239 sf 0 0 m (1.00) show NC gr 
 gsave  2268 1538 0 0 C 1531.36 775.455 t 0 r /Helvetica-Bold findfont 29.3239 sf 0 0 m (0.75) show NC gr 
 gsave  2268 1538 0 0 C 1573.72 775.455 t 0 r /Helvetica-Bold findfont 29.3239 sf 0 0 m (\2550.50) show NC gr 
 gsave  2268 1538 0 0 C 1687.75 775.455 t 0 r /Helvetica-Bold findfont 29.3239 sf 0 0 m ( inf) show NC gr 
 gsave  2268 1538 0 0 C 1733.37 775.455 t 0 r /Helvetica-Bold findfont 29.3239 sf 0 0 m (0.50) show NC gr 
 gsave  2268 1538 0 0 C 1782.24 775.455 t 0 r /Helvetica-Bold findfont 29.3239 sf 0 0 m (1.00) show NC gr 
 gsave  2268 1538 0 0 C 1840.89 775.455 t 0 r /Helvetica-Bold findfont 29.3239 sf 0 0 m ( inf) show NC gr 
 gsave  2268 1538 0 0 C 1932.12 778.713 t 0 r /Helvetica-Bold findfont 29.3239 sf 0 0 m (\255nan) show NC gr 
 gsave  2268 1538 0 0 C 312.788 808.037 t 0 r /Helvetica-Bold findfont 29.3239 sf 0 0 m (22.79) show NC gr 
 gsave  2268 1538 0 0 C 1840.89 808.037 t 0 r /Helvetica-Bold findfont 29.3239 sf 0 0 m ( inf) show NC gr 
 gsave  2268 1538 0 0 C 322.563 843.877 t 0 r /Helvetica-Bold findfont 29.3239 sf 0 0 m (5.30) show NC gr 
 gsave  2268 1538 0 0 C 1883.25 843.877 t 0 r /Helvetica-Bold findfont 29.3239 sf 0 0 m (0.50) show NC gr 
 gsave  2268 1538 0 0 C 215.042 912.3 t 0 r /Helvetica-Bold findfont 29.3239 sf 0 0 m (\2550.50) show NC gr 
 gsave  2268 1538 0 0 C 237.85 912.3 t 0 r /Helvetica-Bold findfont 29.3239 sf 0 0 m (62000.00) show NC gr 
 gsave  2268 1538 0 0 C 518.056 912.3 t 0 r /Helvetica-Bold findfont 29.3239 sf 0 0 m (\2551.00) show NC gr 
 gsave  2268 1538 0 0 C 944.882 912.3 t 0 r /Helvetica-Bold findfont 29.3239 sf 0 0 m (40000.00) show NC gr 
 gsave  2268 1538 0 0 C 1172.96 912.3 t 0 r /Helvetica-Bold findfont 29.3239 sf 0 0 m (\2551.00) show NC gr 
 gsave  2268 1538 0 0 C 1221.83 912.3 t 0 r /Helvetica-Bold findfont 29.3239 sf 0 0 m (\2551.00) show NC gr 
 gsave  2268 1538 0 0 C 1238.12 912.3 t 0 r /Helvetica-Bold findfont 29.3239 sf 0 0 m (128000.00) show NC gr 
 gsave  2268 1538 0 0 C 1381.48 912.3 t 0 r /Helvetica-Bold findfont 29.3239 sf 0 0 m (0.50) show NC gr 
 gsave  2268 1538 0 0 C 1430.36 912.3 t 0 r /Helvetica-Bold findfont 29.3239 sf 0 0 m (1.00) show NC gr 
 gsave  2268 1538 0 0 C 1531.36 912.3 t 0 r /Helvetica-Bold findfont 29.3239 sf 0 0 m (0.75) show NC gr 
 gsave  2268 1538 0 0 C 1573.72 912.3 t 0 r /Helvetica-Bold findfont 29.3239 sf 0 0 m (\2550.50) show NC gr 
 gsave  2268 1538 0 0 C 1733.37 912.3 t 0 r /Helvetica-Bold findfont 29.3239 sf 0 0 m (0.00) show NC gr 
 gsave  2268 1538 0 0 C 1782.24 912.3 t 0 r /Helvetica-Bold findfont 29.3239 sf 0 0 m (0.88) show NC gr 
 gsave  2268 1538 0 0 C 1932.12 983.98 t 0 r /Helvetica-Bold findfont 29.3239 sf 0 0 m (\255nan) show NC gr 
 gsave  2268 1538 0 0 C 215.042 1049.14 t 0 r /Helvetica-Bold findfont 29.3239 sf 0 0 m (\2551.00) show NC gr 
 gsave  2268 1538 0 0 C 237.85 1049.14 t 0 r /Helvetica-Bold findfont 29.3239 sf 0 0 m (62000.00) show NC gr 
 gsave  2268 1538 0 0 C 280.206 1049.14 t 0 r /Helvetica-Bold findfont 29.3239 sf 0 0 m (150000.00) show NC gr 
 gsave  2268 1538 0 0 C 491.99 1049.14 t 0 r /Helvetica-Bold findfont 29.3239 sf 0 0 m (40000.00) show NC gr 
 gsave  2268 1538 0 0 C 1179.47 1049.14 t 0 r /Helvetica-Bold findfont 29.3239 sf 0 0 m (1.00) show NC gr 
 gsave  2268 1538 0 0 C 1238.12 1049.14 t 0 r /Helvetica-Bold findfont 29.3239 sf 0 0 m (106000.00) show NC gr 
 gsave  2268 1538 0 0 C 1381.48 1049.14 t 0 r /Helvetica-Bold findfont 29.3239 sf 0 0 m (0.50) show NC gr 
 gsave  2268 1538 0 0 C 1531.36 1049.14 t 0 r /Helvetica-Bold findfont 29.3239 sf 0 0 m (0.88) show NC gr 
 gsave  2268 1538 0 0 C 1573.72 1049.14 t 0 r /Helvetica-Bold findfont 29.3239 sf 0 0 m (\2551.00) show NC gr 
 gsave  2268 1538 0 0 C 1648.66 1049.14 t 0 r /Helvetica-Bold findfont 29.3239 sf 0 0 m (40000.00) show NC gr 
 gsave  2268 1538 0 0 C 1782.24 1049.14 t 0 r /Helvetica-Bold findfont 29.3239 sf 0 0 m (0.88) show NC gr 
 gsave  2268 1538 0 0 C 1834.37 1049.14 t 0 r /Helvetica-Bold findfont 29.3239 sf 0 0 m (0.50) show NC gr 
 gsave  2268 1538 0 0 C 983.98 1117.57 t 0 r /Helvetica-Bold findfont 29.3239 sf 0 0 m (150000.00) show NC gr 
 gsave  2268 1538 0 0 C 270.432 1185.99 t 0 r /Helvetica-Bold findfont 29.3239 sf 0 0 m (1.00) show NC gr 
 gsave  2268 1538 0 0 C 280.206 1185.99 t 0 r /Helvetica-Bold findfont 29.3239 sf 0 0 m (128000.00) show NC gr 
 gsave  2268 1538 0 0 C 491.99 1185.99 t 0 r /Helvetica-Bold findfont 29.3239 sf 0 0 m (40000.00) show NC gr 
 gsave  2268 1538 0 0 C 1238.12 1185.99 t 0 r /Helvetica-Bold findfont 29.3239 sf 0 0 m (106000.00) show NC gr 
 gsave  2268 1538 0 0 C 1339.13 1185.99 t 0 r /Helvetica-Bold findfont 29.3239 sf 0 0 m (128000.00) show NC gr 
 gsave  2268 1538 0 0 C 1489 1185.99 t 0 r /Helvetica-Bold findfont 29.3239 sf 0 0 m (128000.00) show NC gr 
 gsave  2268 1538 0 0 C 1648.66 1185.99 t 0 r /Helvetica-Bold findfont 29.3239 sf 0 0 m (62000.00) show NC gr 
 gsave  2268 1538 0 0 C 1834.37 1185.99 t 0 r /Helvetica-Bold findfont 29.3239 sf 0 0 m (0.75) show NC gr 
 gsave  2268 1538 0 0 C 1932.12 1189.25 t 0 r /Helvetica-Bold findfont 29.3239 sf 0 0 m (\255nan) show NC gr 
 gsave  2268 1538 0 0 C 472.441 1254.41 t 0 r /Helvetica-Bold findfont 29.3239 sf 0 0 m (0.62) show NC gr 
 gsave  2268 1538 0 0 C 1032.85 1254.41 t 0 r /Helvetica-Bold findfont 29.3239 sf 0 0 m ( inf) show NC gr 
 gsave  2268 1538 0 0 C 1032.85 1286.99 t 0 r /Helvetica-Bold findfont 29.3239 sf 0 0 m ( inf) show NC gr 
 gsave  2268 1538 0 0 C 280.206 1322.83 t 0 r /Helvetica-Bold findfont 29.3239 sf 0 0 m (128000.00) show NC gr 
 gsave  2268 1538 0 0 C 1032.85 1322.83 t 0 r /Helvetica-Bold findfont 29.3239 sf 0 0 m ( inf) show NC gr 
 gsave  2268 1538 0 0 C 925.333 1322.83 t 0 r /Helvetica-Bold findfont 29.3239 sf 0 0 m (32173800493049996584726502047744.00) show NC gr 
 gsave  2268 1538 0 0 C 1228.35 1322.83 t 0 r /Helvetica-Bold findfont 29.3239 sf 0 0 m (1.00) show NC gr 
 gsave  2268 1538 0 0 C 1339.13 1322.83 t 0 r /Helvetica-Bold findfont 29.3239 sf 0 0 m (106000.00) show NC gr 
 gsave  2268 1538 0 0 C 1430.36 1322.83 t 0 r /Helvetica-Bold findfont 29.3239 sf 0 0 m (0.50) show NC gr 
 gsave  2268 1538 0 0 C 1489 1322.83 t 0 r /Helvetica-Bold findfont 29.3239 sf 0 0 m (128000.00) show NC gr 
 gsave  2268 1538 0 0 C 1573.72 1322.83 t 0 r /Helvetica-Bold findfont 29.3239 sf 0 0 m (\2550.50) show NC gr 
 gsave  2268 1538 0 0 C 1648.66 1322.83 t 0 r /Helvetica-Bold findfont 29.3239 sf 0 0 m (62000.00) show NC gr 
 gsave  2268 1538 0 0 C 1834.37 1322.83 t 0 r /Helvetica-Bold findfont 29.3239 sf 0 0 m (0.62) show NC gr 
 gsave  2268 1538 0 0 C 1032.85 1355.42 t 0 r /Helvetica-Bold findfont 29.3239 sf 0 0 m ( inf) show NC gr 
 gsave  2268 1538 0 0 C 1286.99 1355.42 t 0 r /Helvetica-Bold findfont 29.3239 sf 0 0 m ( inf) show NC gr  227 154 m 1814 X s
 gsave  2268 1538 0 0 C 244.366 127.07 t -19 r /Helvetica findfont 32.5821 sf 0 0 m (JET_Flavor_Composition) show NC gr 
 gsave  2268 1538 0 0 C 293.239 127.07 t -19 r /Helvetica findfont 32.5821 sf 0 0 m (JET_JER_DataVsMC_MC16) show NC gr 
 gsave  2268 1538 0 0 C 345.371 127.07 t -19 r /Helvetica findfont 32.5821 sf 0 0 m (JET_JER_EffectiveNP_2) show NC gr 
 gsave  2268 1538 0 0 C 394.244 127.07 t -19 r /Helvetica findfont 32.5821 sf 0 0 m (JET_JER_EffectiveNP_5) show NC gr 
 gsave  2268 1538 0 0 C 446.375 127.07 t -19 r /Helvetica findfont 32.5821 sf 0 0 m (JET_JER_EffectiveNP_6) show NC gr 
 gsave  2268 1538 0 0 C 495.248 127.07 t -19 r /Helvetica findfont 32.5821 sf 0 0 m (JET_JER_EffectiveNP_7) show NC gr 
 gsave  2268 1538 0 0 C 547.38 127.07 t -19 r /Helvetica findfont 32.5821 sf 0 0 m (JET_Pileup_OffsetMu) show NC gr 
 gsave  2268 1538 0 0 C 596.253 127.07 t -19 r /Helvetica findfont 32.5821 sf 0 0 m (JET_Pileup_RhoTopology) show NC gr 
 gsave  2268 1538 0 0 C 648.384 127.07 t -19 r /Helvetica findfont 32.5821 sf 0 0 m (theo_ggF_shower) show NC gr 
 gsave  2268 1538 0 0 C 697.258 127.07 t -19 r /Helvetica findfont 32.5821 sf 0 0 m (theo_ggF_shower) show NC gr 
 gsave  2268 1538 0 0 C 749.389 127.07 t -19 r /Helvetica findfont 32.5821 sf 0 0 m (JET_Flavor_Response) show NC gr 
 gsave  2268 1538 0 0 C 798.262 127.07 t -19 r /Helvetica findfont 32.5821 sf 0 0 m (JET_JER_EffectiveNP_1) show NC gr 
 gsave  2268 1538 0 0 C 847.135 127.07 t -19 r /Helvetica findfont 32.5821 sf 0 0 m (EL_EFF_ID_CorrUncertaintyNP15) show NC gr 
 gsave  2268 1538 0 0 C 899.267 127.07 t -19 r /Helvetica findfont 32.5821 sf 0 0 m (EL_EFF_ID_CorrUncertaintyNP15) show NC gr 
 gsave  2268 1538 0 0 C 948.14 127.07 t -19 r /Helvetica findfont 32.5821 sf 0 0 m (theo_ttbar_fsr) show NC gr 
 gsave  2268 1538 0 0 C 1000.27 127.07 t -19 r /Helvetica findfont 32.5821 sf 0 0 m (theo_ztautau_generator) show NC gr 
 gsave  2268 1538 0 0 C 1049.14 127.07 t -19 r /Helvetica findfont 32.5821 sf 0 0 m (theo_ztautau_generator) show NC gr 
 gsave  2268 1538 0 0 C 1101.28 127.07 t -19 r /Helvetica findfont 32.5821 sf 0 0 m (gamma_stat_CRZjets_MT_bin_0) show NC gr 
 gsave  2268 1538 0 0 C 1150.15 127.07 t -19 r /Helvetica findfont 32.5821 sf 0 0 m (gamma_stat_CRZjets_MT_bin_1) show NC gr 
 gsave  2268 1538 0 0 C 1202.28 127.07 t -19 r /Helvetica findfont 32.5821 sf 0 0 m (gamma_stat_CRZjets_MT_bin_1) show NC gr 
 gsave  2268 1538 0 0 C 1251.15 127.07 t -19 r /Helvetica findfont 32.5821 sf 0 0 m (gamma_stat_CRZjets_MT_bin_2) show NC gr 
 gsave  2268 1538 0 0 C 1303.29 127.07 t -19 r /Helvetica findfont 32.5821 sf 0 0 m (gamma_stat_CRZjets_MT_bin_3) show NC gr 
 gsave  2268 1538 0 0 C 1352.16 127.07 t -19 r /Helvetica findfont 32.5821 sf 0 0 m (gamma_stat_CRZjets_MT_bin_4) show NC gr 
 gsave  2268 1538 0 0 C 1404.29 127.07 t -19 r /Helvetica findfont 32.5821 sf 0 0 m (gamma_stat_CRTop_0_bdt_TopWWAll_bin_0) show NC gr 
 gsave  2268 1538 0 0 C 1453.16 127.07 t -19 r /Helvetica findfont 32.5821 sf 0 0 m (gamma_stat_CRTop_0_bdt_TopWWAll_bin_1) show NC gr 
 gsave  2268 1538 0 0 C 1505.29 127.07 t -19 r /Helvetica findfont 32.5821 sf 0 0 m (gamma_stat_CRTop_0_bdt_TopWWAll_bin_2) show NC gr 
 gsave  2268 1538 0 0 C 1554.17 127.07 t -19 r /Helvetica findfont 32.5821 sf 0 0 m (gamma_stat_CRTop_0_bdt_TopWWAll_bin_3) show NC gr 
 gsave  2268 1538 0 0 C 1603.04 127.07 t -19 r /Helvetica findfont 32.5821 sf 0 0 m (gamma_stat_CRTop_0_bdt_TopWWAll_bin_3) show NC gr 
 gsave  2268 1538 0 0 C 1655.17 127.07 t -19 r /Helvetica findfont 32.5821 sf 0 0 m (gamma_stat_CRGGF1_bdt_ggFCR1_bin_0) show NC gr 
 gsave  2268 1538 0 0 C 1704.05 127.07 t -19 r /Helvetica findfont 32.5821 sf 0 0 m (gamma_stat_CRGGF1_bdt_ggFCR1_bin_1) show NC gr 
 gsave  2268 1538 0 0 C 1756.18 127.07 t -19 r /Helvetica findfont 32.5821 sf 0 0 m (gamma_stat_CRGGF1_bdt_ggFCR1_bin_2) show NC gr 
 gsave  2268 1538 0 0 C 1805.05 127.07 t -19 r /Helvetica findfont 32.5821 sf 0 0 m (gamma_stat_CRGGF1_bdt_ggFCR1_bin_3) show NC gr 
 gsave  2268 1538 0 0 C 1857.18 127.07 t -19 r /Helvetica findfont 32.5821 sf 0 0 m (gamma_stat_CRGGF1_bdt_ggFCR1_bin_3) show NC gr 
 gsave  2268 1538 0 0 C 1906.05 127.07 t -19 r /Helvetica findfont 32.5821 sf 0 0 m (gamma_stat_SRVBF_0_bdt_vbf_inc_bin_0) show NC gr 
 gsave  2268 1538 0 0 C 1958.19 127.07 t -19 r /Helvetica findfont 32.5821 sf 0 0 m (gamma_stat_SRVBF_0_bdt_vbf_inc_bin_1) show NC gr 
 gsave  2268 1538 0 0 C 2007.06 127.07 t -19 r /Helvetica findfont 32.5821 sf 0 0 m (gamma_stat_SRVBF_0_bdt_vbf_inc_bin_2) show NC gr  227 191 m -37 Y s 277 191 m -37 Y s 328 191 m -37 Y s 378 191 m -37 Y s 428 191 m -37 Y s 479 191 m -37 Y s 529 191
 m -37 Y s 580 191 m -37 Y s 630 191 m -37 Y s 680 191 m -37 Y s 731 191 m -37 Y s 781 191 m -37 Y s 831 191 m -37 Y s 882 191 m -37 Y s 932 191 m -37 Y s 983 191 m -37 Y s 1033 191 m -37 Y s 1083 191 m -37 Y s 1134 191 m -37 Y s 1184 191 m -37 Y s
 1235 191 m -37 Y s 1285 191 m -37 Y s 1335 191 m -37 Y s 1386 191 m -37 Y s 1436 191 m -37 Y s 1487 191 m -37 Y s 1537 191 m -37 Y s 1587 191 m -37 Y s 1638 191 m -37 Y s 1688 191 m -37 Y s 1739 191 m -37 Y s 1789 191 m -37 Y s 1839 191 m -37 Y s
 1890 191 m -37 Y s 1940 191 m -37 Y s 1991 191 m -37 Y s 2041 191 m -37 Y s 227 154 m 1230 Y s
 gsave  2268 1538 0 0 C -166.169 162.911 t 0 r /Helvetica findfont 32.5821 sf 0 0 m (JET_Flavor_Composition) show NC gr 
 gsave  2268 1538 0 0 C -221.559 192.235 t 0 r /Helvetica findfont 32.5821 sf 0 0 m (JET_JER_DataVsMC_MC16) show NC gr 
 gsave  2268 1538 0 0 C -162.911 228.075 t 0 r /Helvetica findfont 32.5821 sf 0 0 m (JET_JER_EffectiveNP_2) show NC gr 
 gsave  2268 1538 0 0 C -162.911 260.657 t 0 r /Helvetica findfont 32.5821 sf 0 0 m (JET_JER_EffectiveNP_5) show NC gr 
 gsave  2268 1538 0 0 C -162.911 296.497 t 0 r /Helvetica findfont 32.5821 sf 0 0 m (JET_JER_EffectiveNP_6) show NC gr 
 gsave  2268 1538 0 0 C -162.911 329.08 t 0 r /Helvetica findfont 32.5821 sf 0 0 m (JET_JER_EffectiveNP_7) show NC gr 
 gsave  2268 1538 0 0 C -117.296 368.178 t 0 r /Helvetica findfont 32.5821 sf 0 0 m (JET_Pileup_OffsetMu) show NC gr 
 gsave  2268 1538 0 0 C -182.46 400.76 t 0 r /Helvetica findfont 32.5821 sf 0 0 m (JET_Pileup_RhoTopology) show NC gr 
 gsave  2268 1538 0 0 C -61.9061 436.601 t 0 r /Helvetica findfont 32.5821 sf 0 0 m (theo_ggF_shower) show NC gr 
 gsave  2268 1538 0 0 C -61.9061 469.183 t 0 r /Helvetica findfont 32.5821 sf 0 0 m (theo_ggF_shower) show NC gr 
 gsave  2268 1538 0 0 C -133.587 505.023 t 0 r /Helvetica findfont 32.5821 sf 0 0 m (JET_Flavor_Response) show NC gr 
 gsave  2268 1538 0 0 C -159.652 534.347 t 0 r /Helvetica findfont 32.5821 sf 0 0 m (JET_JER_EffectiveNP_1) show NC gr 
 gsave  2268 1538 0 0 C -299.756 573.446 t 0 r /Helvetica findfont 32.5821 sf 0 0 m (EL_EFF_ID_CorrUncertaintyNP15) show NC gr 
 gsave  2268 1538 0 0 C -299.756 606.028 t 0 r /Helvetica findfont 32.5821 sf 0 0 m (EL_EFF_ID_CorrUncertaintyNP15) show NC gr 
 gsave  2268 1538 0 0 C -3.25821 638.61 t 0 r /Helvetica findfont 32.5821 sf 0 0 m (theo_ttbar_fsr) show NC gr 
 gsave  2268 1538 0 0 C -149.878 674.45 t 0 r /Helvetica findfont 32.5821 sf 0 0 m (theo_ztautau_generator) show NC gr 
 gsave  2268 1538 0 0 C -149.878 710.291 t 0 r /Helvetica findfont 32.5821 sf 0 0 m (theo_ztautau_generator) show NC gr 
 gsave  2268 1538 0 0 C -280.206 742.873 t 0 r /Helvetica findfont 32.5821 sf 0 0 m (gamma_stat_CRZjets_MT_bin_0) show NC gr 
 gsave  2268 1538 0 0 C -273.69 778.713 t 0 r /Helvetica findfont 32.5821 sf 0 0 m (gamma_stat_CRZjets_MT_bin_1) show NC gr 
 gsave  2268 1538 0 0 C -273.69 811.295 t 0 r /Helvetica findfont 32.5821 sf 0 0 m (gamma_stat_CRZjets_MT_bin_1) show NC gr 
 gsave  2268 1538 0 0 C -280.206 847.135 t 0 r /Helvetica findfont 32.5821 sf 0 0 m (gamma_stat_CRZjets_MT_bin_2) show NC gr 
 gsave  2268 1538 0 0 C -280.206 879.718 t 0 r /Helvetica findfont 32.5821 sf 0 0 m (gamma_stat_CRZjets_MT_bin_3) show NC gr 
 gsave  2268 1538 0 0 C -280.206 915.558 t 0 r /Helvetica findfont 32.5821 sf 0 0 m (gamma_stat_CRZjets_MT_bin_4) show NC gr 
 gsave  2268 1538 0 0 C -472.441 948.14 t 0 r /Helvetica findfont 32.5821 sf 0 0 m (gamma_stat_CRTop_0_bdt_TopWWAll_bin_0) show NC gr 
 gsave  2268 1538 0 0 C -465.925 983.98 t 0 r /Helvetica findfont 32.5821 sf 0 0 m (gamma_stat_CRTop_0_bdt_TopWWAll_bin_1) show NC gr 
 gsave  2268 1538 0 0 C -472.441 1016.56 t 0 r /Helvetica findfont 32.5821 sf 0 0 m (gamma_stat_CRTop_0_bdt_TopWWAll_bin_2) show NC gr 
 gsave  2268 1538 0 0 C -472.441 1052.4 t 0 r /Helvetica findfont 32.5821 sf 0 0 m (gamma_stat_CRTop_0_bdt_TopWWAll_bin_3) show NC gr 
 gsave  2268 1538 0 0 C -472.441 1084.98 t 0 r /Helvetica findfont 32.5821 sf 0 0 m (gamma_stat_CRTop_0_bdt_TopWWAll_bin_3) show NC gr 
 gsave  2268 1538 0 0 C -436.601 1120.83 t 0 r /Helvetica findfont 32.5821 sf 0 0 m (gamma_stat_CRGGF1_bdt_ggFCR1_bin_0) show NC gr 
 gsave  2268 1538 0 0 C -430.084 1153.41 t 0 r /Helvetica findfont 32.5821 sf 0 0 m (gamma_stat_CRGGF1_bdt_ggFCR1_bin_1) show NC gr 
 gsave  2268 1538 0 0 C -436.601 1189.25 t 0 r /Helvetica findfont 32.5821 sf 0 0 m (gamma_stat_CRGGF1_bdt_ggFCR1_bin_2) show NC gr 
 gsave  2268 1538 0 0 C -436.601 1221.83 t 0 r /Helvetica findfont 32.5821 sf 0 0 m (gamma_stat_CRGGF1_bdt_ggFCR1_bin_3) show NC gr 
 gsave  2268 1538 0 0 C -436.601 1257.67 t 0 r /Helvetica findfont 32.5821 sf 0 0 m (gamma_stat_CRGGF1_bdt_ggFCR1_bin_3) show NC gr 
 gsave  2268 1538 0 0 C -426.826 1290.25 t 0 r /Helvetica findfont 32.5821 sf 0 0 m (gamma_stat_SRVBF_0_bdt_vbf_inc_bin_0) show NC gr 
 gsave  2268 1538 0 0 C -420.31 1326.09 t 0 r /Helvetica findfont 32.5821 sf 0 0 m (gamma_stat_SRVBF_0_bdt_vbf_inc_bin_1) show NC gr 
 gsave  2268 1538 0 0 C -426.826 1358.67 t 0 r /Helvetica findfont 32.5821 sf 0 0 m (gamma_stat_SRVBF_0_bdt_vbf_inc_bin_2) show NC gr  281 154 m -54 X s 281 188 m -54 X s 281 222 m -54 X s 281 256 m -54 X s 281 290 m -54 X s 281 325 m -54 X s 281 359
 m -54 X s 281 393 m -54 X s 281 427 m -54 X s 281 461 m -54 X s 281 496 m -54 X s 281 530 m -54 X s 281 564 m -54 X s 281 598 m -54 X s 281 632 m -54 X s 281 666 m -54 X s 281 701 m -54 X s 281 735 m -54 X s 281 769 m -54 X s 281 803 m -54 X s 281
 837 m -54 X s 281 871 m -54 X s 281 906 m -54 X s 281 940 m -54 X s 281 974 m -54 X s 281 1008 m -54 X s 281 1042 m -54 X s 281 1077 m -54 X s 281 1111 m -54 X s 281 1145 m -54 X s 281 1179 m -54 X s 281 1213 m -54 X s 281 1247 m -54 X s 281 1282 m
 -54 X s 281 1316 m -54 X s 281 1350 m -54 X s 281 1384 m -54 X s
 gr  gr showpage
end
%%EOF
