%!PS-Adobe-2.0 EPSF-2.0
%%BoundingBox:  0 0 567 384
%%Title: fit_plot_obs_x_CRGGF1_bdt_ggFCR1_CRGGF1_bdt_ggFCR1.eps: 
%%Creator: ROOT Version 6.16/00
%%CreationDate: Fri Aug  6 01:32:49 2021
%%DocumentNeededResources: ProcSet (FontSetInit)
%%EndComments
%%BeginProlog
80 dict begin
/s {stroke} def /l {lineto} def /m {moveto} def /t {translate} def
/r {rotate} def /rl {roll}  def /R {repeat} def
/d {rlineto} def /rm {rmoveto} def /gr {grestore} def /f {eofill} def
/c {setrgbcolor} def /black {0 setgray} def /sd {setdash} def
/cl {closepath} def /sf {scalefont setfont} def /lw {setlinewidth} def
/box {m dup 0 exch d exch 0 d 0 exch neg d cl} def
/NC{systemdict begin initclip end}def/C{NC box clip newpath}def
/bl {box s} def /bf {gsave box gsave f grestore 1 lw [] 0 sd s grestore} def /Y { 0 exch d} def /X { 0 d} def 
/K {{pop pop 0 moveto} exch kshow} bind def
/ita {/ang 15 def gsave [1 0 ang dup sin exch cos div 1 0 0] concat} def 
/mp {newpath /y exch def /x exch def} def
/side {[w .77 mul w .23 mul] .385 w mul sd w 0 l currentpoint t -144 r} def
/mr {mp x y w2 0 360 arc} def /m24 {mr s} def /m20 {mr f} def
/mb {mp x y w2 add m w2 neg 0 d 0 w neg d w 0 d 0 w d cl} def
/mt {mp x y w2 add m w2 neg w neg d w 0 d cl} def
/w4 {w 4 div} def
/w6 {w 6 div} def
/w8 {w 8 div} def
/m21 {mb f} def /m25 {mb s} def /m22 {mt f} def /m26{mt s} def
/m23 {mp x y w2 sub m w2 w d w neg 0 d cl f} def
/m27 {mp x y w2 add m w3 neg w2 neg d w3 w2 neg d w3 w2 d cl s} def
/m28 {mp x w2 sub y w2 sub w3 add m w3 0 d  0 w3 neg d w3 0 d 0 w3 d w3 0 d  0 w3 d w3 neg 0 d 0 w3 d w3 neg 0 d 0 w3 neg d w3 neg 0 d cl s } def
/m29 {mp gsave x w2 sub y w2 add w3 sub m currentpoint t 4 {side} repeat cl fill gr} def
/m30 {mp gsave x w2 sub y w2 add w3 sub m currentpoint t 4 {side} repeat cl s gr} def
/m31 {mp x y w2 sub m 0 w d x w2 sub y m w 0 d x w2 sub y w2 add m w w neg d x w2 sub y w2 sub m w w d s} def
/m32 {mp x y w2 sub m w2 w d w neg 0 d cl s} def
/m33 {mp x y w2 add m w3 neg w2 neg d w3 w2 neg d w3 w2 d cl f} def
/m34 {mp x w2 sub y w2 sub w3 add m w3 0 d  0 w3 neg d w3 0 d 0 w3 d w3 0 d  0 w3 d w3 neg 0 d 0 w3 d w3 neg 0 d 0 w3 neg d w3 neg 0 d cl f } def
/m35 {mp x y w2 add m w2 neg w2 neg d w2 w2 neg d w2 w2 d w2 neg w2 d x y w2 sub m 0 w d x w2 sub y m w 0 d s} def
/m36 {mb x w2 sub y w2 add m w w neg d x w2 sub y w2 sub m w w d s} def
/m37 {mp x y m w4 neg w2 d w4 neg w2 neg d w2 0 d  w4 neg w2 neg d w2 0 d w4 neg w2 d w2 0 d w4 neg w2 d w4 neg w2 neg d cl s} def
/m38 {mp x w4 sub y w2 add m w4 neg w4 neg d 0 w2 neg d w4 w4 neg d w2 0 d w4 w4 d 0 w2 d w4 neg w4 d w2 neg 0 d x y w2 sub m 0 w d x w2 sub y m w 0 d cl s} def
/m39 {mp x y m w4 neg w2 d w4 neg w2 neg d w2 0 d  w4 neg w2 neg d w2 0 d w4 neg w2 d w2 0 d w4 neg w2 d w4 neg w2 neg d cl f} def
/m40 {mp x y m w4 w2 d w4 w4 neg d w2 neg w4 neg d w2 w4 neg d w4 neg w4 neg d w4 neg w2 d w4 neg w2 neg d w4 neg w4 d w2 w4 d w2 neg w4 d w4 w4 d w4 w2 neg d cl s} def
/m41 {mp x y m w4 w2 d w4 w4 neg d w2 neg w4 neg d w2 w4 neg d w4 neg w4 neg d w4 neg w2 d w4 neg w2 neg d w4 neg w4 d w2 w4 d w2 neg w4 d w4 w4 d w4 w2 neg d cl f} def
/m42 {mp x y w2 add m w8 neg w2 -3 4 div mul d w2 -3 4 div mul w8 neg d w2 3 4 div mul w8 neg d w8 w2 -3 4 div mul d w8 w2 3 4 div mul d w2 3 4 div mul w8 d w2 -3 4 div mul w8 d w8 neg w2 3 4 div mul d cl s} def
/m43 {mp x y w2 add m w8 neg w2 -3 4 div mul d w2 -3 4 div mul w8 neg d w2 3 4 div mul w8 neg d w8 w2 -3 4 div mul d w8 w2 3 4 div mul d w2 3 4 div mul w8 d w2 -3 4 div mul w8 d w8 neg w2 3 4 div mul d cl f} def
/m44 {mp x y m w6 neg w2 d w2 2 3 div mul 0 d w6 neg w2 neg d w2 w6 d 0 w2 -2 3 div mul d w2 neg w6 d w6 w2 neg d w2 -2 3 div mul 0 d w6 w2 d w2 neg w6 neg d 0 w2 2 3 div mul d w2 w6 neg d cl s} def
/m45 {mp x y m w6 neg w2 d w2 2 3 div mul 0 d w6 neg w2 neg d w2 w6 d 0 w2 -2 3 div mul d w2 neg w6 d w6 w2 neg d w2 -2 3 div mul 0 d w6 w2 d w2 neg w6 neg d 0 w2 2 3 div mul d w2 w6 neg d cl f} def
/m46 {mp x y w4 add m w4 neg w4 d w4 neg w4 neg d  w4 w4 neg d w4 neg w4 neg d w4 w4 neg d w4 w4 d w4 w4 neg d w4 w4 d w4 neg w4 d w4 w4 d w4 neg w4 d w4 neg w4 neg d cl s} def
/m47 {mp x y w4 add m w4 neg w4 d w4 neg w4 neg d w4 w4 neg d w4 neg w4 neg d  w4 w4 neg d w4 w4 d w4 w4 neg d w4 w4 d w4 neg w4 d w4 w4 d w4 neg w4 d w4 neg w4 neg d cl f} def
/m48 {mp x y w4 add m w4 neg w4 d w4 neg w4 neg d w4 w4 neg d  w4 neg w4 neg d w4 w4 neg d w4 w4 d w4 w4 neg d w4 w4 d w4 neg w4 d w4 w4 d w4 neg w4 d w4 neg w4 neg d  w4 w4 neg d w4 neg w4 neg d w4 neg w4 d w4 w4 d cl f} def
/m49 {mp x w2 sub w3 add y w2 sub w3 add m  0 w3 neg d w3 0 d 0 w3 d w3 0 d 0 w3 d w3 neg 0 d 0 w3 d w3 neg 0 d 0 w3 neg d w3 neg 0 d 0 w3 neg d w3 0 d 0 w3 d w3 0 d 0 w3 neg d w3 neg 0 d cl f } def
/m2 {mp x y w2 sub m 0 w d x w2 sub y m w 0 d s} def
/m5 {mp x w2 sub y w2 sub m w w d x w2 sub y w2 add m w w neg d s} def
%%IncludeResource: ProcSet (FontSetInit)
%%IncludeResource: font Times-Roman
%%IncludeResource: font Times-Italic
%%IncludeResource: font Times-Bold
%%IncludeResource: font Times-BoldItalic
%%IncludeResource: font Helvetica
%%IncludeResource: font Helvetica-Oblique
%%IncludeResource: font Helvetica-Bold
%%IncludeResource: font Helvetica-BoldOblique
%%IncludeResource: font Courier
%%IncludeResource: font Courier-Oblique
%%IncludeResource: font Courier-Bold
%%IncludeResource: font Courier-BoldOblique
%%IncludeResource: font Symbol
%%IncludeResource: font ZapfDingbats
/reEncode {exch findfont dup length dict begin {1 index /FID eq  {pop pop} {def} ifelse } forall /Encoding exch def currentdict end dup /FontName get exch definefont pop } def [/Times-Bold /Times-Italic /Times-BoldItalic /Helvetica /Helvetica-Oblique
 /Helvetica-Bold /Helvetica-BoldOblique /Courier /Courier-Oblique /Courier-Bold /Courier-BoldOblique /Times-Roman /AvantGarde-Book /AvantGarde-BookOblique /AvantGarde-Demi /AvantGarde-DemiOblique /Bookman-Demi /Bookman-DemiItalic /Bookman-Light
 /Bookman-LightItalic /Helvetica-Narrow /Helvetica-Narrow-Bold /Helvetica-Narrow-BoldOblique /Helvetica-Narrow-Oblique /NewCenturySchlbk-Roman /NewCenturySchlbk-Bold /NewCenturySchlbk-BoldItalic /NewCenturySchlbk-Italic /Palatino-Bold
 /Palatino-BoldItalic /Palatino-Italic /Palatino-Roman ] {ISOLatin1Encoding reEncode } forall
%%EndProlog
%%BeginSetup
%%EndSetup
newpath  gsave  .25 .25 scale  gsave  0 0 t black[  ] 0 sd 3 lw 1 1 1 c 2268 1538 0 0 bf black 1 1 1 c 1814 1230 227 154 bf black 1814 1230 227 154 bl 227 154 m 1814 X s 227 191 m -37 Y s 272 172 m -18 Y s 317 172 m -18 Y s 363 172 m -18 Y s 408 191
 m -37 Y s 454 172 m -18 Y s 499 172 m -18 Y s 544 172 m -18 Y s 590 191 m -37 Y s 635 172 m -18 Y s 680 172 m -18 Y s 726 172 m -18 Y s 771 191 m -37 Y s 816 172 m -18 Y s 862 172 m -18 Y s 907 172 m -18 Y s 952 191 m -37 Y s 998 172 m -18 Y s 1043
 172 m -18 Y s 1089 172 m -18 Y s 1134 191 m -37 Y s 1179 172 m -18 Y s 1225 172 m -18 Y s 1270 172 m -18 Y s 1315 191 m -37 Y s 1361 172 m -18 Y s 1406 172 m -18 Y s 1451 172 m -18 Y s 1497 191 m -37 Y s 1542 172 m -18 Y s 1587 172 m -18 Y s 1633
 172 m -18 Y s 1678 191 m -37 Y s 1723 172 m -18 Y s 1769 172 m -18 Y s 1814 172 m -18 Y s 1860 191 m -37 Y s 1905 172 m -18 Y s 1950 172 m -18 Y s 1996 172 m -18 Y s 2041 191 m -37 Y s 227 191 m -37 Y s
 gsave  2268 1538 0 0 C 228.075 104.263 t 0 r /Helvetica findfont 48.8732 sf 0 0 m (1) show NC gr 
 gsave  2268 1538 0 0 C 198.751 104.263 t 0 r /Symbol findfont 48.8732 sf 0 0 m (-) show NC gr 
 gsave  2268 1538 0 0 C 384.469 104.263 t 0 r /Helvetica findfont 48.8732 sf 0 0 m (0.8) show NC gr 
 gsave  2268 1538 0 0 C 358.403 104.263 t 0 r /Symbol findfont 48.8732 sf 0 0 m (-) show NC gr 
 gsave  2268 1538 0 0 C 563.671 104.263 t 0 r /Helvetica findfont 48.8732 sf 0 0 m (0.6) show NC gr 
 gsave  2268 1538 0 0 C 537.605 104.263 t 0 r /Symbol findfont 48.8732 sf 0 0 m (-) show NC gr 
 gsave  2268 1538 0 0 C 746.131 104.263 t 0 r /Helvetica findfont 48.8732 sf 0 0 m (0.4) show NC gr 
 gsave  2268 1538 0 0 C 720.065 104.263 t 0 r /Symbol findfont 48.8732 sf 0 0 m (-) show NC gr 
 gsave  2268 1538 0 0 C 928.591 104.263 t 0 r /Helvetica findfont 48.8732 sf 0 0 m (0.2) show NC gr 
 gsave  2268 1538 0 0 C 902.525 104.263 t 0 r /Symbol findfont 48.8732 sf 0 0 m (-) show NC gr 
 gsave  2268 1538 0 0 C 1120.83 104.263 t 0 r /Helvetica findfont 48.8732 sf 0 0 m (0) show NC gr 
 gsave  2268 1538 0 0 C 1277.22 104.263 t 0 r /Helvetica findfont 48.8732 sf 0 0 m (0.2) show NC gr 
 gsave  2268 1538 0 0 C 1459.68 104.263 t 0 r /Helvetica findfont 48.8732 sf 0 0 m (0.4) show NC gr 
 gsave  2268 1538 0 0 C 1642.14 104.263 t 0 r /Helvetica findfont 48.8732 sf 0 0 m (0.6) show NC gr 
 gsave  2268 1538 0 0 C 1821.34 104.263 t 0 r /Helvetica findfont 48.8732 sf 0 0 m (0.8) show NC gr 
 gsave  2268 1538 0 0 C 2029.87 104.263 t 0 r /Helvetica findfont 48.8732 sf 0 0 m (1) show NC gr 
 gsave  2268 1538 0 0 C 1381.48 52.1314 t 0 r /Helvetica findfont 48.8732 sf 0 0 m (obs_x_CRGGF1_bdt_ggFCR1) show NC gr  227 154 m 1230 Y s 281 210 m -54 X s 254 242 m -27 X s 254 275 m -27 X s 254 308 m -27 X s 281 340 m -54 X s 254 373 m -27 X s
 254 406 m -27 X s 254 439 m -27 X s 281 471 m -54 X s 254 504 m -27 X s 254 537 m -27 X s 254 569 m -27 X s 281 602 m -54 X s 254 635 m -27 X s 254 667 m -27 X s 254 700 m -27 X s 281 733 m -54 X s 254 765 m -27 X s 254 798 m -27 X s 254 831 m -27 X
 s 281 863 m -54 X s 254 896 m -27 X s 254 929 m -27 X s 254 961 m -27 X s 281 994 m -54 X s 254 1027 m -27 X s 254 1060 m -27 X s 254 1092 m -27 X s 281 1125 m -54 X s 254 1158 m -27 X s 254 1190 m -27 X s 254 1223 m -27 X s 281 1256 m -54 X s 281
 210 m -54 X s 254 177 m -27 X s 281 1256 m -54 X s 254 1288 m -27 X s 254 1321 m -27 X s 254 1354 m -27 X s
 gsave  2268 1538 0 0 C 188.976 192.235 t 0 r /Helvetica findfont 48.8732 sf 0 0 m (0) show NC gr 
 gsave  2268 1538 0 0 C 107.521 322.563 t 0 r /Helvetica findfont 48.8732 sf 0 0 m (2000) show NC gr 
 gsave  2268 1538 0 0 C 107.521 452.892 t 0 r /Helvetica findfont 48.8732 sf 0 0 m (4000) show NC gr 
 gsave  2268 1538 0 0 C 107.521 583.22 t 0 r /Helvetica findfont 48.8732 sf 0 0 m (6000) show NC gr 
 gsave  2268 1538 0 0 C 107.521 713.549 t 0 r /Helvetica findfont 48.8732 sf 0 0 m (8000) show NC gr 
 gsave  2268 1538 0 0 C 78.1971 843.877 t 0 r /Helvetica findfont 48.8732 sf 0 0 m (10000) show NC gr 
 gsave  2268 1538 0 0 C 78.1971 977.464 t 0 r /Helvetica findfont 48.8732 sf 0 0 m (12000) show NC gr 
 gsave  2268 1538 0 0 C 78.1971 1107.79 t 0 r /Helvetica findfont 48.8732 sf 0 0 m (14000) show NC gr 
 gsave  2268 1538 0 0 C 78.1971 1238.12 t 0 r /Helvetica findfont 48.8732 sf 0 0 m (16000) show NC gr 
 gsave  2268 1538 0 0 C 22.8075 1068.69 t 90 r /Helvetica findfont 48.8732 sf 0 0 m (Events / \( 0.5 \)) show NC gr  1 1 1 c black
 gsave  2268 1538 0 0 C 390.986 1469.45 t 0 r /Helvetica findfont 52.1314 sf 0 0 m (Fit for obs_x_CRGGF1_bdt_ggFCR1 for CRGGF1_bdt_ggFCR1) show NC gr  1 0 0 c black 1 0 0 c 227 210 m 559 Y 453 X -353 Y 454 X 90 Y 453 X 122 Y 454 X -418 Y f black 0.6
 0 0.6 c black 0.6 0 0.6 c 227 210 m 559 Y 453 X -353 Y 454 X 89 Y 453 X 119 Y 454 X -414 Y f black 0.6 0.6 0 c black 0.6 0.6 0 c 227 210 m 239 Y 453 X -142 Y 454 X 63 Y 453 X 68 Y 454 X -228 Y f black 0 1 0 c black 0 1 0 c 227 210 m 12 Y 453 X 11 Y
 454 X 37 Y 453 X 18 Y 454 X -78 Y f black 0 0 0.6 c black 0 0 0.6 c 227 210 m 9 Y 453 X -3 Y 454 X 8 Y 453 X 35 Y 454 X -49 Y f black 0.2 0.2 0 c black 0.2 0.2 0 c 227 210 m 8 Y 453 X -3 Y 454 X 4 Y 453 X 17 Y 454 X -26 Y f black 0 0.6 0 c black 0
 0.6 0 c 227 210 m 907 X 2 Y 453 X 8 Y 454 X -10 Y f black 454 769 m -227 X s 227 762 m 13 Y s 454 769 m 226 X s 680 762 m 13 Y s 454 769 m 559 Y s 447 1328 m 13 X s 454 769 m -559 Y s 447 210 m 13 X s 907 417 m -227 X s 680 410 m 13 Y s 907 417 m
 227 X s 1134 410 m 13 Y s 907 417 m 207 Y s 901 624 m 13 X s 907 417 m -207 Y s 901 210 m 13 X s 1361 507 m -227 X s 1134 501 m 13 Y s 1361 507 m 226 X s 1587 501 m 13 Y s 1361 507 m 298 Y s 1354 805 m 13 X s 1361 507 m -297 Y s 1354 210 m 13 X s
 1814 631 m -227 X s 1587 625 m 13 Y s 1814 631 m 227 X s 2041 625 m 13 Y s 1814 631 m 422 Y s 1808 1053 m 13 X s 1814 631 m -421 Y s 1808 210 m 13 X s 1 1 1 c black /w 26 def /w2 {w 2 div} def /w3 {w 3 div} def 454 769 907 417 1361 507 1814 631 4 {
 m20} R 227 154 m 1814 X s 227 191 m -37 Y s 272 172 m -18 Y s 317 172 m -18 Y s 363 172 m -18 Y s 408 191 m -37 Y s 454 172 m -18 Y s 499 172 m -18 Y s 544 172 m -18 Y s 590 191 m -37 Y s 635 172 m -18 Y s 680 172 m -18 Y s 726 172 m -18 Y s 771 191
 m -37 Y s 816 172 m -18 Y s 862 172 m -18 Y s 907 172 m -18 Y s 952 191 m -37 Y s 998 172 m -18 Y s 1043 172 m -18 Y s 1089 172 m -18 Y s 1134 191 m -37 Y s 1179 172 m -18 Y s 1225 172 m -18 Y s 1270 172 m -18 Y s 1315 191 m -37 Y s 1361 172 m -18 Y
 s 1406 172 m -18 Y s 1451 172 m -18 Y s 1497 191 m -37 Y s 1542 172 m -18 Y s 1587 172 m -18 Y s 1633 172 m -18 Y s 1678 191 m -37 Y s 1723 172 m -18 Y s 1769 172 m -18 Y s 1814 172 m -18 Y s 1860 191 m -37 Y s 1905 172 m -18 Y s 1950 172 m -18 Y s
 1996 172 m -18 Y s 2041 191 m -37 Y s 227 191 m -37 Y s 227 154 m 1230 Y s 281 210 m -54 X s 254 242 m -27 X s 254 275 m -27 X s 254 308 m -27 X s 281 340 m -54 X s 254 373 m -27 X s 254 406 m -27 X s 254 439 m -27 X s 281 471 m -54 X s 254 504 m
 -27 X s 254 537 m -27 X s 254 569 m -27 X s 281 602 m -54 X s 254 635 m -27 X s 254 667 m -27 X s 254 700 m -27 X s 281 733 m -54 X s 254 765 m -27 X s 254 798 m -27 X s 254 831 m -27 X s 281 863 m -54 X s 254 896 m -27 X s 254 929 m -27 X s 254 961
 m -27 X s 281 994 m -54 X s 254 1027 m -27 X s 254 1060 m -27 X s 254 1092 m -27 X s 281 1125 m -54 X s 254 1158 m -27 X s 254 1190 m -27 X s 254 1223 m -27 X s 281 1256 m -54 X s 281 210 m -54 X s 254 177 m -27 X s 281 1256 m -54 X s 254 1288 m -27
 X s 254 1321 m -27 X s 254 1354 m -27 X s 1 1 1 c 1089 231 272 1153 bf black 272 1153 m 1089 X s 1361 1153 m 231 Y s 1361 1384 m -1089 X s 272 1384 m -231 Y s
 gsave  2268 1538 0 0 C 338.854 1319.58 t 0 r /Helvetica findfont 29.3239 sf 0 0 m (Projection of product of Poissons accross bins for a single channel) show NC gr  1 0 0 c 282 1286 m 48 X 81 Y -48 X f black 282 1367 m 48 X s 282 1286 m 48 X s 330
 1286 m 81 Y s 282 1286 m 81 Y s
 gsave  2268 1538 0 0 C 609.286 1319.58 t 0 r /Helvetica findfont 29.3239 sf 0 0 m (Projection of product of Poissons accross bins for a single channel) show NC gr  0.6 0 0.6 c 554 1286 m 48 X 81 Y -48 X f black 554 1367 m 48 X s 554 1286 m 48 X s
 602 1286 m 81 Y s 554 1286 m 81 Y s
 gsave  2268 1538 0 0 C 882.976 1319.58 t 0 r /Helvetica findfont 29.3239 sf 0 0 m (Projection of product of Poissons accross bins for a single channel) show NC gr  0.6 0.6 0 c 827 1286 m 47 X 81 Y -47 X f black 827 1367 m 47 X s 827 1286 m 47 X s
 874 1286 m 81 Y s 827 1286 m 81 Y s
 gsave  2268 1538 0 0 C 1153.41 1319.58 t 0 r /Helvetica findfont 29.3239 sf 0 0 m (Projection of product of Poissons accross bins for a single channel) show NC gr  0 1 0 c 1099 1286 m 47 X 81 Y -47 X f black 1099 1367 m 47 X s 1099 1286 m 47 X s
 1146 1286 m 81 Y s 1099 1286 m 81 Y s
 gsave  2268 1538 0 0 C 338.854 1202.28 t 0 r /Helvetica findfont 29.3239 sf 0 0 m (ggF) show NC gr  0 0 0.6 c 282 1171 m 48 X 80 Y -48 X f black 282 1251 m 48 X s 282 1171 m 48 X s 330 1171 m 80 Y s 282 1171 m 80 Y s
 gsave  2268 1538 0 0 C 609.286 1202.28 t 0 r /Helvetica findfont 29.3239 sf 0 0 m (Projection of product of Poissons accross bins for a single channel) show NC gr  0.2 0.2 0 c 554 1171 m 48 X 80 Y -48 X f black 554 1251 m 48 X s 554 1171 m 48 X s
 602 1171 m 80 Y s 554 1171 m 80 Y s
 gsave  2268 1538 0 0 C 882.976 1202.28 t 0 r /Helvetica findfont 29.3239 sf 0 0 m (Projection of product of Poissons accross bins for a single channel) show NC gr  0 0.6 0 c 827 1171 m 47 X 80 Y -47 X f black 827 1251 m 47 X s 827 1171 m 47 X s 874
 1171 m 80 Y s 827 1171 m 80 Y s
 gsave  2268 1538 0 0 C 1153.41 1199.02 t 0 r /Helvetica findfont 29.3239 sf 0 0 m (data) show NC gr  1123 1224 m 22 Y s 1123 1198 m -22 Y s 1118 1246 m 9 X s 1118 1176 m 9 X s 1123 1211 m20 1 1 1 c black
 gsave  2268 1538 0 0 C 390.986 1469.45 t 0 r /Helvetica findfont 52.1314 sf 0 0 m (Fit for obs_x_CRGGF1_bdt_ggFCR1 for CRGGF1_bdt_ggFCR1) show NC gr 
 gr  gr showpage
end
%%EOF
