%!PS-Adobe-2.0 EPSF-2.0
%%BoundingBox:  0 0 567 384
%%Title: cCorrNpAll_matrix_inc.eps: 
%%Creator: ROOT Version 6.16/00
%%CreationDate: Fri Aug  6 04:41:35 2021
%%DocumentNeededResources: ProcSet (FontSetInit)
%%EndComments
%%BeginProlog
80 dict begin
/s {stroke} def /l {lineto} def /m {moveto} def /t {translate} def
/r {rotate} def /rl {roll}  def /R {repeat} def
/d {rlineto} def /rm {rmoveto} def /gr {grestore} def /f {eofill} def
/c {setrgbcolor} def /black {0 setgray} def /sd {setdash} def
/cl {closepath} def /sf {scalefont setfont} def /lw {setlinewidth} def
/box {m dup 0 exch d exch 0 d 0 exch neg d cl} def
/NC{systemdict begin initclip end}def/C{NC box clip newpath}def
/bl {box s} def /bf {gsave box gsave f grestore 1 lw [] 0 sd s grestore} def /Y { 0 exch d} def /X { 0 d} def 
/K {{pop pop 0 moveto} exch kshow} bind def
/ita {/ang 15 def gsave [1 0 ang dup sin exch cos div 1 0 0] concat} def 
/mp {newpath /y exch def /x exch def} def
/side {[w .77 mul w .23 mul] .385 w mul sd w 0 l currentpoint t -144 r} def
/mr {mp x y w2 0 360 arc} def /m24 {mr s} def /m20 {mr f} def
/mb {mp x y w2 add m w2 neg 0 d 0 w neg d w 0 d 0 w d cl} def
/mt {mp x y w2 add m w2 neg w neg d w 0 d cl} def
/w4 {w 4 div} def
/w6 {w 6 div} def
/w8 {w 8 div} def
/m21 {mb f} def /m25 {mb s} def /m22 {mt f} def /m26{mt s} def
/m23 {mp x y w2 sub m w2 w d w neg 0 d cl f} def
/m27 {mp x y w2 add m w3 neg w2 neg d w3 w2 neg d w3 w2 d cl s} def
/m28 {mp x w2 sub y w2 sub w3 add m w3 0 d  0 w3 neg d w3 0 d 0 w3 d w3 0 d  0 w3 d w3 neg 0 d 0 w3 d w3 neg 0 d 0 w3 neg d w3 neg 0 d cl s } def
/m29 {mp gsave x w2 sub y w2 add w3 sub m currentpoint t 4 {side} repeat cl fill gr} def
/m30 {mp gsave x w2 sub y w2 add w3 sub m currentpoint t 4 {side} repeat cl s gr} def
/m31 {mp x y w2 sub m 0 w d x w2 sub y m w 0 d x w2 sub y w2 add m w w neg d x w2 sub y w2 sub m w w d s} def
/m32 {mp x y w2 sub m w2 w d w neg 0 d cl s} def
/m33 {mp x y w2 add m w3 neg w2 neg d w3 w2 neg d w3 w2 d cl f} def
/m34 {mp x w2 sub y w2 sub w3 add m w3 0 d  0 w3 neg d w3 0 d 0 w3 d w3 0 d  0 w3 d w3 neg 0 d 0 w3 d w3 neg 0 d 0 w3 neg d w3 neg 0 d cl f } def
/m35 {mp x y w2 add m w2 neg w2 neg d w2 w2 neg d w2 w2 d w2 neg w2 d x y w2 sub m 0 w d x w2 sub y m w 0 d s} def
/m36 {mb x w2 sub y w2 add m w w neg d x w2 sub y w2 sub m w w d s} def
/m37 {mp x y m w4 neg w2 d w4 neg w2 neg d w2 0 d  w4 neg w2 neg d w2 0 d w4 neg w2 d w2 0 d w4 neg w2 d w4 neg w2 neg d cl s} def
/m38 {mp x w4 sub y w2 add m w4 neg w4 neg d 0 w2 neg d w4 w4 neg d w2 0 d w4 w4 d 0 w2 d w4 neg w4 d w2 neg 0 d x y w2 sub m 0 w d x w2 sub y m w 0 d cl s} def
/m39 {mp x y m w4 neg w2 d w4 neg w2 neg d w2 0 d  w4 neg w2 neg d w2 0 d w4 neg w2 d w2 0 d w4 neg w2 d w4 neg w2 neg d cl f} def
/m40 {mp x y m w4 w2 d w4 w4 neg d w2 neg w4 neg d w2 w4 neg d w4 neg w4 neg d w4 neg w2 d w4 neg w2 neg d w4 neg w4 d w2 w4 d w2 neg w4 d w4 w4 d w4 w2 neg d cl s} def
/m41 {mp x y m w4 w2 d w4 w4 neg d w2 neg w4 neg d w2 w4 neg d w4 neg w4 neg d w4 neg w2 d w4 neg w2 neg d w4 neg w4 d w2 w4 d w2 neg w4 d w4 w4 d w4 w2 neg d cl f} def
/m42 {mp x y w2 add m w8 neg w2 -3 4 div mul d w2 -3 4 div mul w8 neg d w2 3 4 div mul w8 neg d w8 w2 -3 4 div mul d w8 w2 3 4 div mul d w2 3 4 div mul w8 d w2 -3 4 div mul w8 d w8 neg w2 3 4 div mul d cl s} def
/m43 {mp x y w2 add m w8 neg w2 -3 4 div mul d w2 -3 4 div mul w8 neg d w2 3 4 div mul w8 neg d w8 w2 -3 4 div mul d w8 w2 3 4 div mul d w2 3 4 div mul w8 d w2 -3 4 div mul w8 d w8 neg w2 3 4 div mul d cl f} def
/m44 {mp x y m w6 neg w2 d w2 2 3 div mul 0 d w6 neg w2 neg d w2 w6 d 0 w2 -2 3 div mul d w2 neg w6 d w6 w2 neg d w2 -2 3 div mul 0 d w6 w2 d w2 neg w6 neg d 0 w2 2 3 div mul d w2 w6 neg d cl s} def
/m45 {mp x y m w6 neg w2 d w2 2 3 div mul 0 d w6 neg w2 neg d w2 w6 d 0 w2 -2 3 div mul d w2 neg w6 d w6 w2 neg d w2 -2 3 div mul 0 d w6 w2 d w2 neg w6 neg d 0 w2 2 3 div mul d w2 w6 neg d cl f} def
/m46 {mp x y w4 add m w4 neg w4 d w4 neg w4 neg d  w4 w4 neg d w4 neg w4 neg d w4 w4 neg d w4 w4 d w4 w4 neg d w4 w4 d w4 neg w4 d w4 w4 d w4 neg w4 d w4 neg w4 neg d cl s} def
/m47 {mp x y w4 add m w4 neg w4 d w4 neg w4 neg d w4 w4 neg d w4 neg w4 neg d  w4 w4 neg d w4 w4 d w4 w4 neg d w4 w4 d w4 neg w4 d w4 w4 d w4 neg w4 d w4 neg w4 neg d cl f} def
/m48 {mp x y w4 add m w4 neg w4 d w4 neg w4 neg d w4 w4 neg d  w4 neg w4 neg d w4 w4 neg d w4 w4 d w4 w4 neg d w4 w4 d w4 neg w4 d w4 w4 d w4 neg w4 d w4 neg w4 neg d  w4 w4 neg d w4 neg w4 neg d w4 neg w4 d w4 w4 d cl f} def
/m49 {mp x w2 sub w3 add y w2 sub w3 add m  0 w3 neg d w3 0 d 0 w3 d w3 0 d 0 w3 d w3 neg 0 d 0 w3 d w3 neg 0 d 0 w3 neg d w3 neg 0 d 0 w3 neg d w3 0 d 0 w3 d w3 0 d 0 w3 neg d w3 neg 0 d cl f } def
/m2 {mp x y w2 sub m 0 w d x w2 sub y m w 0 d s} def
/m5 {mp x w2 sub y w2 sub m w w d x w2 sub y w2 add m w w neg d s} def
%%IncludeResource: ProcSet (FontSetInit)
%%IncludeResource: font Times-Roman
%%IncludeResource: font Times-Italic
%%IncludeResource: font Times-Bold
%%IncludeResource: font Times-BoldItalic
%%IncludeResource: font Helvetica
%%IncludeResource: font Helvetica-Oblique
%%IncludeResource: font Helvetica-Bold
%%IncludeResource: font Helvetica-BoldOblique
%%IncludeResource: font Courier
%%IncludeResource: font Courier-Oblique
%%IncludeResource: font Courier-Bold
%%IncludeResource: font Courier-BoldOblique
%%IncludeResource: font Symbol
%%IncludeResource: font ZapfDingbats
/reEncode {exch findfont dup length dict begin {1 index /FID eq  {pop pop} {def} ifelse } forall /Encoding exch def currentdict end dup /FontName get exch definefont pop } def [/Times-Bold /Times-Italic /Times-BoldItalic /Helvetica /Helvetica-Oblique
 /Helvetica-Bold /Helvetica-BoldOblique /Courier /Courier-Oblique /Courier-Bold /Courier-BoldOblique /Times-Roman /AvantGarde-Book /AvantGarde-BookOblique /AvantGarde-Demi /AvantGarde-DemiOblique /Bookman-Demi /Bookman-DemiItalic /Bookman-Light
 /Bookman-LightItalic /Helvetica-Narrow /Helvetica-Narrow-Bold /Helvetica-Narrow-BoldOblique /Helvetica-Narrow-Oblique /NewCenturySchlbk-Roman /NewCenturySchlbk-Bold /NewCenturySchlbk-BoldItalic /NewCenturySchlbk-Italic /Palatino-Bold
 /Palatino-BoldItalic /Palatino-Italic /Palatino-Roman ] {ISOLatin1Encoding reEncode } forall
%%EndProlog
%%BeginSetup
%%EndSetup
newpath  gsave  .25 .25 scale  gsave  0 0 t black[  ] 0 sd 3 lw 1 1 1 c 2268 1538 0 0 bf black 1 1 1 c 1814 1230 227 154 bf black 1814 1230 227 154 bl 1 1 1 c 0.977 0.977044 0.0583656 c 52 35 227 154 bf 51 35 279 154 bf 52 35 330 154 bf 52 35 382 154
 bf 52 35 434 154 bf 52 35 486 154 bf 52 35 538 154 bf 51 35 590 154 bf 52 35 641 154 bf 52 35 693 154 bf 52 35 745 154 bf 52 35 797 154 bf 52 35 849 154 bf 51 35 901 154 bf 52 35 952 154 bf 52 35 1004 154 bf 52 35 1056 154 bf 52 35 1108 154 bf 52 35
 1160 154 bf 51 35 1212 154 bf 52 35 1263 154 bf 52 35 1315 154 bf 52 35 1367 154 bf 52 35 1419 154 bf 52 35 1471 154 bf 51 35 1523 154 bf 52 35 1574 154 bf 52 35 1626 154 bf 52 35 1678 154 bf 0.0526375 0.656131 0.763481 c 52 35 1730 154 bf 52 35
 1782 154 bf 0.033475 0.616063 0.800231 c 51 35 1834 154 bf 52 35 1885 154 bf 0.0526375 0.656131 0.763481 c 52 35 1937 154 bf 52 35 1989 154 bf 0.322347 0.730556 0.570878 c 52 35 227 189 bf 51 35 279 189 bf 52 35 330 189 bf 52 35 382 189 bf 52 35 434
 189 bf 52 35 486 189 bf 52 35 538 189 bf 51 35 590 189 bf 52 35 641 189 bf 52 35 693 189 bf 52 35 745 189 bf 0.0526375 0.656131 0.763481 c 52 35 797 189 bf 0.322347 0.730556 0.570878 c 52 35 849 189 bf 0.033475 0.616063 0.800231 c 51 35 901 189 bf
 0.322347 0.730556 0.570878 c 52 35 952 189 bf 52 35 1004 189 bf 52 35 1056 189 bf 52 35 1108 189 bf 52 35 1160 189 bf 51 35 1212 189 bf 0.0526375 0.656131 0.763481 c 52 35 1263 189 bf 0.322347 0.730556 0.570878 c 52 35 1315 189 bf 52 35 1367 189 bf
 52 35 1419 189 bf 0.033475 0.616063 0.800231 c 52 35 1471 189 bf 0.322347 0.730556 0.570878 c 51 35 1523 189 bf 52 35 1574 189 bf 52 35 1626 189 bf 52 35 1678 189 bf 0.977 0.977044 0.0583656 c 52 35 1730 189 bf 52 35 1782 189 bf 0.0526375 0.656131
 0.763481 c 51 35 1834 189 bf 0.977 0.977044 0.0583656 c 52 35 1885 189 bf 52 35 1937 189 bf 52 35 1989 189 bf 0.322347 0.730556 0.570878 c 52 35 227 224 bf 51 35 279 224 bf 52 35 330 224 bf 52 35 382 224 bf 52 35 434 224 bf 52 35 486 224 bf 52 35
 538 224 bf 51 35 590 224 bf 52 35 641 224 bf 52 35 693 224 bf 52 35 745 224 bf 0.0526375 0.656131 0.763481 c 52 35 797 224 bf 0.322347 0.730556 0.570878 c 52 35 849 224 bf 51 35 901 224 bf 52 35 952 224 bf 52 35 1004 224 bf 52 35 1056 224 bf 52 35
 1108 224 bf 52 35 1160 224 bf 51 35 1212 224 bf 52 35 1263 224 bf 52 35 1315 224 bf 52 35 1367 224 bf 52 35 1419 224 bf 52 35 1471 224 bf 51 35 1523 224 bf 52 35 1574 224 bf 52 35 1626 224 bf 52 35 1678 224 bf 0.0526375 0.656131 0.763481 c 52 35
 1730 224 bf 0.322347 0.730556 0.570878 c 52 35 1782 224 bf 0.977 0.977044 0.0583656 c 51 35 1834 224 bf 0.322347 0.730556 0.570878 c 52 35 1885 224 bf 52 35 1937 224 bf 52 35 1989 224 bf 52 35 227 259 bf 51 35 279 259 bf 52 35 330 259 bf 52 35 382
 259 bf 52 35 434 259 bf 52 35 486 259 bf 52 35 538 259 bf 51 35 590 259 bf 52 35 641 259 bf 52 35 693 259 bf 52 35 745 259 bf 52 35 797 259 bf 52 35 849 259 bf 51 35 901 259 bf 52 35 952 259 bf 52 35 1004 259 bf 52 35 1056 259 bf 52 35 1108 259 bf
 52 35 1160 259 bf 51 35 1212 259 bf 52 35 1263 259 bf 52 35 1315 259 bf 52 35 1367 259 bf 52 35 1419 259 bf 52 35 1471 259 bf 51 35 1523 259 bf 52 35 1574 259 bf 52 35 1626 259 bf 52 35 1678 259 bf 52 35 1730 259 bf 52 35 1782 259 bf 0.0526375
 0.656131 0.763481 c 51 35 1834 259 bf 0.322347 0.730556 0.570878 c 52 35 1885 259 bf 52 35 1937 259 bf 52 35 1989 259 bf 52 36 227 294 bf 51 36 279 294 bf 52 36 330 294 bf 52 36 382 294 bf 52 36 434 294 bf 52 36 486 294 bf 52 36 538 294 bf 51 36 590
 294 bf 52 36 641 294 bf 52 36 693 294 bf 52 36 745 294 bf 0.977 0.977044 0.0583656 c 52 36 797 294 bf 0.322347 0.730556 0.570878 c 52 36 849 294 bf 51 36 901 294 bf 52 36 952 294 bf 52 36 1004 294 bf 52 36 1056 294 bf 52 36 1108 294 bf 52 36 1160
 294 bf 51 36 1212 294 bf 52 36 1263 294 bf 52 36 1315 294 bf 52 36 1367 294 bf 52 36 1419 294 bf 52 36 1471 294 bf 51 36 1523 294 bf 52 36 1574 294 bf 52 36 1626 294 bf 52 36 1678 294 bf 52 36 1730 294 bf 52 36 1782 294 bf 51 36 1834 294 bf 52 36
 1885 294 bf 52 36 1937 294 bf 52 36 1989 294 bf 52 35 227 330 bf 51 35 279 330 bf 52 35 330 330 bf 52 35 382 330 bf 52 35 434 330 bf 52 35 486 330 bf 52 35 538 330 bf 51 35 590 330 bf 52 35 641 330 bf 52 35 693 330 bf 52 35 745 330 bf 0.977 0.977044
 0.0583656 c 52 35 797 330 bf 0.322347 0.730556 0.570878 c 52 35 849 330 bf 51 35 901 330 bf 52 35 952 330 bf 52 35 1004 330 bf 52 35 1056 330 bf 52 35 1108 330 bf 52 35 1160 330 bf 51 35 1212 330 bf 52 35 1263 330 bf 52 35 1315 330 bf 52 35 1367 330
 bf 52 35 1419 330 bf 52 35 1471 330 bf 51 35 1523 330 bf 52 35 1574 330 bf 52 35 1626 330 bf 52 35 1678 330 bf 52 35 1730 330 bf 52 35 1782 330 bf 51 35 1834 330 bf 52 35 1885 330 bf 52 35 1937 330 bf 52 35 1989 330 bf 0.884975 0.752825 0.292488 c
 52 35 227 365 bf 51 35 279 365 bf 0.977 0.977044 0.0583656 c 52 35 330 365 bf 0.322347 0.730556 0.570878 c 52 35 382 365 bf 0.977 0.977044 0.0583656 c 52 35 434 365 bf 0.150523 0.241303 0.660565 c 52 35 486 365 bf 0.992 0.823138 0.170006 c 52 35 538
 365 bf 0.977 0.977044 0.0583656 c 51 35 590 365 bf 0.322347 0.730556 0.570878 c 52 35 641 365 bf 0.992 0.823138 0.170006 c 52 35 693 365 bf 0.977 0.977044 0.0583656 c 52 35 745 365 bf 52 35 797 365 bf 52 35 849 365 bf 51 35 901 365 bf 0.322347
 0.730556 0.570878 c 52 35 952 365 bf 0.0557375 0.560081 0.819366 c 52 35 1004 365 bf 0.150523 0.241303 0.660565 c 52 35 1056 365 bf 0.977 0.977044 0.0583656 c 52 35 1108 365 bf 52 35 1160 365 bf 0.322347 0.730556 0.570878 c 51 35 1212 365 bf 52 35
 1263 365 bf 0.956881 0.774519 0.230291 c 52 35 1315 365 bf 0.322347 0.730556 0.570878 c 52 35 1367 365 bf 0.992 0.823138 0.170006 c 52 35 1419 365 bf 0.322347 0.730556 0.570878 c 52 35 1471 365 bf 0.977 0.977044 0.0583656 c 51 35 1523 365 bf
 0.150523 0.241303 0.660565 c 52 35 1574 365 bf 0.884975 0.752825 0.292488 c 52 35 1626 365 bf 0.322347 0.730556 0.570878 c 52 35 1678 365 bf 0.977 0.977044 0.0583656 c 52 35 1730 365 bf 0.322347 0.730556 0.570878 c 52 35 1782 365 bf 51 35 1834 365
 bf 0.977 0.977044 0.0583656 c 52 35 1885 365 bf 0.322347 0.730556 0.570878 c 52 35 1937 365 bf 52 35 1989 365 bf 52 35 227 400 bf 51 35 279 400 bf 52 35 330 400 bf 52 35 382 400 bf 52 35 434 400 bf 52 35 486 400 bf 52 35 538 400 bf 51 35 590 400 bf
 52 35 641 400 bf 52 35 693 400 bf 52 35 745 400 bf 0.977 0.977044 0.0583656 c 52 35 797 400 bf 0.322347 0.730556 0.570878 c 52 35 849 400 bf 51 35 901 400 bf 52 35 952 400 bf 52 35 1004 400 bf 52 35 1056 400 bf 52 35 1108 400 bf 52 35 1160 400 bf 51
 35 1212 400 bf 52 35 1263 400 bf 52 35 1315 400 bf 52 35 1367 400 bf 52 35 1419 400 bf 52 35 1471 400 bf 51 35 1523 400 bf 52 35 1574 400 bf 52 35 1626 400 bf 52 35 1678 400 bf 52 35 1730 400 bf 52 35 1782 400 bf 51 35 1834 400 bf 52 35 1885 400 bf
 52 35 1937 400 bf 52 35 1989 400 bf 52 35 227 435 bf 51 35 279 435 bf 52 35 330 435 bf 52 35 382 435 bf 52 35 434 435 bf 52 35 486 435 bf 52 35 538 435 bf 51 35 590 435 bf 52 35 641 435 bf 52 35 693 435 bf 52 35 745 435 bf 0.977 0.977044 0.0583656 c
 52 35 797 435 bf 0.322347 0.730556 0.570878 c 52 35 849 435 bf 51 35 901 435 bf 52 35 952 435 bf 52 35 1004 435 bf 52 35 1056 435 bf 52 35 1108 435 bf 52 35 1160 435 bf 51 35 1212 435 bf 52 35 1263 435 bf 52 35 1315 435 bf 52 35 1367 435 bf 52 35
 1419 435 bf 52 35 1471 435 bf 51 35 1523 435 bf 52 35 1574 435 bf 52 35 1626 435 bf 52 35 1678 435 bf 52 35 1730 435 bf 52 35 1782 435 bf 51 35 1834 435 bf 52 35 1885 435 bf 52 35 1937 435 bf 0.2082 0.1664 0.5293 c 52 35 1989 435 bf 0.322347
 0.730556 0.570878 c 52 35 227 470 bf 51 35 279 470 bf 52 35 330 470 bf 52 35 382 470 bf 52 35 434 470 bf 52 35 486 470 bf 52 35 538 470 bf 51 35 590 470 bf 52 35 641 470 bf 52 35 693 470 bf 52 35 745 470 bf 0.977 0.977044 0.0583656 c 52 35 797 470
 bf 0.322347 0.730556 0.570878 c 52 35 849 470 bf 51 35 901 470 bf 52 35 952 470 bf 52 35 1004 470 bf 52 35 1056 470 bf 52 35 1108 470 bf 52 35 1160 470 bf 51 35 1212 470 bf 52 35 1263 470 bf 52 35 1315 470 bf 52 35 1367 470 bf 52 35 1419 470 bf 52
 35 1471 470 bf 51 35 1523 470 bf 52 35 1574 470 bf 52 35 1626 470 bf 52 35 1678 470 bf 52 35 1730 470 bf 52 35 1782 470 bf 51 35 1834 470 bf 52 35 1885 470 bf 52 35 1937 470 bf 52 35 1989 470 bf 52 35 227 505 bf 0.977 0.977044 0.0583656 c 51 35 279
 505 bf 0.9842 0.903169 0.111953 c 52 35 330 505 bf 0.977 0.977044 0.0583656 c 52 35 382 505 bf 52 35 434 505 bf 0.322347 0.730556 0.570878 c 52 35 486 505 bf 0.956881 0.774519 0.230291 c 52 35 538 505 bf 0.977 0.977044 0.0583656 c 51 35 590 505 bf
 0.0557375 0.560081 0.819366 c 52 35 641 505 bf 0.956881 0.774519 0.230291 c 52 35 693 505 bf 0.977 0.977044 0.0583656 c 52 35 745 505 bf 52 35 797 505 bf 52 35 849 505 bf 51 35 901 505 bf 52 35 952 505 bf 0.150523 0.241303 0.660565 c 52 35 1004 505
 bf 0.322347 0.730556 0.570878 c 52 35 1056 505 bf 0.884975 0.752825 0.292488 c 52 35 1108 505 bf 0.977 0.977044 0.0583656 c 52 35 1160 505 bf 0.884975 0.752825 0.292488 c 51 35 1212 505 bf 0.322347 0.730556 0.570878 c 52 35 1263 505 bf 0.956881
 0.774519 0.230291 c 52 35 1315 505 bf 0.322347 0.730556 0.570878 c 52 35 1367 505 bf 0.992 0.823138 0.170006 c 52 35 1419 505 bf 0.0557375 0.560081 0.819366 c 52 35 1471 505 bf 0.977 0.977044 0.0583656 c 51 35 1523 505 bf 0.322347 0.730556 0.570878
 c 52 35 1574 505 bf 52 35 1626 505 bf 52 35 1678 505 bf 0.977 0.977044 0.0583656 c 52 35 1730 505 bf 0.322347 0.730556 0.570878 c 52 35 1782 505 bf 0.2082 0.1664 0.5293 c 51 35 1834 505 bf 0.977 0.977044 0.0583656 c 52 35 1885 505 bf 52 35 1937 505
 bf 0.322347 0.730556 0.570878 c 52 35 1989 505 bf 52 36 227 540 bf 51 36 279 540 bf 52 36 330 540 bf 52 36 382 540 bf 52 36 434 540 bf 52 36 486 540 bf 52 36 538 540 bf 51 36 590 540 bf 52 36 641 540 bf 52 36 693 540 bf 52 36 745 540 bf 0.977
 0.977044 0.0583656 c 52 36 797 540 bf 0.322347 0.730556 0.570878 c 52 36 849 540 bf 51 36 901 540 bf 52 36 952 540 bf 52 36 1004 540 bf 52 36 1056 540 bf 52 36 1108 540 bf 52 36 1160 540 bf 51 36 1212 540 bf 52 36 1263 540 bf 52 36 1315 540 bf 52 36
 1367 540 bf 52 36 1419 540 bf 52 36 1471 540 bf 51 36 1523 540 bf 52 36 1574 540 bf 52 36 1626 540 bf 52 36 1678 540 bf 52 36 1730 540 bf 52 36 1782 540 bf 0.2082 0.1664 0.5293 c 51 36 1834 540 bf 0.322347 0.730556 0.570878 c 52 36 1885 540 bf 52 36
 1937 540 bf 0.2082 0.1664 0.5293 c 52 36 1989 540 bf 0.322347 0.730556 0.570878 c 52 35 227 576 bf 51 35 279 576 bf 52 35 330 576 bf 52 35 382 576 bf 52 35 434 576 bf 52 35 486 576 bf 52 35 538 576 bf 51 35 590 576 bf 52 35 641 576 bf 52 35 693 576
 bf 52 35 745 576 bf 0.977 0.977044 0.0583656 c 52 35 797 576 bf 0.322347 0.730556 0.570878 c 52 35 849 576 bf 51 35 901 576 bf 52 35 952 576 bf 52 35 1004 576 bf 52 35 1056 576 bf 52 35 1108 576 bf 0.2082 0.1664 0.5293 c 52 35 1160 576 bf 0.322347
 0.730556 0.570878 c 51 35 1212 576 bf 52 35 1263 576 bf 52 35 1315 576 bf 52 35 1367 576 bf 52 35 1419 576 bf 52 35 1471 576 bf 51 35 1523 576 bf 52 35 1574 576 bf 52 35 1626 576 bf 52 35 1678 576 bf 52 35 1730 576 bf 52 35 1782 576 bf 0.2082 0.1664
 0.5293 c 51 35 1834 576 bf 0.322347 0.730556 0.570878 c 52 35 1885 576 bf 0.2082 0.1664 0.5293 c 52 35 1937 576 bf 0.322347 0.730556 0.570878 c 52 35 1989 576 bf 52 35 227 611 bf 51 35 279 611 bf 52 35 330 611 bf 52 35 382 611 bf 52 35 434 611 bf 52
 35 486 611 bf 52 35 538 611 bf 51 35 590 611 bf 52 35 641 611 bf 52 35 693 611 bf 52 35 745 611 bf 0.977 0.977044 0.0583656 c 52 35 797 611 bf 0.322347 0.730556 0.570878 c 52 35 849 611 bf 51 35 901 611 bf 52 35 952 611 bf 52 35 1004 611 bf 52 35
 1056 611 bf 52 35 1108 611 bf 0.2082 0.1664 0.5293 c 52 35 1160 611 bf 0.322347 0.730556 0.570878 c 51 35 1212 611 bf 52 35 1263 611 bf 52 35 1315 611 bf 52 35 1367 611 bf 52 35 1419 611 bf 52 35 1471 611 bf 51 35 1523 611 bf 52 35 1574 611 bf 52 35
 1626 611 bf 52 35 1678 611 bf 52 35 1730 611 bf 52 35 1782 611 bf 0.2082 0.1664 0.5293 c 51 35 1834 611 bf 0.322347 0.730556 0.570878 c 52 35 1885 611 bf 0.2082 0.1664 0.5293 c 52 35 1937 611 bf 0.322347 0.730556 0.570878 c 52 35 1989 611 bf 52 35
 227 646 bf 0.977 0.977044 0.0583656 c 51 35 279 646 bf 0.9842 0.903169 0.111953 c 52 35 330 646 bf 0.977 0.977044 0.0583656 c 52 35 382 646 bf 52 35 434 646 bf 0.2082 0.1664 0.5293 c 52 35 486 646 bf 0.956881 0.774519 0.230291 c 52 35 538 646 bf
 0.977 0.977044 0.0583656 c 51 35 590 646 bf 0.0557375 0.560081 0.819366 c 52 35 641 646 bf 0.956881 0.774519 0.230291 c 52 35 693 646 bf 0.977 0.977044 0.0583656 c 52 35 745 646 bf 52 35 797 646 bf 0.322347 0.730556 0.570878 c 52 35 849 646 bf 0.977
 0.977044 0.0583656 c 51 35 901 646 bf 0.322347 0.730556 0.570878 c 52 35 952 646 bf 0.150523 0.241303 0.660565 c 52 35 1004 646 bf 0.322347 0.730556 0.570878 c 52 35 1056 646 bf 0.884975 0.752825 0.292488 c 52 35 1108 646 bf 0.322347 0.730556
 0.570878 c 52 35 1160 646 bf 0.884975 0.752825 0.292488 c 51 35 1212 646 bf 0.322347 0.730556 0.570878 c 52 35 1263 646 bf 0.884975 0.752825 0.292488 c 52 35 1315 646 bf 0.2082 0.1664 0.5293 c 52 35 1367 646 bf 0.956881 0.774519 0.230291 c 52 35
 1419 646 bf 0.0557375 0.560081 0.819366 c 52 35 1471 646 bf 0.884975 0.752825 0.292488 c 51 35 1523 646 bf 0.2082 0.1664 0.5293 c 52 35 1574 646 bf 0.322347 0.730556 0.570878 c 52 35 1626 646 bf 52 35 1678 646 bf 0.977 0.977044 0.0583656 c 52 35
 1730 646 bf 0.322347 0.730556 0.570878 c 52 35 1782 646 bf 0.2082 0.1664 0.5293 c 51 35 1834 646 bf 0.977 0.977044 0.0583656 c 52 35 1885 646 bf 0.322347 0.730556 0.570878 c 52 35 1937 646 bf 0.2082 0.1664 0.5293 c 52 35 1989 646 bf 0.322347
 0.730556 0.570878 c 52 35 227 681 bf 51 35 279 681 bf 52 35 330 681 bf 52 35 382 681 bf 52 35 434 681 bf 52 35 486 681 bf 52 35 538 681 bf 51 35 590 681 bf 52 35 641 681 bf 52 35 693 681 bf 52 35 745 681 bf 0.977 0.977044 0.0583656 c 52 35 797 681
 bf 0.322347 0.730556 0.570878 c 52 35 849 681 bf 51 35 901 681 bf 52 35 952 681 bf 52 35 1004 681 bf 52 35 1056 681 bf 52 35 1108 681 bf 52 35 1160 681 bf 51 35 1212 681 bf 52 35 1263 681 bf 52 35 1315 681 bf 52 35 1367 681 bf 52 35 1419 681 bf 52
 35 1471 681 bf 51 35 1523 681 bf 52 35 1574 681 bf 52 35 1626 681 bf 52 35 1678 681 bf 52 35 1730 681 bf 52 35 1782 681 bf 0.2082 0.1664 0.5293 c 51 35 1834 681 bf 0.322347 0.730556 0.570878 c 52 35 1885 681 bf 52 35 1937 681 bf 52 35 1989 681 bf 52
 35 227 716 bf 51 35 279 716 bf 52 35 330 716 bf 52 35 382 716 bf 52 35 434 716 bf 52 35 486 716 bf 52 35 538 716 bf 51 35 590 716 bf 52 35 641 716 bf 52 35 693 716 bf 52 35 745 716 bf 0.977 0.977044 0.0583656 c 52 35 797 716 bf 0.322347 0.730556
 0.570878 c 52 35 849 716 bf 51 35 901 716 bf 52 35 952 716 bf 52 35 1004 716 bf 52 35 1056 716 bf 52 35 1108 716 bf 52 35 1160 716 bf 51 35 1212 716 bf 52 35 1263 716 bf 52 35 1315 716 bf 52 35 1367 716 bf 52 35 1419 716 bf 0.977 0.977044 0.0583656
 c 52 35 1471 716 bf 0.322347 0.730556 0.570878 c 51 35 1523 716 bf 52 35 1574 716 bf 52 35 1626 716 bf 52 35 1678 716 bf 52 35 1730 716 bf 52 35 1782 716 bf 0.2082 0.1664 0.5293 c 51 35 1834 716 bf 0.322347 0.730556 0.570878 c 52 35 1885 716 bf 52
 35 1937 716 bf 52 35 1989 716 bf 52 36 227 751 bf 51 36 279 751 bf 52 36 330 751 bf 52 36 382 751 bf 52 36 434 751 bf 52 36 486 751 bf 52 36 538 751 bf 51 36 590 751 bf 52 36 641 751 bf 52 36 693 751 bf 52 36 745 751 bf 0.977 0.977044 0.0583656 c 52
 36 797 751 bf 0.322347 0.730556 0.570878 c 52 36 849 751 bf 51 36 901 751 bf 52 36 952 751 bf 52 36 1004 751 bf 0.2082 0.1664 0.5293 c 52 36 1056 751 bf 0.322347 0.730556 0.570878 c 52 36 1108 751 bf 52 36 1160 751 bf 51 36 1212 751 bf 52 36 1263
 751 bf 52 36 1315 751 bf 52 36 1367 751 bf 52 36 1419 751 bf 0.977 0.977044 0.0583656 c 52 36 1471 751 bf 0.322347 0.730556 0.570878 c 51 36 1523 751 bf 52 36 1574 751 bf 52 36 1626 751 bf 52 36 1678 751 bf 52 36 1730 751 bf 52 36 1782 751 bf 51 36
 1834 751 bf 52 36 1885 751 bf 52 36 1937 751 bf 0.2082 0.1664 0.5293 c 52 36 1989 751 bf 0.322347 0.730556 0.570878 c 52 35 227 787 bf 0.977 0.977044 0.0583656 c 51 35 279 787 bf 52 35 330 787 bf 0.956881 0.774519 0.230291 c 52 35 382 787 bf 0.2082
 0.1664 0.5293 c 52 35 434 787 bf 0.322347 0.730556 0.570878 c 52 35 486 787 bf 52 35 538 787 bf 0.977 0.977044 0.0583656 c 51 35 590 787 bf 0.322347 0.730556 0.570878 c 52 35 641 787 bf 52 35 693 787 bf 0.977 0.977044 0.0583656 c 52 35 745 787 bf 52
 35 797 787 bf 0.322347 0.730556 0.570878 c 52 35 849 787 bf 51 35 901 787 bf 52 35 952 787 bf 52 35 1004 787 bf 52 35 1056 787 bf 52 35 1108 787 bf 52 35 1160 787 bf 51 35 1212 787 bf 52 35 1263 787 bf 0.884975 0.752825 0.292488 c 52 35 1315 787 bf
 0.322347 0.730556 0.570878 c 52 35 1367 787 bf 52 35 1419 787 bf 0.977 0.977044 0.0583656 c 52 35 1471 787 bf 0.322347 0.730556 0.570878 c 51 35 1523 787 bf 52 35 1574 787 bf 52 35 1626 787 bf 52 35 1678 787 bf 52 35 1730 787 bf 52 35 1782 787 bf 51
 35 1834 787 bf 52 35 1885 787 bf 0.977 0.977044 0.0583656 c 52 35 1937 787 bf 0.322347 0.730556 0.570878 c 52 35 1989 787 bf 52 35 227 822 bf 51 35 279 822 bf 52 35 330 822 bf 52 35 382 822 bf 0.2082 0.1664 0.5293 c 52 35 434 822 bf 0.322347
 0.730556 0.570878 c 52 35 486 822 bf 52 35 538 822 bf 51 35 590 822 bf 52 35 641 822 bf 52 35 693 822 bf 52 35 745 822 bf 52 35 797 822 bf 52 35 849 822 bf 0.2082 0.1664 0.5293 c 51 35 901 822 bf 0.322347 0.730556 0.570878 c 52 35 952 822 bf 52 35
 1004 822 bf 52 35 1056 822 bf 52 35 1108 822 bf 52 35 1160 822 bf 51 35 1212 822 bf 52 35 1263 822 bf 52 35 1315 822 bf 52 35 1367 822 bf 52 35 1419 822 bf 0.977 0.977044 0.0583656 c 52 35 1471 822 bf 0.322347 0.730556 0.570878 c 51 35 1523 822 bf
 52 35 1574 822 bf 52 35 1626 822 bf 52 35 1678 822 bf 52 35 1730 822 bf 52 35 1782 822 bf 51 35 1834 822 bf 52 35 1885 822 bf 52 35 1937 822 bf 52 35 1989 822 bf 52 35 227 857 bf 51 35 279 857 bf 52 35 330 857 bf 52 35 382 857 bf 0.2082 0.1664
 0.5293 c 52 35 434 857 bf 0.322347 0.730556 0.570878 c 52 35 486 857 bf 52 35 538 857 bf 51 35 590 857 bf 52 35 641 857 bf 52 35 693 857 bf 52 35 745 857 bf 52 35 797 857 bf 52 35 849 857 bf 0.2082 0.1664 0.5293 c 51 35 901 857 bf 0.322347 0.730556
 0.570878 c 52 35 952 857 bf 52 35 1004 857 bf 52 35 1056 857 bf 52 35 1108 857 bf 52 35 1160 857 bf 51 35 1212 857 bf 52 35 1263 857 bf 52 35 1315 857 bf 52 35 1367 857 bf 52 35 1419 857 bf 52 35 1471 857 bf 51 35 1523 857 bf 0.150523 0.241303
 0.660565 c 52 35 1574 857 bf 0.322347 0.730556 0.570878 c 52 35 1626 857 bf 52 35 1678 857 bf 52 35 1730 857 bf 52 35 1782 857 bf 51 35 1834 857 bf 52 35 1885 857 bf 52 35 1937 857 bf 0.2082 0.1664 0.5293 c 52 35 1989 857 bf 0.322347 0.730556
 0.570878 c 52 35 227 892 bf 51 35 279 892 bf 52 35 330 892 bf 52 35 382 892 bf 0.2082 0.1664 0.5293 c 52 35 434 892 bf 0.322347 0.730556 0.570878 c 52 35 486 892 bf 52 35 538 892 bf 51 35 590 892 bf 52 35 641 892 bf 52 35 693 892 bf 52 35 745 892 bf
 52 35 797 892 bf 52 35 849 892 bf 51 35 901 892 bf 52 35 952 892 bf 52 35 1004 892 bf 52 35 1056 892 bf 52 35 1108 892 bf 52 35 1160 892 bf 51 35 1212 892 bf 52 35 1263 892 bf 52 35 1315 892 bf 52 35 1367 892 bf 52 35 1419 892 bf 52 35 1471 892 bf
 51 35 1523 892 bf 52 35 1574 892 bf 52 35 1626 892 bf 52 35 1678 892 bf 52 35 1730 892 bf 52 35 1782 892 bf 51 35 1834 892 bf 52 35 1885 892 bf 52 35 1937 892 bf 52 35 1989 892 bf 52 35 227 927 bf 51 35 279 927 bf 0.977 0.977044 0.0583656 c 52 35
 330 927 bf 0.884975 0.752825 0.292488 c 52 35 382 927 bf 0.2082 0.1664 0.5293 c 52 35 434 927 bf 0.322347 0.730556 0.570878 c 52 35 486 927 bf 0.2082 0.1664 0.5293 c 52 35 538 927 bf 0.884975 0.752825 0.292488 c 51 35 590 927 bf 0.322347 0.730556
 0.570878 c 52 35 641 927 bf 52 35 693 927 bf 0.977 0.977044 0.0583656 c 52 35 745 927 bf 0.322347 0.730556 0.570878 c 52 35 797 927 bf 52 35 849 927 bf 51 35 901 927 bf 52 35 952 927 bf 52 35 1004 927 bf 0.150523 0.241303 0.660565 c 52 35 1056 927
 bf 0.322347 0.730556 0.570878 c 52 35 1108 927 bf 0.0557375 0.560081 0.819366 c 52 35 1160 927 bf 0.322347 0.730556 0.570878 c 51 35 1212 927 bf 52 35 1263 927 bf 0.884975 0.752825 0.292488 c 52 35 1315 927 bf 0.322347 0.730556 0.570878 c 52 35 1367
 927 bf 52 35 1419 927 bf 52 35 1471 927 bf 51 35 1523 927 bf 52 35 1574 927 bf 52 35 1626 927 bf 52 35 1678 927 bf 52 35 1730 927 bf 52 35 1782 927 bf 0.2082 0.1664 0.5293 c 51 35 1834 927 bf 0.322347 0.730556 0.570878 c 52 35 1885 927 bf 0.977
 0.977044 0.0583656 c 52 35 1937 927 bf 0.322347 0.730556 0.570878 c 52 35 1989 927 bf 52 35 227 962 bf 51 35 279 962 bf 52 35 330 962 bf 52 35 382 962 bf 0.2082 0.1664 0.5293 c 52 35 434 962 bf 0.322347 0.730556 0.570878 c 52 35 486 962 bf 52 35 538
 962 bf 51 35 590 962 bf 52 35 641 962 bf 52 35 693 962 bf 52 35 745 962 bf 52 35 797 962 bf 52 35 849 962 bf 51 35 901 962 bf 52 35 952 962 bf 52 35 1004 962 bf 52 35 1056 962 bf 52 35 1108 962 bf 52 35 1160 962 bf 51 35 1212 962 bf 52 35 1263 962
 bf 52 35 1315 962 bf 52 35 1367 962 bf 52 35 1419 962 bf 52 35 1471 962 bf 51 35 1523 962 bf 52 35 1574 962 bf 52 35 1626 962 bf 52 35 1678 962 bf 52 35 1730 962 bf 52 35 1782 962 bf 51 35 1834 962 bf 52 35 1885 962 bf 52 35 1937 962 bf 0.2082
 0.1664 0.5293 c 52 35 1989 962 bf 0.322347 0.730556 0.570878 c 52 36 227 997 bf 51 36 279 997 bf 52 36 330 997 bf 52 36 382 997 bf 52 36 434 997 bf 0.2082 0.1664 0.5293 c 52 36 486 997 bf 0.322347 0.730556 0.570878 c 52 36 538 997 bf 51 36 590 997
 bf 52 36 641 997 bf 52 36 693 997 bf 52 36 745 997 bf 52 36 797 997 bf 52 36 849 997 bf 51 36 901 997 bf 52 36 952 997 bf 52 36 1004 997 bf 52 36 1056 997 bf 52 36 1108 997 bf 52 36 1160 997 bf 51 36 1212 997 bf 52 36 1263 997 bf 52 36 1315 997 bf
 52 36 1367 997 bf 52 36 1419 997 bf 52 36 1471 997 bf 51 36 1523 997 bf 0.150523 0.241303 0.660565 c 52 36 1574 997 bf 0.322347 0.730556 0.570878 c 52 36 1626 997 bf 52 36 1678 997 bf 52 36 1730 997 bf 52 36 1782 997 bf 51 36 1834 997 bf 52 36 1885
 997 bf 52 36 1937 997 bf 52 36 1989 997 bf 52 35 227 1033 bf 51 35 279 1033 bf 52 35 330 1033 bf 52 35 382 1033 bf 52 35 434 1033 bf 0.2082 0.1664 0.5293 c 52 35 486 1033 bf 0.322347 0.730556 0.570878 c 52 35 538 1033 bf 51 35 590 1033 bf 52 35 641
 1033 bf 52 35 693 1033 bf 52 35 745 1033 bf 0.2082 0.1664 0.5293 c 52 35 797 1033 bf 0.322347 0.730556 0.570878 c 52 35 849 1033 bf 51 35 901 1033 bf 52 35 952 1033 bf 52 35 1004 1033 bf 52 35 1056 1033 bf 52 35 1108 1033 bf 52 35 1160 1033 bf 51 35
 1212 1033 bf 52 35 1263 1033 bf 52 35 1315 1033 bf 52 35 1367 1033 bf 52 35 1419 1033 bf 52 35 1471 1033 bf 51 35 1523 1033 bf 52 35 1574 1033 bf 52 35 1626 1033 bf 52 35 1678 1033 bf 52 35 1730 1033 bf 52 35 1782 1033 bf 51 35 1834 1033 bf 52 35
 1885 1033 bf 52 35 1937 1033 bf 52 35 1989 1033 bf 52 35 227 1068 bf 51 35 279 1068 bf 0.977 0.977044 0.0583656 c 52 35 330 1068 bf 0.884975 0.752825 0.292488 c 52 35 382 1068 bf 0.322347 0.730556 0.570878 c 52 35 434 1068 bf 52 35 486 1068 bf 52 35
 538 1068 bf 0.884975 0.752825 0.292488 c 51 35 590 1068 bf 0.322347 0.730556 0.570878 c 52 35 641 1068 bf 52 35 693 1068 bf 0.977 0.977044 0.0583656 c 52 35 745 1068 bf 0.2082 0.1664 0.5293 c 52 35 797 1068 bf 0.322347 0.730556 0.570878 c 52 35 849
 1068 bf 51 35 901 1068 bf 52 35 952 1068 bf 52 35 1004 1068 bf 52 35 1056 1068 bf 52 35 1108 1068 bf 0.150523 0.241303 0.660565 c 52 35 1160 1068 bf 0.322347 0.730556 0.570878 c 51 35 1212 1068 bf 52 35 1263 1068 bf 52 35 1315 1068 bf 0.977 0.977044
 0.0583656 c 52 35 1367 1068 bf 0.322347 0.730556 0.570878 c 52 35 1419 1068 bf 0.977 0.977044 0.0583656 c 52 35 1471 1068 bf 0.322347 0.730556 0.570878 c 51 35 1523 1068 bf 52 35 1574 1068 bf 52 35 1626 1068 bf 52 35 1678 1068 bf 52 35 1730 1068 bf
 52 35 1782 1068 bf 51 35 1834 1068 bf 52 35 1885 1068 bf 0.884975 0.752825 0.292488 c 52 35 1937 1068 bf 0.2082 0.1664 0.5293 c 52 35 1989 1068 bf 0.322347 0.730556 0.570878 c 52 35 227 1103 bf 51 35 279 1103 bf 52 35 330 1103 bf 52 35 382 1103 bf
 52 35 434 1103 bf 52 35 486 1103 bf 52 35 538 1103 bf 51 35 590 1103 bf 52 35 641 1103 bf 52 35 693 1103 bf 52 35 745 1103 bf 0.2082 0.1664 0.5293 c 52 35 797 1103 bf 0.322347 0.730556 0.570878 c 52 35 849 1103 bf 51 35 901 1103 bf 52 35 952 1103 bf
 52 35 1004 1103 bf 52 35 1056 1103 bf 52 35 1108 1103 bf 52 35 1160 1103 bf 51 35 1212 1103 bf 52 35 1263 1103 bf 52 35 1315 1103 bf 52 35 1367 1103 bf 52 35 1419 1103 bf 52 35 1471 1103 bf 51 35 1523 1103 bf 52 35 1574 1103 bf 52 35 1626 1103 bf 52
 35 1678 1103 bf 52 35 1730 1103 bf 52 35 1782 1103 bf 51 35 1834 1103 bf 52 35 1885 1103 bf 52 35 1937 1103 bf 52 35 1989 1103 bf 52 35 227 1138 bf 51 35 279 1138 bf 52 35 330 1138 bf 52 35 382 1138 bf 52 35 434 1138 bf 52 35 486 1138 bf 52 35 538
 1138 bf 51 35 590 1138 bf 52 35 641 1138 bf 52 35 693 1138 bf 52 35 745 1138 bf 0.2082 0.1664 0.5293 c 52 35 797 1138 bf 0.322347 0.730556 0.570878 c 52 35 849 1138 bf 51 35 901 1138 bf 52 35 952 1138 bf 52 35 1004 1138 bf 0.2082 0.1664 0.5293 c 52
 35 1056 1138 bf 0.322347 0.730556 0.570878 c 52 35 1108 1138 bf 52 35 1160 1138 bf 51 35 1212 1138 bf 52 35 1263 1138 bf 52 35 1315 1138 bf 52 35 1367 1138 bf 52 35 1419 1138 bf 52 35 1471 1138 bf 51 35 1523 1138 bf 52 35 1574 1138 bf 52 35 1626
 1138 bf 52 35 1678 1138 bf 52 35 1730 1138 bf 52 35 1782 1138 bf 51 35 1834 1138 bf 52 35 1885 1138 bf 52 35 1937 1138 bf 52 35 1989 1138 bf 52 35 227 1173 bf 51 35 279 1173 bf 52 35 330 1173 bf 52 35 382 1173 bf 52 35 434 1173 bf 52 35 486 1173 bf
 52 35 538 1173 bf 51 35 590 1173 bf 52 35 641 1173 bf 52 35 693 1173 bf 52 35 745 1173 bf 0.2082 0.1664 0.5293 c 52 35 797 1173 bf 0.322347 0.730556 0.570878 c 52 35 849 1173 bf 51 35 901 1173 bf 52 35 952 1173 bf 52 35 1004 1173 bf 0.2082 0.1664
 0.5293 c 52 35 1056 1173 bf 0.322347 0.730556 0.570878 c 52 35 1108 1173 bf 52 35 1160 1173 bf 51 35 1212 1173 bf 52 35 1263 1173 bf 52 35 1315 1173 bf 52 35 1367 1173 bf 52 35 1419 1173 bf 52 35 1471 1173 bf 51 35 1523 1173 bf 52 35 1574 1173 bf 52
 35 1626 1173 bf 52 35 1678 1173 bf 52 35 1730 1173 bf 52 35 1782 1173 bf 51 35 1834 1173 bf 52 35 1885 1173 bf 52 35 1937 1173 bf 0.2082 0.1664 0.5293 c 52 35 1989 1173 bf 0.322347 0.730556 0.570878 c 52 35 227 1208 bf 51 35 279 1208 bf 52 35 330
 1208 bf 52 35 382 1208 bf 52 35 434 1208 bf 52 35 486 1208 bf 52 35 538 1208 bf 0.884975 0.752825 0.292488 c 51 35 590 1208 bf 0.977 0.977044 0.0583656 c 52 35 641 1208 bf 0.322347 0.730556 0.570878 c 52 35 693 1208 bf 52 35 745 1208 bf 0.2082
 0.1664 0.5293 c 52 35 797 1208 bf 0.322347 0.730556 0.570878 c 52 35 849 1208 bf 51 35 901 1208 bf 52 35 952 1208 bf 52 35 1004 1208 bf 52 35 1056 1208 bf 52 35 1108 1208 bf 0.150523 0.241303 0.660565 c 52 35 1160 1208 bf 0.322347 0.730556 0.570878
 c 51 35 1212 1208 bf 52 35 1263 1208 bf 52 35 1315 1208 bf 0.977 0.977044 0.0583656 c 52 35 1367 1208 bf 0.322347 0.730556 0.570878 c 52 35 1419 1208 bf 0.977 0.977044 0.0583656 c 52 35 1471 1208 bf 0.322347 0.730556 0.570878 c 51 35 1523 1208 bf 52
 35 1574 1208 bf 52 35 1626 1208 bf 52 35 1678 1208 bf 52 35 1730 1208 bf 52 35 1782 1208 bf 51 35 1834 1208 bf 52 35 1885 1208 bf 52 35 1937 1208 bf 52 35 1989 1208 bf 52 36 227 1243 bf 51 36 279 1243 bf 0.977 0.977044 0.0583656 c 52 36 330 1243 bf
 0.322347 0.730556 0.570878 c 52 36 382 1243 bf 52 36 434 1243 bf 52 36 486 1243 bf 52 36 538 1243 bf 51 36 590 1243 bf 52 36 641 1243 bf 52 36 693 1243 bf 52 36 745 1243 bf 0.2082 0.1664 0.5293 c 52 36 797 1243 bf 0.322347 0.730556 0.570878 c 52 36
 849 1243 bf 51 36 901 1243 bf 52 36 952 1243 bf 52 36 1004 1243 bf 52 36 1056 1243 bf 52 36 1108 1243 bf 52 36 1160 1243 bf 0.2082 0.1664 0.5293 c 51 36 1212 1243 bf 0.322347 0.730556 0.570878 c 52 36 1263 1243 bf 52 36 1315 1243 bf 52 36 1367 1243
 bf 52 36 1419 1243 bf 52 36 1471 1243 bf 51 36 1523 1243 bf 52 36 1574 1243 bf 52 36 1626 1243 bf 52 36 1678 1243 bf 52 36 1730 1243 bf 52 36 1782 1243 bf 51 36 1834 1243 bf 52 36 1885 1243 bf 52 36 1937 1243 bf 52 36 1989 1243 bf 52 35 227 1279 bf
 51 35 279 1279 bf 0.2082 0.1664 0.5293 c 52 35 330 1279 bf 0.322347 0.730556 0.570878 c 52 35 382 1279 bf 52 35 434 1279 bf 52 35 486 1279 bf 52 35 538 1279 bf 51 35 590 1279 bf 52 35 641 1279 bf 52 35 693 1279 bf 52 35 745 1279 bf 0.2082 0.1664
 0.5293 c 52 35 797 1279 bf 0.322347 0.730556 0.570878 c 52 35 849 1279 bf 51 35 901 1279 bf 52 35 952 1279 bf 52 35 1004 1279 bf 52 35 1056 1279 bf 52 35 1108 1279 bf 52 35 1160 1279 bf 51 35 1212 1279 bf 52 35 1263 1279 bf 52 35 1315 1279 bf 52 35
 1367 1279 bf 52 35 1419 1279 bf 52 35 1471 1279 bf 51 35 1523 1279 bf 52 35 1574 1279 bf 52 35 1626 1279 bf 52 35 1678 1279 bf 52 35 1730 1279 bf 52 35 1782 1279 bf 51 35 1834 1279 bf 52 35 1885 1279 bf 52 35 1937 1279 bf 0.2082 0.1664 0.5293 c 52
 35 1989 1279 bf 0.322347 0.730556 0.570878 c 52 35 227 1314 bf 51 35 279 1314 bf 0.2082 0.1664 0.5293 c 52 35 330 1314 bf 0.322347 0.730556 0.570878 c 52 35 382 1314 bf 52 35 434 1314 bf 52 35 486 1314 bf 52 35 538 1314 bf 51 35 590 1314 bf 52 35
 641 1314 bf 52 35 693 1314 bf 52 35 745 1314 bf 52 35 797 1314 bf 52 35 849 1314 bf 51 35 901 1314 bf 52 35 952 1314 bf 52 35 1004 1314 bf 52 35 1056 1314 bf 52 35 1108 1314 bf 52 35 1160 1314 bf 51 35 1212 1314 bf 52 35 1263 1314 bf 52 35 1315 1314
 bf 52 35 1367 1314 bf 52 35 1419 1314 bf 52 35 1471 1314 bf 51 35 1523 1314 bf 52 35 1574 1314 bf 52 35 1626 1314 bf 52 35 1678 1314 bf 52 35 1730 1314 bf 52 35 1782 1314 bf 51 35 1834 1314 bf 52 35 1885 1314 bf 52 35 1937 1314 bf 52 35 1989 1314 bf
 52 35 227 1349 bf 51 35 279 1349 bf 52 35 330 1349 bf 52 35 382 1349 bf 52 35 434 1349 bf 52 35 486 1349 bf 52 35 538 1349 bf 0.884975 0.752825 0.292488 c 51 35 590 1349 bf 0.977 0.977044 0.0583656 c 52 35 641 1349 bf 0.322347 0.730556 0.570878 c 52
 35 693 1349 bf 52 35 745 1349 bf 52 35 797 1349 bf 52 35 849 1349 bf 51 35 901 1349 bf 52 35 952 1349 bf 52 35 1004 1349 bf 52 35 1056 1349 bf 52 35 1108 1349 bf 52 35 1160 1349 bf 51 35 1212 1349 bf 52 35 1263 1349 bf 52 35 1315 1349 bf 0.884975
 0.752825 0.292488 c 52 35 1367 1349 bf 0.322347 0.730556 0.570878 c 52 35 1419 1349 bf 52 35 1471 1349 bf 51 35 1523 1349 bf 52 35 1574 1349 bf 52 35 1626 1349 bf 52 35 1678 1349 bf 52 35 1730 1349 bf 52 35 1782 1349 bf 0.2082 0.1664 0.5293 c 51 35
 1834 1349 bf 0.322347 0.730556 0.570878 c 52 35 1885 1349 bf 0.977 0.977044 0.0583656 c 52 35 1937 1349 bf 0.322347 0.730556 0.570878 c 52 35 1989 1349 bf 0.150523 0.241303 0.660565 c 102 61 2052 154 bf 0.0880387 0.322448 0.802768 c 102 62 2052 215
 bf 0.0633125 0.391444 0.861859 c 102 61 2052 277 bf 0.0703625 0.445519 0.850647 c 102 62 2052 338 bf 0.078 0.5041 0.8385 c 102 61 2052 400 bf 0.0557375 0.560081 0.819366 c 102 62 2052 461 bf 0.033475 0.616063 0.800231 c 102 61 2052 523 bf 0.0526375
 0.656131 0.763481 c 102 62 2052 584 bf 0.116419 0.686966 0.702991 c 102 61 2052 646 bf 0.1802 0.7178 0.6425 c 102 62 2052 707 bf 0.322347 0.730556 0.570878 c 102 61 2052 769 bf 0.453559 0.742331 0.504766 c 102 62 2052 830 bf 0.584194 0.746125
 0.444394 c 102 61 2052 892 bf 0.701397 0.739462 0.397147 c 102 62 2052 953 bf 0.8186 0.7328 0.3499 c 102 62 2052 1015 bf 0.884975 0.752825 0.292488 c 102 61 2052 1077 bf 0.956881 0.774519 0.230291 c 102 62 2052 1138 bf 0.992 0.823138 0.170006 c 102
 61 2052 1200 bf 0.9842 0.903169 0.111953 c 102 62 2052 1261 bf 0.977 0.977044 0.0583656 c 102 61 2052 1323 bf black 2154 154 m 1230 Y s 2100 154 m 54 X s 2100 277 m 54 X s 2100 400 m 54 X s 2100 523 m 54 X s 2100 646 m 54 X s 2100 769 m 54 X s 2100
 892 m 54 X s 2100 1015 m 54 X s 2100 1138 m 54 X s 2100 1261 m 54 X s 2100 1384 m 54 X s 2100 154 m 54 X s
 gsave  2268 1538 0 0 C 2189.52 136.845 t 0 r /Helvetica findfont 48.8732 sf 0 0 m (1) show NC gr 
 gsave  2268 1538 0 0 C 2163.45 136.845 t 0 r /Symbol findfont 48.8732 sf 0 0 m (-) show NC gr 
 gsave  2268 1538 0 0 C 2189.52 257.399 t 0 r /Helvetica findfont 48.8732 sf 0 0 m (0.8) show NC gr 
 gsave  2268 1538 0 0 C 2163.45 257.399 t 0 r /Symbol findfont 48.8732 sf 0 0 m (-) show NC gr 
 gsave  2268 1538 0 0 C 2189.52 381.211 t 0 r /Helvetica findfont 48.8732 sf 0 0 m (0.6) show NC gr 
 gsave  2268 1538 0 0 C 2163.45 381.211 t 0 r /Symbol findfont 48.8732 sf 0 0 m (-) show NC gr 
 gsave  2268 1538 0 0 C 2189.52 505.023 t 0 r /Helvetica findfont 48.8732 sf 0 0 m (0.4) show NC gr 
 gsave  2268 1538 0 0 C 2163.45 505.023 t 0 r /Symbol findfont 48.8732 sf 0 0 m (-) show NC gr 
 gsave  2268 1538 0 0 C 2189.52 628.835 t 0 r /Helvetica findfont 48.8732 sf 0 0 m (0.2) show NC gr 
 gsave  2268 1538 0 0 C 2163.45 628.835 t 0 r /Symbol findfont 48.8732 sf 0 0 m (-) show NC gr 
 gsave  2268 1538 0 0 C 2163.45 749.389 t 0 r /Helvetica findfont 48.8732 sf 0 0 m (0) show NC gr 
 gsave  2268 1538 0 0 C 2163.45 873.201 t 0 r /Helvetica findfont 48.8732 sf 0 0 m (0.2) show NC gr 
 gsave  2268 1538 0 0 C 2163.45 997.013 t 0 r /Helvetica findfont 48.8732 sf 0 0 m (0.4) show NC gr 
 gsave  2268 1538 0 0 C 2163.45 1120.83 t 0 r /Helvetica findfont 48.8732 sf 0 0 m (0.6) show NC gr 
 gsave  2268 1538 0 0 C 2163.45 1244.64 t 0 r /Helvetica findfont 48.8732 sf 0 0 m (0.8) show NC gr 
 gsave  2268 1538 0 0 C 2163.45 1365.19 t 0 r /Helvetica findfont 48.8732 sf 0 0 m (1) show NC gr  1 1 1 c black
 gsave  2268 1538 0 0 C 221.559 159.652 t 0 r /Helvetica-Bold findfont 29.3239 sf 0 0 m (1.00) show NC gr 
 gsave  2268 1538 0 0 C 273.69 159.652 t 0 r /Helvetica-Bold findfont 29.3239 sf 0 0 m (1.00) show NC gr 
 gsave  2268 1538 0 0 C 325.821 159.652 t 0 r /Helvetica-Bold findfont 29.3239 sf 0 0 m (1.00) show NC gr 
 gsave  2268 1538 0 0 C 377.953 159.652 t 0 r /Helvetica-Bold findfont 29.3239 sf 0 0 m (1.00) show NC gr 
 gsave  2268 1538 0 0 C 430.084 159.652 t 0 r /Helvetica-Bold findfont 29.3239 sf 0 0 m (1.00) show NC gr 
 gsave  2268 1538 0 0 C 482.216 159.652 t 0 r /Helvetica-Bold findfont 29.3239 sf 0 0 m (1.00) show NC gr 
 gsave  2268 1538 0 0 C 534.347 159.652 t 0 r /Helvetica-Bold findfont 29.3239 sf 0 0 m (1.00) show NC gr 
 gsave  2268 1538 0 0 C 583.22 159.652 t 0 r /Helvetica-Bold findfont 29.3239 sf 0 0 m (1.00) show NC gr 
 gsave  2268 1538 0 0 C 635.352 159.652 t 0 r /Helvetica-Bold findfont 29.3239 sf 0 0 m (1.00) show NC gr 
 gsave  2268 1538 0 0 C 687.483 159.652 t 0 r /Helvetica-Bold findfont 29.3239 sf 0 0 m (1.00) show NC gr 
 gsave  2268 1538 0 0 C 739.614 159.652 t 0 r /Helvetica-Bold findfont 29.3239 sf 0 0 m (1.00) show NC gr 
 gsave  2268 1538 0 0 C 791.746 159.652 t 0 r /Helvetica-Bold findfont 29.3239 sf 0 0 m (1.00) show NC gr 
 gsave  2268 1538 0 0 C 843.877 159.652 t 0 r /Helvetica-Bold findfont 29.3239 sf 0 0 m (1.00) show NC gr 
 gsave  2268 1538 0 0 C 896.009 159.652 t 0 r /Helvetica-Bold findfont 29.3239 sf 0 0 m (1.00) show NC gr 
 gsave  2268 1538 0 0 C 948.14 159.652 t 0 r /Helvetica-Bold findfont 29.3239 sf 0 0 m (1.00) show NC gr 
 gsave  2268 1538 0 0 C 1000.27 159.652 t 0 r /Helvetica-Bold findfont 29.3239 sf 0 0 m (1.00) show NC gr 
 gsave  2268 1538 0 0 C 1052.4 159.652 t 0 r /Helvetica-Bold findfont 29.3239 sf 0 0 m (1.00) show NC gr 
 gsave  2268 1538 0 0 C 1104.53 159.652 t 0 r /Helvetica-Bold findfont 29.3239 sf 0 0 m (1.00) show NC gr 
 gsave  2268 1538 0 0 C 1153.41 159.652 t 0 r /Helvetica-Bold findfont 29.3239 sf 0 0 m (1.00) show NC gr 
 gsave  2268 1538 0 0 C 1205.54 159.652 t 0 r /Helvetica-Bold findfont 29.3239 sf 0 0 m (1.00) show NC gr 
 gsave  2268 1538 0 0 C 1257.67 159.652 t 0 r /Helvetica-Bold findfont 29.3239 sf 0 0 m (1.00) show NC gr 
 gsave  2268 1538 0 0 C 1309.8 159.652 t 0 r /Helvetica-Bold findfont 29.3239 sf 0 0 m (1.00) show NC gr 
 gsave  2268 1538 0 0 C 1361.93 159.652 t 0 r /Helvetica-Bold findfont 29.3239 sf 0 0 m (1.00) show NC gr 
 gsave  2268 1538 0 0 C 1414.06 159.652 t 0 r /Helvetica-Bold findfont 29.3239 sf 0 0 m (1.00) show NC gr 
 gsave  2268 1538 0 0 C 1466.2 159.652 t 0 r /Helvetica-Bold findfont 29.3239 sf 0 0 m (1.00) show NC gr 
 gsave  2268 1538 0 0 C 1518.33 159.652 t 0 r /Helvetica-Bold findfont 29.3239 sf 0 0 m (1.00) show NC gr 
 gsave  2268 1538 0 0 C 1570.46 159.652 t 0 r /Helvetica-Bold findfont 29.3239 sf 0 0 m (1.00) show NC gr 
 gsave  2268 1538 0 0 C 1622.59 159.652 t 0 r /Helvetica-Bold findfont 29.3239 sf 0 0 m (1.00) show NC gr 
 gsave  2268 1538 0 0 C 1671.46 159.652 t 0 r /Helvetica-Bold findfont 29.3239 sf 0 0 m (1.00) show NC gr 
 gsave  2268 1538 0 0 C 1717.08 159.652 t 0 r /Helvetica-Bold findfont 29.3239 sf 0 0 m (\2550.28) show NC gr 
 gsave  2268 1538 0 0 C 1772.47 159.652 t 0 r /Helvetica-Bold findfont 29.3239 sf 0 0 m (\2550.21) show NC gr 
 gsave  2268 1538 0 0 C 1824.6 159.652 t 0 r /Helvetica-Bold findfont 29.3239 sf 0 0 m (\2550.31) show NC gr 
 gsave  2268 1538 0 0 C 1873.47 159.652 t 0 r /Helvetica-Bold findfont 29.3239 sf 0 0 m (\2550.33) show NC gr 
 gsave  2268 1538 0 0 C 1925.6 159.652 t 0 r /Helvetica-Bold findfont 29.3239 sf 0 0 m (\2550.22) show NC gr 
 gsave  2268 1538 0 0 C 1977.74 159.652 t 0 r /Helvetica-Bold findfont 29.3239 sf 0 0 m (\2550.24) show NC gr 
 gsave  2268 1538 0 0 C 785.229 195.493 t 0 r /Helvetica-Bold findfont 29.3239 sf 0 0 m (\2550.28) show NC gr 
 gsave  2268 1538 0 0 C 889.492 195.493 t 0 r /Helvetica-Bold findfont 29.3239 sf 0 0 m (\2550.33) show NC gr 
 gsave  2268 1538 0 0 C 1254.41 195.493 t 0 r /Helvetica-Bold findfont 29.3239 sf 0 0 m (\2550.21) show NC gr 
 gsave  2268 1538 0 0 C 1462.94 195.493 t 0 r /Helvetica-Bold findfont 29.3239 sf 0 0 m (\2550.31) show NC gr 
 gsave  2268 1538 0 0 C 1723.59 195.493 t 0 r /Helvetica-Bold findfont 29.3239 sf 0 0 m (1.00) show NC gr 
 gsave  2268 1538 0 0 C 1775.73 195.493 t 0 r /Helvetica-Bold findfont 29.3239 sf 0 0 m (1.00) show NC gr 
 gsave  2268 1538 0 0 C 1821.34 195.493 t 0 r /Helvetica-Bold findfont 29.3239 sf 0 0 m (\2550.23) show NC gr 
 gsave  2268 1538 0 0 C 1879.99 195.493 t 0 r /Helvetica-Bold findfont 29.3239 sf 0 0 m (1.00) show NC gr 
 gsave  2268 1538 0 0 C 1932.12 195.493 t 0 r /Helvetica-Bold findfont 29.3239 sf 0 0 m (1.00) show NC gr 
 gsave  2268 1538 0 0 C 1984.25 195.493 t 0 r /Helvetica-Bold findfont 29.3239 sf 0 0 m (1.00) show NC gr 
 gsave  2268 1538 0 0 C 785.229 231.333 t 0 r /Helvetica-Bold findfont 29.3239 sf 0 0 m (\2550.22) show NC gr 
 gsave  2268 1538 0 0 C 1717.08 231.333 t 0 r /Helvetica-Bold findfont 29.3239 sf 0 0 m (\2550.23) show NC gr 
 gsave  2268 1538 0 0 C 1827.86 231.333 t 0 r /Helvetica-Bold findfont 29.3239 sf 0 0 m (1.00) show NC gr 
 gsave  2268 1538 0 0 C 1821.34 263.915 t 0 r /Helvetica-Bold findfont 29.3239 sf 0 0 m (\2550.24) show NC gr 
 gsave  2268 1538 0 0 C 759.164 299.756 t 0 r /Helvetica-Bold findfont 29.3239 sf 0 0 m (40000.00) show NC gr 
 gsave  2268 1538 0 0 C 759.164 335.596 t 0 r /Helvetica-Bold findfont 29.3239 sf 0 0 m (40000.00) show NC gr 
 gsave  2268 1538 0 0 C 221.559 371.436 t 0 r /Helvetica-Bold findfont 29.3239 sf 0 0 m (0.50) show NC gr 
 gsave  2268 1538 0 0 C 273.69 371.436 t 0 r /Helvetica-Bold findfont 29.3239 sf 0 0 m (0.50) show NC gr 
 gsave  2268 1538 0 0 C 325.821 371.436 t 0 r /Helvetica-Bold findfont 29.3239 sf 0 0 m (1.00) show NC gr 
 gsave  2268 1538 0 0 C 387.727 371.436 t 0 r /Helvetica-Bold findfont 29.3239 sf 0 0 m (128000.00) show NC gr 
 gsave  2268 1538 0 0 C 475.699 371.436 t 0 r /Helvetica-Bold findfont 29.3239 sf 0 0 m (\2551.00) show NC gr 
 gsave  2268 1538 0 0 C 534.347 371.436 t 0 r /Helvetica-Bold findfont 29.3239 sf 0 0 m (0.75) show NC gr 
 gsave  2268 1538 0 0 C 550.638 371.436 t 0 r /Helvetica-Bold findfont 29.3239 sf 0 0 m (62000.00) show NC gr 
 gsave  2268 1538 0 0 C 628.835 371.436 t 0 r /Helvetica-Bold findfont 29.3239 sf 0 0 m (\2550.00) show NC gr 
 gsave  2268 1538 0 0 C 687.483 371.436 t 0 r /Helvetica-Bold findfont 29.3239 sf 0 0 m (0.75) show NC gr 
 gsave  2268 1538 0 0 C 697.258 371.436 t 0 r /Helvetica-Bold findfont 29.3239 sf 0 0 m (150000.00) show NC gr 
 gsave  2268 1538 0 0 C 759.164 371.436 t 0 r /Helvetica-Bold findfont 29.3239 sf 0 0 m (40000.00) show NC gr 
 gsave  2268 1538 0 0 C 843.877 371.436 t 0 r /Helvetica-Bold findfont 29.3239 sf 0 0 m (1.00) show NC gr 
 gsave  2268 1538 0 0 C 853.652 371.436 t 0 r /Helvetica-Bold findfont 29.3239 sf 0 0 m (150000.00) show NC gr 
 gsave  2268 1538 0 0 C 993.755 371.436 t 0 r /Helvetica-Bold findfont 29.3239 sf 0 0 m (\2550.50) show NC gr 
 gsave  2268 1538 0 0 C 1045.89 371.436 t 0 r /Helvetica-Bold findfont 29.3239 sf 0 0 m (\2551.00) show NC gr 
 gsave  2268 1538 0 0 C 1104.53 371.436 t 0 r /Helvetica-Bold findfont 29.3239 sf 0 0 m (1.00) show NC gr 
 gsave  2268 1538 0 0 C 1153.41 371.436 t 0 r /Helvetica-Bold findfont 29.3239 sf 0 0 m (1.00) show NC gr 
 gsave  2268 1538 0 0 C 1205.54 371.436 t 0 r /Helvetica-Bold findfont 29.3239 sf 0 0 m (0.00) show NC gr 
 gsave  2268 1538 0 0 C 1309.8 371.436 t 0 r /Helvetica-Bold findfont 29.3239 sf 0 0 m (0.62) show NC gr 
 gsave  2268 1538 0 0 C 1414.06 371.436 t 0 r /Helvetica-Bold findfont 29.3239 sf 0 0 m (0.75) show NC gr 
 gsave  2268 1538 0 0 C 1459.68 371.436 t 0 r /Helvetica-Bold findfont 29.3239 sf 0 0 m (\2550.00) show NC gr 
 gsave  2268 1538 0 0 C 1518.33 371.436 t 0 r /Helvetica-Bold findfont 29.3239 sf 0 0 m (1.00) show NC gr 
 gsave  2268 1538 0 0 C 1563.94 371.436 t 0 r /Helvetica-Bold findfont 29.3239 sf 0 0 m (\2551.00) show NC gr 
 gsave  2268 1538 0 0 C 1622.59 371.436 t 0 r /Helvetica-Bold findfont 29.3239 sf 0 0 m (0.50) show NC gr 
 gsave  2268 1538 0 0 C 1691.01 371.436 t 0 r /Helvetica-Bold findfont 29.3239 sf 0 0 m (84000.00) show NC gr 
 gsave  2268 1538 0 0 C 1847.41 371.436 t 0 r /Helvetica-Bold findfont 29.3239 sf 0 0 m (84000.00) show NC gr 
 gsave  2268 1538 0 0 C 759.164 407.277 t 0 r /Helvetica-Bold findfont 29.3239 sf 0 0 m (62000.00) show NC gr 
 gsave  2268 1538 0 0 C 759.164 439.859 t 0 r /Helvetica-Bold findfont 29.3239 sf 0 0 m (62000.00) show NC gr 
 gsave  2268 1538 0 0 C 1980.99 443.117 t 0 r /Helvetica-Bold findfont 29.3239 sf 0 0 m (\255nan) show NC gr 
 gsave  2268 1538 0 0 C 759.164 475.699 t 0 r /Helvetica-Bold findfont 29.3239 sf 0 0 m (84000.00) show NC gr 
 gsave  2268 1538 0 0 C 221.559 511.539 t 0 r /Helvetica-Bold findfont 29.3239 sf 0 0 m (0.00) show NC gr 
 gsave  2268 1538 0 0 C 241.108 511.539 t 0 r /Helvetica-Bold findfont 29.3239 sf 0 0 m (62000.00) show NC gr 
 gsave  2268 1538 0 0 C 325.821 511.539 t 0 r /Helvetica-Bold findfont 29.3239 sf 0 0 m (0.88) show NC gr 
 gsave  2268 1538 0 0 C 377.953 511.539 t 0 r /Helvetica-Bold findfont 29.3239 sf 0 0 m (1.00) show NC gr 
 gsave  2268 1538 0 0 C 387.727 511.539 t 0 r /Helvetica-Bold findfont 29.3239 sf 0 0 m (106000.00) show NC gr 
 gsave  2268 1538 0 0 C 534.347 511.539 t 0 r /Helvetica-Bold findfont 29.3239 sf 0 0 m (0.62) show NC gr 
 gsave  2268 1538 0 0 C 550.638 511.539 t 0 r /Helvetica-Bold findfont 29.3239 sf 0 0 m (62000.00) show NC gr 
 gsave  2268 1538 0 0 C 628.835 511.539 t 0 r /Helvetica-Bold findfont 29.3239 sf 0 0 m (\2550.50) show NC gr 
 gsave  2268 1538 0 0 C 687.483 511.539 t 0 r /Helvetica-Bold findfont 29.3239 sf 0 0 m (0.62) show NC gr 
 gsave  2268 1538 0 0 C 697.258 511.539 t 0 r /Helvetica-Bold findfont 29.3239 sf 0 0 m (128000.00) show NC gr 
 gsave  2268 1538 0 0 C 759.164 511.539 t 0 r /Helvetica-Bold findfont 29.3239 sf 0 0 m (84000.00) show NC gr 
 gsave  2268 1538 0 0 C 843.877 511.539 t 0 r /Helvetica-Bold findfont 29.3239 sf 0 0 m (1.00) show NC gr 
 gsave  2268 1538 0 0 C 853.652 511.539 t 0 r /Helvetica-Bold findfont 29.3239 sf 0 0 m (128000.00) show NC gr 
 gsave  2268 1538 0 0 C 905.783 511.539 t 0 r /Helvetica-Bold findfont 29.3239 sf 0 0 m (150000.00) show NC gr 
 gsave  2268 1538 0 0 C 993.755 511.539 t 0 r /Helvetica-Bold findfont 29.3239 sf 0 0 m (\2551.00) show NC gr 
 gsave  2268 1538 0 0 C 1104.53 511.539 t 0 r /Helvetica-Bold findfont 29.3239 sf 0 0 m (0.50) show NC gr 
 gsave  2268 1538 0 0 C 1153.41 511.539 t 0 r /Helvetica-Bold findfont 29.3239 sf 0 0 m (1.00) show NC gr 
 gsave  2268 1538 0 0 C 1205.54 511.539 t 0 r /Helvetica-Bold findfont 29.3239 sf 0 0 m (0.50) show NC gr 
 gsave  2268 1538 0 0 C 1309.8 511.539 t 0 r /Helvetica-Bold findfont 29.3239 sf 0 0 m (0.62) show NC gr 
 gsave  2268 1538 0 0 C 1414.06 511.539 t 0 r /Helvetica-Bold findfont 29.3239 sf 0 0 m (0.75) show NC gr 
 gsave  2268 1538 0 0 C 1459.68 511.539 t 0 r /Helvetica-Bold findfont 29.3239 sf 0 0 m (\2550.50) show NC gr 
 gsave  2268 1538 0 0 C 1518.33 511.539 t 0 r /Helvetica-Bold findfont 29.3239 sf 0 0 m (1.00) show NC gr 
 gsave  2268 1538 0 0 C 1622.59 511.539 t 0 r /Helvetica-Bold findfont 29.3239 sf 0 0 m (0.00) show NC gr 
 gsave  2268 1538 0 0 C 1691.01 511.539 t 0 r /Helvetica-Bold findfont 29.3239 sf 0 0 m (84000.00) show NC gr 
 gsave  2268 1538 0 0 C 1834.37 511.539 t 0 r /Helvetica-Bold findfont 29.3239 sf 0 0 m ( inf) show NC gr 
 gsave  2268 1538 0 0 C 1847.41 511.539 t 0 r /Helvetica-Bold findfont 29.3239 sf 0 0 m (84000.00) show NC gr 
 gsave  2268 1538 0 0 C 1932.12 511.539 t 0 r /Helvetica-Bold findfont 29.3239 sf 0 0 m (1.00) show NC gr 
 gsave  2268 1538 0 0 C 749.389 547.38 t 0 r /Helvetica-Bold findfont 29.3239 sf 0 0 m (106000.00) show NC gr 
 gsave  2268 1538 0 0 C 1834.37 547.38 t 0 r /Helvetica-Bold findfont 29.3239 sf 0 0 m ( inf) show NC gr 
 gsave  2268 1538 0 0 C 1980.99 550.638 t 0 r /Helvetica-Bold findfont 29.3239 sf 0 0 m (\255nan) show NC gr 
 gsave  2268 1538 0 0 C 749.389 583.22 t 0 r /Helvetica-Bold findfont 29.3239 sf 0 0 m (106000.00) show NC gr 
 gsave  2268 1538 0 0 C 1159.92 583.22 t 0 r /Helvetica-Bold findfont 29.3239 sf 0 0 m ( inf) show NC gr 
 gsave  2268 1538 0 0 C 1834.37 583.22 t 0 r /Helvetica-Bold findfont 29.3239 sf 0 0 m ( inf) show NC gr 
 gsave  2268 1538 0 0 C 1938.64 583.22 t 0 r /Helvetica-Bold findfont 29.3239 sf 0 0 m ( inf) show NC gr 
 gsave  2268 1538 0 0 C 749.389 615.802 t 0 r /Helvetica-Bold findfont 29.3239 sf 0 0 m (128000.00) show NC gr 
 gsave  2268 1538 0 0 C 1159.92 615.802 t 0 r /Helvetica-Bold findfont 29.3239 sf 0 0 m ( inf) show NC gr 
 gsave  2268 1538 0 0 C 1834.37 615.802 t 0 r /Helvetica-Bold findfont 29.3239 sf 0 0 m ( inf) show NC gr 
 gsave  2268 1538 0 0 C 1801.79 615.802 t 0 r /Helvetica-Bold findfont 29.3239 sf 0 0 m (50430835974733824.00) show NC gr 
 gsave  2268 1538 0 0 C 215.042 651.643 t 0 r /Helvetica-Bold findfont 29.3239 sf 0 0 m (\2550.00) show NC gr 
 gsave  2268 1538 0 0 C 241.108 651.643 t 0 r /Helvetica-Bold findfont 29.3239 sf 0 0 m (62000.00) show NC gr 
 gsave  2268 1538 0 0 C 325.821 651.643 t 0 r /Helvetica-Bold findfont 29.3239 sf 0 0 m (0.88) show NC gr 
 gsave  2268 1538 0 0 C 377.953 651.643 t 0 r /Helvetica-Bold findfont 29.3239 sf 0 0 m (1.00) show NC gr 
 gsave  2268 1538 0 0 C 387.727 651.643 t 0 r /Helvetica-Bold findfont 29.3239 sf 0 0 m (106000.00) show NC gr 
 gsave  2268 1538 0 0 C 488.732 651.643 t 0 r /Helvetica-Bold findfont 29.3239 sf 0 0 m ( inf) show NC gr 
 gsave  2268 1538 0 0 C 534.347 651.643 t 0 r /Helvetica-Bold findfont 29.3239 sf 0 0 m (0.62) show NC gr 
 gsave  2268 1538 0 0 C 550.638 651.643 t 0 r /Helvetica-Bold findfont 29.3239 sf 0 0 m (40000.00) show NC gr 
 gsave  2268 1538 0 0 C 628.835 651.643 t 0 r /Helvetica-Bold findfont 29.3239 sf 0 0 m (\2550.50) show NC gr 
 gsave  2268 1538 0 0 C 687.483 651.643 t 0 r /Helvetica-Bold findfont 29.3239 sf 0 0 m (0.62) show NC gr 
 gsave  2268 1538 0 0 C 697.258 651.643 t 0 r /Helvetica-Bold findfont 29.3239 sf 0 0 m (128000.00) show NC gr 
 gsave  2268 1538 0 0 C 749.389 651.643 t 0 r /Helvetica-Bold findfont 29.3239 sf 0 0 m (128000.00) show NC gr 
 gsave  2268 1538 0 0 C 853.652 651.643 t 0 r /Helvetica-Bold findfont 29.3239 sf 0 0 m (128000.00) show NC gr 
 gsave  2268 1538 0 0 C 993.755 651.643 t 0 r /Helvetica-Bold findfont 29.3239 sf 0 0 m (\2551.00) show NC gr 
 gsave  2268 1538 0 0 C 1104.53 651.643 t 0 r /Helvetica-Bold findfont 29.3239 sf 0 0 m (0.50) show NC gr 
 gsave  2268 1538 0 0 C 1205.54 651.643 t 0 r /Helvetica-Bold findfont 29.3239 sf 0 0 m (0.50) show NC gr 
 gsave  2268 1538 0 0 C 1309.8 651.643 t 0 r /Helvetica-Bold findfont 29.3239 sf 0 0 m (0.50) show NC gr 
 gsave  2268 1538 0 0 C 1368.45 651.643 t 0 r /Helvetica-Bold findfont 29.3239 sf 0 0 m ( inf) show NC gr 
 gsave  2268 1538 0 0 C 1414.06 651.643 t 0 r /Helvetica-Bold findfont 29.3239 sf 0 0 m (0.62) show NC gr 
 gsave  2268 1538 0 0 C 1459.68 651.643 t 0 r /Helvetica-Bold findfont 29.3239 sf 0 0 m (\2550.50) show NC gr 
 gsave  2268 1538 0 0 C 1518.33 651.643 t 0 r /Helvetica-Bold findfont 29.3239 sf 0 0 m (0.50) show NC gr 
 gsave  2268 1538 0 0 C 1576.98 651.643 t 0 r /Helvetica-Bold findfont 29.3239 sf 0 0 m ( inf) show NC gr 
 gsave  2268 1538 0 0 C 1616.07 651.643 t 0 r /Helvetica-Bold findfont 29.3239 sf 0 0 m (\2550.00) show NC gr 
 gsave  2268 1538 0 0 C 1691.01 651.643 t 0 r /Helvetica-Bold findfont 29.3239 sf 0 0 m (62000.00) show NC gr 
 gsave  2268 1538 0 0 C 1834.37 651.643 t 0 r /Helvetica-Bold findfont 29.3239 sf 0 0 m ( inf) show NC gr 
 gsave  2268 1538 0 0 C 1847.41 651.643 t 0 r /Helvetica-Bold findfont 29.3239 sf 0 0 m (62000.00) show NC gr 
 gsave  2268 1538 0 0 C 1980.99 654.901 t 0 r /Helvetica-Bold findfont 29.3239 sf 0 0 m (\255nan) show NC gr 
 gsave  2268 1538 0 0 C 749.389 687.483 t 0 r /Helvetica-Bold findfont 29.3239 sf 0 0 m (150000.00) show NC gr 
 gsave  2268 1538 0 0 C 1834.37 687.483 t 0 r /Helvetica-Bold findfont 29.3239 sf 0 0 m ( inf) show NC gr 
 gsave  2268 1538 0 0 C 749.389 723.323 t 0 r /Helvetica-Bold findfont 29.3239 sf 0 0 m (150000.00) show NC gr 
 gsave  2268 1538 0 0 C 1466.2 723.323 t 0 r /Helvetica-Bold findfont 29.3239 sf 0 0 m (4.55) show NC gr 
 gsave  2268 1538 0 0 C 1834.37 723.323 t 0 r /Helvetica-Bold findfont 29.3239 sf 0 0 m ( inf) show NC gr 
 gsave  2268 1538 0 0 C 749.389 755.906 t 0 r /Helvetica-Bold findfont 29.3239 sf 0 0 m (150000.00) show NC gr 
 gsave  2268 1538 0 0 C 922.074 755.906 t 0 r /Helvetica-Bold findfont 29.3239 sf 0 0 m (50430818794864640.00) show NC gr 
 gsave  2268 1538 0 0 C 1466.2 755.906 t 0 r /Helvetica-Bold findfont 29.3239 sf 0 0 m (6.48) show NC gr 
 gsave  2268 1538 0 0 C 1980.99 759.164 t 0 r /Helvetica-Bold findfont 29.3239 sf 0 0 m (\255nan) show NC gr 
 gsave  2268 1538 0 0 C 241.108 791.746 t 0 r /Helvetica-Bold findfont 29.3239 sf 0 0 m (40000.00) show NC gr 
 gsave  2268 1538 0 0 C 283.465 791.746 t 0 r /Helvetica-Bold findfont 29.3239 sf 0 0 m (106000.00) show NC gr 
 gsave  2268 1538 0 0 C 377.953 791.746 t 0 r /Helvetica-Bold findfont 29.3239 sf 0 0 m (0.62) show NC gr 
 gsave  2268 1538 0 0 C 436.601 791.746 t 0 r /Helvetica-Bold findfont 29.3239 sf 0 0 m ( inf) show NC gr 
 gsave  2268 1538 0 0 C 583.22 791.746 t 0 r /Helvetica-Bold findfont 29.3239 sf 0 0 m (1.00) show NC gr 
 gsave  2268 1538 0 0 C 697.258 791.746 t 0 r /Helvetica-Bold findfont 29.3239 sf 0 0 m (106000.00) show NC gr 
 gsave  2268 1538 0 0 C 749.389 791.746 t 0 r /Helvetica-Bold findfont 29.3239 sf 0 0 m (150000.00) show NC gr 
 gsave  2268 1538 0 0 C 1309.8 791.746 t 0 r /Helvetica-Bold findfont 29.3239 sf 0 0 m (0.50) show NC gr 
 gsave  2268 1538 0 0 C 1466.2 791.746 t 0 r /Helvetica-Bold findfont 29.3239 sf 0 0 m (8.33) show NC gr 
 gsave  2268 1538 0 0 C 1932.12 791.746 t 0 r /Helvetica-Bold findfont 29.3239 sf 0 0 m (1.00) show NC gr 
 gsave  2268 1538 0 0 C 436.601 827.586 t 0 r /Helvetica-Bold findfont 29.3239 sf 0 0 m ( inf) show NC gr 
 gsave  2268 1538 0 0 C 804.779 827.586 t 0 r /Helvetica-Bold findfont 29.3239 sf 0 0 m (383481806848.00) show NC gr 
 gsave  2268 1538 0 0 C 1456.42 827.586 t 0 r /Helvetica-Bold findfont 29.3239 sf 0 0 m (20.97) show NC gr 
 gsave  2268 1538 0 0 C 436.601 863.427 t 0 r /Helvetica-Bold findfont 29.3239 sf 0 0 m ( inf) show NC gr 
 gsave  2268 1538 0 0 C 902.525 863.427 t 0 r /Helvetica-Bold findfont 29.3239 sf 0 0 m ( inf) show NC gr 
 gsave  2268 1538 0 0 C 1563.94 863.427 t 0 r /Helvetica-Bold findfont 29.3239 sf 0 0 m (\2551.00) show NC gr 
 gsave  2268 1538 0 0 C 1980.99 866.685 t 0 r /Helvetica-Bold findfont 29.3239 sf 0 0 m (\255nan) show NC gr 
 gsave  2268 1538 0 0 C 436.601 899.267 t 0 r /Helvetica-Bold findfont 29.3239 sf 0 0 m ( inf) show NC gr 
 gsave  2268 1538 0 0 C 283.465 931.849 t 0 r /Helvetica-Bold findfont 29.3239 sf 0 0 m (106000.00) show NC gr 
 gsave  2268 1538 0 0 C 377.953 931.849 t 0 r /Helvetica-Bold findfont 29.3239 sf 0 0 m (0.50) show NC gr 
 gsave  2268 1538 0 0 C 436.601 931.849 t 0 r /Helvetica-Bold findfont 29.3239 sf 0 0 m ( inf) show NC gr 
 gsave  2268 1538 0 0 C 540.863 931.849 t 0 r /Helvetica-Bold findfont 29.3239 sf 0 0 m ( inf) show NC gr 
 gsave  2268 1538 0 0 C 583.22 931.849 t 0 r /Helvetica-Bold findfont 29.3239 sf 0 0 m (0.50) show NC gr 
 gsave  2268 1538 0 0 C 697.258 931.849 t 0 r /Helvetica-Bold findfont 29.3239 sf 0 0 m (106000.00) show NC gr 
 gsave  2268 1538 0 0 C 1045.89 931.849 t 0 r /Helvetica-Bold findfont 29.3239 sf 0 0 m (\2551.00) show NC gr 
 gsave  2268 1538 0 0 C 1146.89 931.849 t 0 r /Helvetica-Bold findfont 29.3239 sf 0 0 m (\2550.50) show NC gr 
 gsave  2268 1538 0 0 C 1309.8 931.849 t 0 r /Helvetica-Bold findfont 29.3239 sf 0 0 m (0.50) show NC gr 
 gsave  2268 1538 0 0 C 1834.37 931.849 t 0 r /Helvetica-Bold findfont 29.3239 sf 0 0 m ( inf) show NC gr 
 gsave  2268 1538 0 0 C 1932.12 931.849 t 0 r /Helvetica-Bold findfont 29.3239 sf 0 0 m (1.00) show NC gr 
 gsave  2268 1538 0 0 C 436.601 967.689 t 0 r /Helvetica-Bold findfont 29.3239 sf 0 0 m ( inf) show NC gr 
 gsave  2268 1538 0 0 C 1980.99 970.948 t 0 r /Helvetica-Bold findfont 29.3239 sf 0 0 m (\255nan) show NC gr 
 gsave  2268 1538 0 0 C 488.732 1003.53 t 0 r /Helvetica-Bold findfont 29.3239 sf 0 0 m ( inf) show NC gr 
 gsave  2268 1538 0 0 C 1563.94 1003.53 t 0 r /Helvetica-Bold findfont 29.3239 sf 0 0 m (\2551.00) show NC gr 
 gsave  2268 1538 0 0 C 488.732 1039.37 t 0 r /Helvetica-Bold findfont 29.3239 sf 0 0 m ( inf) show NC gr 
 gsave  2268 1538 0 0 C 798.262 1039.37 t 0 r /Helvetica-Bold findfont 29.3239 sf 0 0 m ( inf) show NC gr 
 gsave  2268 1538 0 0 C 293.239 1075.21 t 0 r /Helvetica-Bold findfont 29.3239 sf 0 0 m (84000.00) show NC gr 
 gsave  2268 1538 0 0 C 377.953 1075.21 t 0 r /Helvetica-Bold findfont 29.3239 sf 0 0 m (0.50) show NC gr 
 gsave  2268 1538 0 0 C 583.22 1075.21 t 0 r /Helvetica-Bold findfont 29.3239 sf 0 0 m (0.50) show NC gr 
 gsave  2268 1538 0 0 C 707.032 1075.21 t 0 r /Helvetica-Bold findfont 29.3239 sf 0 0 m (84000.00) show NC gr 
 gsave  2268 1538 0 0 C 798.262 1075.21 t 0 r /Helvetica-Bold findfont 29.3239 sf 0 0 m ( inf) show NC gr 
 gsave  2268 1538 0 0 C 1146.89 1075.21 t 0 r /Helvetica-Bold findfont 29.3239 sf 0 0 m (\2551.00) show NC gr 
 gsave  2268 1538 0 0 C 1309.8 1075.21 t 0 r /Helvetica-Bold findfont 29.3239 sf 0 0 m (0.00) show NC gr 
 gsave  2268 1538 0 0 C 1361.93 1075.21 t 0 r /Helvetica-Bold findfont 29.3239 sf 0 0 m (1.00) show NC gr 
 gsave  2268 1538 0 0 C 1423.84 1075.21 t 0 r /Helvetica-Bold findfont 29.3239 sf 0 0 m (150000.00) show NC gr 
 gsave  2268 1538 0 0 C 1932.12 1075.21 t 0 r /Helvetica-Bold findfont 29.3239 sf 0 0 m (0.50) show NC gr 
 gsave  2268 1538 0 0 C 1980.99 1078.47 t 0 r /Helvetica-Bold findfont 29.3239 sf 0 0 m (\255nan) show NC gr 
 gsave  2268 1538 0 0 C 798.262 1107.79 t 0 r /Helvetica-Bold findfont 29.3239 sf 0 0 m ( inf) show NC gr 
 gsave  2268 1538 0 0 C 798.262 1143.63 t 0 r /Helvetica-Bold findfont 29.3239 sf 0 0 m ( inf) show NC gr 
 gsave  2268 1538 0 0 C 1058.92 1143.63 t 0 r /Helvetica-Bold findfont 29.3239 sf 0 0 m ( inf) show NC gr 
 gsave  2268 1538 0 0 C 798.262 1179.47 t 0 r /Helvetica-Bold findfont 29.3239 sf 0 0 m ( inf) show NC gr 
 gsave  2268 1538 0 0 C 808.037 1179.47 t 0 r /Helvetica-Bold findfont 29.3239 sf 0 0 m (3528977777888703253143147773952.00) show NC gr 
 gsave  2268 1538 0 0 C 1980.99 1182.73 t 0 r /Helvetica-Bold findfont 29.3239 sf 0 0 m (\255nan) show NC gr 
 gsave  2268 1538 0 0 C 583.22 1215.31 t 0 r /Helvetica-Bold findfont 29.3239 sf 0 0 m (0.50) show NC gr 
 gsave  2268 1538 0 0 C 592.995 1215.31 t 0 r /Helvetica-Bold findfont 29.3239 sf 0 0 m (150000.00) show NC gr 
 gsave  2268 1538 0 0 C 579.962 1215.31 t 0 r /Helvetica-Bold findfont 29.3239 sf 0 0 m (151498626518566636001165312.00) show NC gr 
 gsave  2268 1538 0 0 C 1146.89 1215.31 t 0 r /Helvetica-Bold findfont 29.3239 sf 0 0 m (\2551.00) show NC gr 
 gsave  2268 1538 0 0 C 1361.93 1215.31 t 0 r /Helvetica-Bold findfont 29.3239 sf 0 0 m (1.00) show NC gr 
 gsave  2268 1538 0 0 C 1423.84 1215.31 t 0 r /Helvetica-Bold findfont 29.3239 sf 0 0 m (150000.00) show NC gr 
 gsave  2268 1538 0 0 C 267.173 1251.15 t 0 r /Helvetica-Bold findfont 29.3239 sf 0 0 m (16480912.00) show NC gr 
 gsave  2268 1538 0 0 C 798.262 1251.15 t 0 r /Helvetica-Bold findfont 29.3239 sf 0 0 m ( inf) show NC gr 
 gsave  2268 1538 0 0 C 1202.28 1254.41 t 0 r /Helvetica-Bold findfont 29.3239 sf 0 0 m (\255nan) show NC gr 
 gsave  2268 1538 0 0 C 273.69 1283.74 t 0 r /Helvetica-Bold findfont 29.3239 sf 0 0 m (0.00) show NC gr 
 gsave  2268 1538 0 0 C 332.338 1283.74 t 0 r /Helvetica-Bold findfont 29.3239 sf 0 0 m ( inf) show NC gr 
 gsave  2268 1538 0 0 C 798.262 1283.74 t 0 r /Helvetica-Bold findfont 29.3239 sf 0 0 m ( inf) show NC gr 
 gsave  2268 1538 0 0 C 1980.99 1286.99 t 0 r /Helvetica-Bold findfont 29.3239 sf 0 0 m (\255nan) show NC gr 
 gsave  2268 1538 0 0 C 332.338 1319.58 t 0 r /Helvetica-Bold findfont 29.3239 sf 0 0 m ( inf) show NC gr 
 gsave  2268 1538 0 0 C 583.22 1355.42 t 0 r /Helvetica-Bold findfont 29.3239 sf 0 0 m (0.50) show NC gr 
 gsave  2268 1538 0 0 C 592.995 1355.42 t 0 r /Helvetica-Bold findfont 29.3239 sf 0 0 m (128000.00) show NC gr 
 gsave  2268 1538 0 0 C 1361.93 1355.42 t 0 r /Helvetica-Bold findfont 29.3239 sf 0 0 m (0.50) show NC gr 
 gsave  2268 1538 0 0 C 1834.37 1355.42 t 0 r /Helvetica-Bold findfont 29.3239 sf 0 0 m ( inf) show NC gr 
 gsave  2268 1538 0 0 C 1889.76 1355.42 t 0 r /Helvetica-Bold findfont 29.3239 sf 0 0 m (150000.00) show NC gr  227 154 m 1814 X s
 gsave  2268 1538 0 0 C 244.366 127.07 t -19 r /Helvetica findfont 32.5821 sf 0 0 m (JET_Flavor_Composition) show NC gr 
 gsave  2268 1538 0 0 C 296.497 127.07 t -19 r /Helvetica findfont 32.5821 sf 0 0 m (JET_JER_DataVsMC_MC16) show NC gr 
 gsave  2268 1538 0 0 C 348.629 127.07 t -19 r /Helvetica findfont 32.5821 sf 0 0 m (JET_JER_EffectiveNP_2) show NC gr 
 gsave  2268 1538 0 0 C 400.76 127.07 t -19 r /Helvetica findfont 32.5821 sf 0 0 m (JET_JER_EffectiveNP_5) show NC gr 
 gsave  2268 1538 0 0 C 452.892 127.07 t -19 r /Helvetica findfont 32.5821 sf 0 0 m (JET_JER_EffectiveNP_6) show NC gr 
 gsave  2268 1538 0 0 C 505.023 127.07 t -19 r /Helvetica findfont 32.5821 sf 0 0 m (JET_JER_EffectiveNP_7) show NC gr 
 gsave  2268 1538 0 0 C 557.154 127.07 t -19 r /Helvetica findfont 32.5821 sf 0 0 m (JET_Pileup_OffsetMu) show NC gr 
 gsave  2268 1538 0 0 C 606.028 127.07 t -19 r /Helvetica findfont 32.5821 sf 0 0 m (JET_Pileup_RhoTopology) show NC gr 
 gsave  2268 1538 0 0 C 658.159 127.07 t -19 r /Helvetica findfont 32.5821 sf 0 0 m (JET_Flavor_Response) show NC gr 
 gsave  2268 1538 0 0 C 710.291 127.07 t -19 r /Helvetica findfont 32.5821 sf 0 0 m (JET_JER_EffectiveNP_1) show NC gr 
 gsave  2268 1538 0 0 C 762.422 127.07 t -19 r /Helvetica findfont 32.5821 sf 0 0 m (theo_ttbar_fsr) show NC gr 
 gsave  2268 1538 0 0 C 814.553 127.07 t -19 r /Helvetica findfont 32.5821 sf 0 0 m (theo_ztautau_generator) show NC gr 
 gsave  2268 1538 0 0 C 866.685 127.07 t -19 r /Helvetica findfont 32.5821 sf 0 0 m (theo_ztautau_generator) show NC gr 
 gsave  2268 1538 0 0 C 918.816 127.07 t -19 r /Helvetica findfont 32.5821 sf 0 0 m (theo_ztautau_generator) show NC gr 
 gsave  2268 1538 0 0 C 970.948 127.07 t -19 r /Helvetica findfont 32.5821 sf 0 0 m (gamma_stat_CRZjets_MT_bin_0) show NC gr 
 gsave  2268 1538 0 0 C 1023.08 127.07 t -19 r /Helvetica findfont 32.5821 sf 0 0 m (gamma_stat_CRZjets_MT_bin_1) show NC gr 
 gsave  2268 1538 0 0 C 1075.21 127.07 t -19 r /Helvetica findfont 32.5821 sf 0 0 m (gamma_stat_CRZjets_MT_bin_1) show NC gr 
 gsave  2268 1538 0 0 C 1127.34 127.07 t -19 r /Helvetica findfont 32.5821 sf 0 0 m (gamma_stat_CRZjets_MT_bin_2) show NC gr 
 gsave  2268 1538 0 0 C 1176.22 127.07 t -19 r /Helvetica findfont 32.5821 sf 0 0 m (gamma_stat_CRZjets_MT_bin_3) show NC gr 
 gsave  2268 1538 0 0 C 1228.35 127.07 t -19 r /Helvetica findfont 32.5821 sf 0 0 m (gamma_stat_CRZjets_MT_bin_4) show NC gr 
 gsave  2268 1538 0 0 C 1280.48 127.07 t -19 r /Helvetica findfont 32.5821 sf 0 0 m (gamma_stat_CRTop_0_bdt_TopWWAll_bin_0) show NC gr 
 gsave  2268 1538 0 0 C 1332.61 127.07 t -19 r /Helvetica findfont 32.5821 sf 0 0 m (gamma_stat_CRTop_0_bdt_TopWWAll_bin_1) show NC gr 
 gsave  2268 1538 0 0 C 1384.74 127.07 t -19 r /Helvetica findfont 32.5821 sf 0 0 m (gamma_stat_CRTop_0_bdt_TopWWAll_bin_2) show NC gr 
 gsave  2268 1538 0 0 C 1436.87 127.07 t -19 r /Helvetica findfont 32.5821 sf 0 0 m (gamma_stat_CRTop_0_bdt_TopWWAll_bin_3) show NC gr 
 gsave  2268 1538 0 0 C 1489 127.07 t -19 r /Helvetica findfont 32.5821 sf 0 0 m (gamma_stat_CRTop_0_bdt_TopWWAll_bin_3) show NC gr 
 gsave  2268 1538 0 0 C 1541.13 127.07 t -19 r /Helvetica findfont 32.5821 sf 0 0 m (gamma_stat_CRGGF1_bdt_ggFCR1_bin_0) show NC gr 
 gsave  2268 1538 0 0 C 1593.27 127.07 t -19 r /Helvetica findfont 32.5821 sf 0 0 m (gamma_stat_CRGGF1_bdt_ggFCR1_bin_1) show NC gr 
 gsave  2268 1538 0 0 C 1645.4 127.07 t -19 r /Helvetica findfont 32.5821 sf 0 0 m (gamma_stat_CRGGF1_bdt_ggFCR1_bin_2) show NC gr 
 gsave  2268 1538 0 0 C 1694.27 127.07 t -19 r /Helvetica findfont 32.5821 sf 0 0 m (gamma_stat_CRGGF1_bdt_ggFCR1_bin_3) show NC gr 
 gsave  2268 1538 0 0 C 1746.4 127.07 t -19 r /Helvetica findfont 32.5821 sf 0 0 m (gamma_stat_CRGGF1_bdt_ggFCR1_bin_3) show NC gr 
 gsave  2268 1538 0 0 C 1798.53 127.07 t -19 r /Helvetica findfont 32.5821 sf 0 0 m (gamma_stat_SRVBF_0_bdt_vbf_inc_bin_0) show NC gr 
 gsave  2268 1538 0 0 C 1850.67 127.07 t -19 r /Helvetica findfont 32.5821 sf 0 0 m (gamma_stat_SRVBF_0_bdt_vbf_inc_bin_1) show NC gr 
 gsave  2268 1538 0 0 C 1902.8 127.07 t -19 r /Helvetica findfont 32.5821 sf 0 0 m (gamma_stat_SRVBF_0_bdt_vbf_inc_bin_2) show NC gr 
 gsave  2268 1538 0 0 C 1954.93 127.07 t -19 r /Helvetica findfont 32.5821 sf 0 0 m (gamma_stat_SRVBF_0_bdt_vbf_inc_bin_3) show NC gr 
 gsave  2268 1538 0 0 C 2007.06 127.07 t -19 r /Helvetica findfont 32.5821 sf 0 0 m (sigma_bin0) show NC gr  227 191 m -37 Y s 279 191 m -37 Y s 330 191 m -37 Y s 382 191 m -37 Y s 434 191 m -37 Y s 486 191 m -37 Y s 538 191 m -37 Y s 590 191 m -37 Y
 s 641 191 m -37 Y s 693 191 m -37 Y s 745 191 m -37 Y s 797 191 m -37 Y s 849 191 m -37 Y s 901 191 m -37 Y s 952 191 m -37 Y s 1004 191 m -37 Y s 1056 191 m -37 Y s 1108 191 m -37 Y s 1160 191 m -37 Y s 1212 191 m -37 Y s 1263 191 m -37 Y s 1315
 191 m -37 Y s 1367 191 m -37 Y s 1419 191 m -37 Y s 1471 191 m -37 Y s 1523 191 m -37 Y s 1574 191 m -37 Y s 1626 191 m -37 Y s 1678 191 m -37 Y s 1730 191 m -37 Y s 1782 191 m -37 Y s 1834 191 m -37 Y s 1885 191 m -37 Y s 1937 191 m -37 Y s 1989
 191 m -37 Y s 2041 191 m -37 Y s 227 154 m 1230 Y s
 gsave  2268 1538 0 0 C -166.169 162.911 t 0 r /Helvetica findfont 32.5821 sf 0 0 m (JET_Flavor_Composition) show NC gr 
 gsave  2268 1538 0 0 C -221.559 195.493 t 0 r /Helvetica findfont 32.5821 sf 0 0 m (JET_JER_DataVsMC_MC16) show NC gr 
 gsave  2268 1538 0 0 C -162.911 231.333 t 0 r /Helvetica findfont 32.5821 sf 0 0 m (JET_JER_EffectiveNP_2) show NC gr 
 gsave  2268 1538 0 0 C -162.911 263.915 t 0 r /Helvetica findfont 32.5821 sf 0 0 m (JET_JER_EffectiveNP_5) show NC gr 
 gsave  2268 1538 0 0 C -162.911 299.756 t 0 r /Helvetica findfont 32.5821 sf 0 0 m (JET_JER_EffectiveNP_6) show NC gr 
 gsave  2268 1538 0 0 C -162.911 335.596 t 0 r /Helvetica findfont 32.5821 sf 0 0 m (JET_JER_EffectiveNP_7) show NC gr 
 gsave  2268 1538 0 0 C -117.296 374.695 t 0 r /Helvetica findfont 32.5821 sf 0 0 m (JET_Pileup_OffsetMu) show NC gr 
 gsave  2268 1538 0 0 C -182.46 410.535 t 0 r /Helvetica findfont 32.5821 sf 0 0 m (JET_Pileup_RhoTopology) show NC gr 
 gsave  2268 1538 0 0 C -133.587 443.117 t 0 r /Helvetica findfont 32.5821 sf 0 0 m (JET_Flavor_Response) show NC gr 
 gsave  2268 1538 0 0 C -159.652 475.699 t 0 r /Helvetica findfont 32.5821 sf 0 0 m (JET_JER_EffectiveNP_1) show NC gr 
 gsave  2268 1538 0 0 C -3.25821 511.539 t 0 r /Helvetica findfont 32.5821 sf 0 0 m (theo_ttbar_fsr) show NC gr 
 gsave  2268 1538 0 0 C -149.878 550.638 t 0 r /Helvetica findfont 32.5821 sf 0 0 m (theo_ztautau_generator) show NC gr 
 gsave  2268 1538 0 0 C -149.878 586.478 t 0 r /Helvetica findfont 32.5821 sf 0 0 m (theo_ztautau_generator) show NC gr 
 gsave  2268 1538 0 0 C -149.878 619.061 t 0 r /Helvetica findfont 32.5821 sf 0 0 m (theo_ztautau_generator) show NC gr 
 gsave  2268 1538 0 0 C -280.206 654.901 t 0 r /Helvetica findfont 32.5821 sf 0 0 m (gamma_stat_CRZjets_MT_bin_0) show NC gr 
 gsave  2268 1538 0 0 C -273.69 690.741 t 0 r /Helvetica findfont 32.5821 sf 0 0 m (gamma_stat_CRZjets_MT_bin_1) show NC gr 
 gsave  2268 1538 0 0 C -273.69 726.582 t 0 r /Helvetica findfont 32.5821 sf 0 0 m (gamma_stat_CRZjets_MT_bin_1) show NC gr 
 gsave  2268 1538 0 0 C -280.206 759.164 t 0 r /Helvetica findfont 32.5821 sf 0 0 m (gamma_stat_CRZjets_MT_bin_2) show NC gr 
 gsave  2268 1538 0 0 C -280.206 795.004 t 0 r /Helvetica findfont 32.5821 sf 0 0 m (gamma_stat_CRZjets_MT_bin_3) show NC gr 
 gsave  2268 1538 0 0 C -280.206 830.844 t 0 r /Helvetica findfont 32.5821 sf 0 0 m (gamma_stat_CRZjets_MT_bin_4) show NC gr 
 gsave  2268 1538 0 0 C -472.441 866.685 t 0 r /Helvetica findfont 32.5821 sf 0 0 m (gamma_stat_CRTop_0_bdt_TopWWAll_bin_0) show NC gr 
 gsave  2268 1538 0 0 C -465.925 902.525 t 0 r /Helvetica findfont 32.5821 sf 0 0 m (gamma_stat_CRTop_0_bdt_TopWWAll_bin_1) show NC gr 
 gsave  2268 1538 0 0 C -472.441 935.107 t 0 r /Helvetica findfont 32.5821 sf 0 0 m (gamma_stat_CRTop_0_bdt_TopWWAll_bin_2) show NC gr 
 gsave  2268 1538 0 0 C -472.441 970.948 t 0 r /Helvetica findfont 32.5821 sf 0 0 m (gamma_stat_CRTop_0_bdt_TopWWAll_bin_3) show NC gr 
 gsave  2268 1538 0 0 C -472.441 1006.79 t 0 r /Helvetica findfont 32.5821 sf 0 0 m (gamma_stat_CRTop_0_bdt_TopWWAll_bin_3) show NC gr 
 gsave  2268 1538 0 0 C -436.601 1042.63 t 0 r /Helvetica findfont 32.5821 sf 0 0 m (gamma_stat_CRGGF1_bdt_ggFCR1_bin_0) show NC gr 
 gsave  2268 1538 0 0 C -430.084 1078.47 t 0 r /Helvetica findfont 32.5821 sf 0 0 m (gamma_stat_CRGGF1_bdt_ggFCR1_bin_1) show NC gr 
 gsave  2268 1538 0 0 C -436.601 1111.05 t 0 r /Helvetica findfont 32.5821 sf 0 0 m (gamma_stat_CRGGF1_bdt_ggFCR1_bin_2) show NC gr 
 gsave  2268 1538 0 0 C -436.601 1146.89 t 0 r /Helvetica findfont 32.5821 sf 0 0 m (gamma_stat_CRGGF1_bdt_ggFCR1_bin_3) show NC gr 
 gsave  2268 1538 0 0 C -436.601 1182.73 t 0 r /Helvetica findfont 32.5821 sf 0 0 m (gamma_stat_CRGGF1_bdt_ggFCR1_bin_3) show NC gr 
 gsave  2268 1538 0 0 C -426.826 1218.57 t 0 r /Helvetica findfont 32.5821 sf 0 0 m (gamma_stat_SRVBF_0_bdt_vbf_inc_bin_0) show NC gr 
 gsave  2268 1538 0 0 C -420.31 1254.41 t 0 r /Helvetica findfont 32.5821 sf 0 0 m (gamma_stat_SRVBF_0_bdt_vbf_inc_bin_1) show NC gr 
 gsave  2268 1538 0 0 C -426.826 1286.99 t 0 r /Helvetica findfont 32.5821 sf 0 0 m (gamma_stat_SRVBF_0_bdt_vbf_inc_bin_2) show NC gr 
 gsave  2268 1538 0 0 C -426.826 1322.83 t 0 r /Helvetica findfont 32.5821 sf 0 0 m (gamma_stat_SRVBF_0_bdt_vbf_inc_bin_3) show NC gr 
 gsave  2268 1538 0 0 C 32.5821 1358.67 t 0 r /Helvetica findfont 32.5821 sf 0 0 m (sigma_bin0) show NC gr  281 154 m -54 X s 281 189 m -54 X s 281 224 m -54 X s 281 259 m -54 X s 281 294 m -54 X s 281 330 m -54 X s 281 365 m -54 X s 281 400 m -54 X
 s 281 435 m -54 X s 281 470 m -54 X s 281 505 m -54 X s 281 540 m -54 X s 281 576 m -54 X s 281 611 m -54 X s 281 646 m -54 X s 281 681 m -54 X s 281 716 m -54 X s 281 751 m -54 X s 281 787 m -54 X s 281 822 m -54 X s 281 857 m -54 X s 281 892 m -54
 X s 281 927 m -54 X s 281 962 m -54 X s 281 997 m -54 X s 281 1033 m -54 X s 281 1068 m -54 X s 281 1103 m -54 X s 281 1138 m -54 X s 281 1173 m -54 X s 281 1208 m -54 X s 281 1243 m -54 X s 281 1279 m -54 X s 281 1314 m -54 X s 281 1349 m -54 X s
 281 1384 m -54 X s
 gr  gr showpage
end
%%EOF
